TSPAN6_3
TNMD_1
DPM1_4
SCYL3_4
C1orf112_8
FGR_5
CFH_3
FUCA2_2
GCLC_9
NFYA_2
STPG1_5
NIPAL3_5
LAS1L_5
ENPP4_1
SEMA3F_7
CFTR_5
ANKIB1_5
KRIT1_18
RAD52_11
BAD_6
LAP3_5
HS3ST1_3
AOC1_6
WNT16_2
HECW1_3
MAD1L1_13
LASP1_7
SNX11_10
M6PR_11
CYP26B1_5
ICA1_14
CASP10_8
CFLAR_19
NDUFAF7_8
MTMR7_3
SLC7A2_6
SARM1_4
PLXND1_6
CD38_3
FKBP4_6
KDM1A_4
RBM6_12
CAMKK1_3
VPS50_9
HSPB6_3
ARHGAP33_6
PDK4_1
SLC22A16_6
ZMYND10_5
ABCB5_5
SLC25A13_3
ST7_21
SLC4A1_3
CALCR_7
HCCS_3
DVL2_5
UPF1_2
SKAP2_2
HOXA11_2
MEOX1_4
THSD7A_2
LIG3_7
RPAP3_3
ACSM3_9
REXO5_14
CIAPIN1_10
SPPL2B_7
FAM214B_7
COPZ2_7
PRKAR2B_1
MSL3_10
CREBBP_7
TSPOAP1_5
MPO_2
PON1_2
GCFC2_9
WDR54_3
CROT_4
KMT2E_12
RHBDD2_4
IBTK_6
MYCBP2_5
FBXL3_2
ITGAL_10
PDK2_8
ITGA3_7
ITGA2B_3
ASB4_2
GDE1_4
C19orf60_4
OSBPL7_5
TMEM98_7
MAP3K14_3
ABCC8_8
CACNG3_1
TMEM132A_6
AP2B1_19
TAC1_3
ZNF263_8
CX3CL1_4
SPATA20_14
DLX6_2
RALA_3
BAIAP2L1_1
KDM7A_2
TTC22_3
PHTF2_8
FARP2_9
USH1C_6
GGCT_8
DBF4_4
TBXA2R_3
COX10_4
PAF1_4
VPS41_9
ARHGAP44_8
ELAC2_12
SCIN_7
PNPLA4_4
ADIPOR2_1
CDKL3_9
PRSS21_6
MARK4_8
PROM1_12
CCDC124_3
PAFAH1B1_4
NOS2_2
KIAA0100_6
GAS7_13
MATK_12
CD79B_3
ST7L_10
TKTL1_5
PAX6_57
RPUSD1_10
LUC7L_13
CACNA2D2_6
BAIAP3_9
PIGQ_16
CRAMP1_3
TEAD3_4
SELE_6
DNAJC11_4
E2F2_1
JARID2_2
CDKL5_9
CAMK1G_3
NADK_8
TFAP2B_2
TFAP2D_1
DLEC1_3
CYTH3_2
ADAM22_9
CYB561_15
SPAG9_9
PLEKHG6_5
MGST1_10
CRY1_2
PGLYRP1_1
NFIX_13
MMP25_2
MAPK8IP2_1
HEATR5B_2
SEC62_5
RPS20_9
CSDE1_13
UBE3C_4
REV3L_8
TENM1_2
PAX7_3
MASP2_2
IYD_8
FAM76A_7
TRAF3IP3_10
POMT2_8
VTA1_4
BAZ1B_2
RANBP9_1
ETV7_8
SPRTN_4
DYRK4_7
ZNF207_11
UQCRC1_3
CD9_6
HHATL_8
NCAPD2_4
IFFO1_8
PHF7_6
SEMA3G_3
NISCH_4
STAB1_2
FUZ_14
ZNF200_7
CD4_3
LRRC23_11
BTK_4
HFE_12
SCMH1_12
FYN_19
HIVEP2_3
ELOA_3
CLCN6_4
MRC2_4
SLC6A7_2
TSPAN9_5
APBA3_1
MKS1_10
ABHD5_5
ANOS1_1
MBTD1_5
TTC19_6
PTBP1_14
DPF1_11
SYT7_9
LARS2_5
PIK3C2A_3
PLAUR_12
ANLN_10
WIZ_6
RABGAP1_5
DCN_19
QPCTL_3
PPP5C_3
CEP68_3
MAP4K3_7
TYROBP_7
TMEM159_8
GABRA3_2
BRCA1_28
ERCC1_13
CD22_18
LTF_5
EXTL3_6
NR1H4_9
ELOVL5_4
ALOX5_3
CALCOCO1_13
UBR7_7
MAP4K5_5
EHD3_1
PSMC4_2
SLC7A14_1
CLDN11_2
SLC25A39_12
NUB1_8
CLK1_6
POLR3B_3
ANGEL1_4
RNF14_14
HEBP1_3
MAMLD1_5
UFL1_1
POLA2_4
ZC3H3_2
CAPN1_16
ACPP_5
SLC30A9_2
MTMR11_2
COX15_2
YAF2_12
ZMYND11_15
DPEP1_5
NPC1L1_4
XYLT2_6
STMN4_6
ISL1_2
CHDH_3
IL20RA_7
CLCA1_2
CLCA4_1
GLT8D1_10
ATP2C1_20
IGF1_6
SLC38A5_11
RALBP1_6
RUFY3_9
CNTN1_10
SLC11A1_5
WWTR1_10
AGPS_3
TTC27_6
ZNF582_7
VSIG2_2
PHLDB1_8
MARCO_2
CYP24A1_3
SYT13_3
SNAI2_2
CD74_8
HGF_9
ZRANB1_1
NCDN_5
ADGRA2_3
ZFP64_9
MNAT1_4
SAMD4A_5
RUNX3_3
PLEKHB1_16
SERPINB1_1
SLC7A9_5
SPAST_4
AQR_3
CPS1_7
C8B_3
RTFDC1_4
GABRA1_16
SLC45A4_5
RNF10_13
ZDHHC6_3
GRAMD1B_14
NDUFS1_9
RB1CC1_8
ERP44_1
ALAS1_6
AKAP11_1
GLRX2_2
SNAPC1_1
DERA_8
STRAP_4
DEF6_2
PLEKHO1_2
GCLM_2
UBR2_3
CCDC28A_3
RRAGD_2
HSF2_3
PHF20_6
NR1H3_19
TYMP_5
NCAPH2_8
TOMM34_1
SEC63_3
KPNA6_3
FAS_10
CD44_27
KCNG1_5
AGPAT4_5
SLAMF7_9
MIPEP_1
PRKCH_15
INSRR_1
IFNGR1_3
SH2D2A_3
VRK2_7
TNFRSF1B_2
VEZT_22
POU2F2_17
SNX1_11
TBPL1_6
BCLAF1_16
SLC39A9_6
ANK1_10
IBSP_1
TFB1M_1
RABEP1_6
NUP160_5
BAK1_3
IKZF2_13
GRN_16
FAM13B_8
ARHGAP31_2
CENPQ_1
ARID4A_8
TSSC1_8
PNPLA6_13
IFT88_4
ZCCHC8_6
ABCF2_4
CHPF2_4
LRRC7_8
FUT8_11
UBA6_4
GAB2_4
ATP6V0A1_14
PIAS1_5
SLC4A7_14
APBA2_10
EFCAB1_6
TMSB10_1
PEX3_2
GABARAPL2_4
MYOC_2
SH3YL1_13
VCL_3
DEPDC1B_4
DAPK2_8
ADSS_1
STAP1_2
TIMP2_5
RFC1_7
TBC1D23_5
CUL3_9
MYOM2_4
OTC_1
CYP46A1_5
ZZZ3_4
SLC18A1_8
USP2_5
CASR_4
FLT4_5
NSUN2_4
FBXO42_3
MFAP3_5
MRI1_2
METTL1_6
HOXC8_1
AGA_3
PI4K2B_1
TLL1_6
EDC4_4
VCAN_7
CLEC16A_5
MSR1_9
SKIV2L2_4
RIPOR1_15
C6_4
RAI14_18
PNKP_19
BEST2_4
PHLPP2_5
SPDL1_12
PQLC2_6
CTNS_8
RTN4R_3
CDH10_2
INPP4A_6
RAB27B_3
MYO16_4
LSG1_3
PARP3_5
TNC_9
THAP3_5
RIPOR3_2
TDP1_15
AIFM2_3
MED17_18
CAPG_9
ZPBP_4
TG_10
ADAM28_6
BARX2_1
DCUN1D1_8
JADE2_8
ZIC2_1
LCP2_4
TRIT1_11
CTNNA1_32
PHKA2_1
CNTLN_2
EPHA3_3
DSG2_2
GPM6B_9
MAGEC2_1
PREX2_1
WDR37_5
YTHDC2_4
CTPS2_4
ATP6V1H_9
FAM214A_13
CP_5
KIAA0556_4
XK_1
ANO2_5
C12orf4_6
WWC3_1
ARHGAP6_6
MAP4_12
GOPC_3
ROS1_3
USP28_13
CC2D2A_12
RRM2B_8
ZNF800_7
TNFRSF17_3
SNX29_5
GUCA1A_5
RSF1_7
CELF2_17
FAM120A_4
R3HDM1_12
KITLG_4
ERCC8_3
ADAMTS6_2
H6PD_2
VAMP3_2
PER3_5
TNFRSF9_4
LTBP1_10
RCN1_6
ARID1B_20
NEDD4L_18
FOXP3_6
HEXB_6
PTCD2_10
JKAMP_8
DKK3_6
NFE2L3_2
MCUR1_3
LIMA1_10
LETMD1_23
SLC4A8_4
PTGER3_12
TNIP3_4
MAPK9_10
FAM160A2_3
HERPUD1_10
RAD51_10
POLQ_2
PIK3CB_11
CYBA_6
THOC3_10
HEBP2_4
MPHOSPH9_14
PRSS8_4
SIKE1_2
RRP12_8
MSMO1_5
TTC17_5
ALX4_1
FSTL4_3
METTL24_1
NNAT_2
USE1_8
MCF2L2_6
NRIP2_3
LAMA3_10
AP5M1_6
TRAPPC3_7
ENTPD2_2
ARID4B_7
OPN3_4
SDCCAG8_3
PTPRN_10
KIF1B_8
TBC1D22A_8
PLEKHH1_4
ATP9A_2
SPO11_5
CBLN4_1
CHRDL2_9
FAM168A_3
RELT_4
GALC_10
NOP58_3
KCNH2_3
CUL1_4
FAM114A2_11
CYFIP2_12
TAB2_7
GINM1_2
USP36_19
KMT2C_9
MCOLN3_4
CCDC85A_1
PUM2_10
ITIH4_4
HPF1_1
NPFFR2_4
PHF21B_6
TRAF1_3
RC3H2_8
IL17RB_2
TRAF3IP2_5
GYG2_6
DCBLD2_3
SOAT1_4
PKP2_3
GDI2_8
PRDM1_5
ATG5_8
TMCC3_3
PITHD1_3
MTA3_9
USP13_4
CDK14_10
SEC61A1_4
PPP1R12A_14
RASGRF1_3
CROCC_4
POLR3E_12
ATP2B4_6
RIOK2_5
YIPF1_3
NDC1_1
DGKG_4
FLYWCH1_9
TBXAS1_10
PARP12_5
ALDH18A1_2
TARBP1_1
GATB_8
MXD1_4
CDK17_7
PSD_4
CTDP1_5
STYK1_6
WNK1_14
CCAR1_14
CREB3L3_4
PTPRU_4
COL11A1_7
HDAC7_23
LZTS1_4
WNT8A_4
SPAG4_3
NCKAP1_2
GUCY1B3_7
SFSWAP_4
MON2_7
CDH3_8
ARSF_2
GPBP1_5
DGAT2_6
LTK_4
ELMO2_8
WAPL_4
VMP1_11
APPBP2_4
POLD1_10
SEZ6_9
SLC6A16_6
BICRA_3
SPHK2_11
CA11_2
ISOC2_5
MED29_7
ZNF275_2
MTMR1_12
ADCK1_5
HAGH_7
CASP8_16
LIMCH1_17
DLX3_2
SPA17_2
WISP2_3
DMRT3_2
ST3GAL6_17
ATP2C2_3
NGFR_3
CDON_8
TAF2_5
HIPK2_3
TNPO3_5
RFXANK_10
TMEM161A_9
SUGP2_11
SLC12A2_4
SNX24_6
EYA2_6
SNCAIP_20
DDX20_3
BTBD1_3
POU1F1_4
CHI3L2_14
SBNO2_13
PMS1_19
CALCRL_5
AP3D1_5
ZNF76_5
SLC9A3R2_7
NTHL1_4
UHRF1BP1_2
GNAI3_1
IPO5_22
OAT_2
WDR3_2
PKN2_5
WDR18_8
TRAM2_1
NTN1_2
GLP2R_4
MCM10_4
DGKA_21
ANKRD44_8
KARS_9
ADAT1_8
PDIA5_4
TBC1D22B_1
SPEN_3
ZC3H15_4
MAP2K4_9
TMEM206_2
SLK_2
CYB5R4_2
COL17A1_4
GSTO2_3
SEC61A2_12
PRKCQ_4
ASB1_3
FAM107B_22
ME1_1
TBC1D1_9
CDK13_4
MTHFD2_5
SLC9A7_2
FOXJ2_2
PDE4A_7
PPP2R5A_2
ELAVL1_4
TIE1_2
DIP2B_2
KDM4A_1
NFYC_18
ZMYND12_3
SLC9A3_4
NGEF_6
ASPM_3
SPI1_4
ZNRD1_28
MPPED2_4
CLDN18_3
ZBTB11_2
GOLGA5_2
FGFR2_22
LRRC40_1
ISOC1_2
EML1_15
TRMT11_9
THUMPD1_4
ARFGEF1_5
ZFAT_12
MTFR1_6
STAG3_10
FECH_7
MYO9A_11
PFKP_9
IDI1_3
KLF6_3
PLPP1_3
NEO1_5
TRAM1_3
PHKA1_5
TNFRSF1A_9
EVI5_3
STOML1_9
DHX29_3
METTL22_10
TP53BP1_10
RHOA_4
DHX8_5
IARS2_1
SYT1_10
NAV3_8
IDH3G_8
ROGDI_9
PDZD4_4
ROCK1_3
CBFB_6
PDK3_2
HYAL2_9
HDAC4_7
RASSF1_7
FGFR3_8
IFI35_2
COASY_10
PLEKHH3_4
MEF2A_9
TFE3_2
ACSL4_9
INPP5A_5
REEP1_6
ATP11A_8
POLR1A_4
LAPTM4A_1
TTC7A_6
IP6K2_24
KIF2A_7
RASGRP2_17
PSME4_2
SIRT2_13
ERLEC1_3
PPP2R5B_3
PYGM_2
PAGE1_1
PITX1_5
ADGRF5_2
SDK2_2
ADAM7_4
NUCKS1_1
VPS35_5
BCL3_2
GAL_1
MAOB_1
RORA_7
DRD4_2
TGFBR3_7
KIAA1107_3
PLA2G10_2
NEDD4_8
PIGB_6
GNB5_6
RAB27A_9
GUCY2C_1
PHRF1_10
IKBKAP_3
NUCB2_15
PTPN3_4
SPTB_5
DAPP1_2
FGF10_2
SLC44A1_4
TMEM260_9
EXOC5_5
FGF22_2
DGCR2_4
RNF126_3
ZXDC_3
JMJD6_6
POLB_11
WIPI1_6
FRMPD1_3
GBA2_3
NDST1_5
ASNS_14
AP3M2_12
CNGB1_5
CHAT_8
TESK2_2
CFAP20_2
CSNK2A2_4
PTPN21_5
EIF2B3_5
CAMK2A_4
TCOF1_11
OSBPL3_11
EPHA8_2
SLC12A3_4
RAD18_7
ATP2B1_7
TRPM5_4
NCK2_6
MAP4K4_15
MGAT4A_5
WDR1_5
SNX13_5
MS4A12_4
ARHGAP10_2
ING3_5
VASH1_3
LMCD1_6
BUD23_12
SEL1L_3
TRIP13_2
ATP6AP1_8
TCF3_18
TRIB2_3
DAZAP1_5
HLTF_5
FAM3A_18
MYO3B_5
CYBRD1_4
CDH19_5
RDH11_8
PRKACA_6
SPP2_3
ZFYVE26_4
RPS6KA6_2
EPN2_17
PTPN18_4
LIMS2_12
ASIC4_2
LNX1_7
ALDH3A2_20
TRPC5_1
AFF4_4
UBE2D1_2
MPP5_5
SMC1A_5
HMMR_6
CHFR_12
TRHDE_2
P4HA2_15
NFATC3_11
TRNT1_8
ACADVL_12
STK10_2
FBXW11_8
ACAP1_7
CRMP1_3
EVC_2
DERL2_9
SIDT1_2
NDE1_20
MRVI1_14
TMEM38A_2
AP1M1_10
XRCC1_6
SCARB1_6
CYP2W1_3
MCM2_6
PANX2_3
TP63_12
ALPK1_7
LLGL2_14
PDE8A_8
CLCN4_4
NLE1_6
FNDC8_1
KDM5A_5
PPP2R3A_4
FERMT2_12
ABCB11_2
DHRS9_8
CD5L_1
PTGS2_2
MAP3K13_14
ST6GAL1_16
TBX21_1
PICALM_18
NSF_7
CLASP1_8
MRPS34_2
CLNS1A_8
PPP2R2C_6
TEAD2_8
CDHR2_4
SNCB_5
TSG101_4
CA12_3
MGLL_10
NTN4_5
BCS1L_14
NUAK1_4
DPP8_12
HACD3_9
ZZEF1_5
NOX3_1
SLC12A1_8
TUBE1_4
ARHGEF10L_4
TXK_5
WSCD2_4
KCNQ2_16
TACR2_3
ACTR6_9
SRI_6
NUP37_5
SEMA3A_5
GTSE1_1
SEMA3C_5
TTC38_6
ACAT1_5
GRAMD4_6
WNT8B_1
SLC25A40_4
TIMM21_3
ADD2_11
FGF4_1
RASAL2_3
VPS9D1_4
ZNF37A_3
SLC25A3_12
FOSL2_3
CACNG5_2
CACNG4_1
TMEM131_4
FSCN1_4
ACTB_6
MOCOS_1
PLD1_7
ATP12A_2
DLG1_19
BCAP29_13
SEC31B_6
SART3_9
ARHGAP15_3
PAX2_6
EXOSC7_1
KIFAP3_4
MKRN2_3
MCM6_1
REXO2_11
BAZ2A_9
PTPN23_3
UNG_4
KLHL20_1
RGS11_4
SLC46A1_6
PLXNA2_1
ANKRD13A_5
TRAF4_11
PAG1_1
GPATCH1_2
NT5C2_8
MCAM_1
MBNL3_10
CAMSAP3_2
RAP1GAP_9
XAB2_1
ARHGEF1_12
MAP2K7_3
NMRK2_5
DGKD_6
CTTNBP2_9
ACTL6B_2
RARB_4
TOP2B_4
TM9SF3_2
NFKB2_5
PPP1R12B_11
DNAJC10_7
IL4R_14
USP33_9
CAPN6_1
DCX_11
SNRPA_7
SPAG6_6
EXOSC5_4
DYNC1I2_20
APBB1IP_2
LRCH4_4
FAM76B_8
SIRT6_8
TYR_1
POLD3_8
ACTN2_3
CAPZB_5
NAALAD2_7
JADE1_14
UBE2A_7
FGFR1_23
SMC1B_2
FBLN1_13
ITGA8_1
MAP2_8
PIAS2_9
AMPH_4
ARAF_3
MCCC1_12
LAMP3_4
FAP_7
NEBL_6
ACER3_10
UBE2K_5
PIK3C3_9
N4BP2_4
TIGAR_2
TULP3_8
PPP2R5C_21
RBFOX1_16
EDN1_1
MLLT10_10
ZCWPW1_5
ADCYAP1R1_7
FGF20_2
ITM2A_2
NRDC_5
VDAC3_8
PCM1_8
TNRC6C_7
CBFA2T2_8
BRINP1_2
ITCH_5
PKD2L2_7
TP53INP2_4
BPIFB2_1
TP73_11
UBE2D4_9
CLUL1_8
RUNX1T1_41
CDH17_5
FKBP7_6
OSBPL6_7
SLC1A3_7
LXN_2
SP140_6
TNS1_14
REXO1_4
SAR1A_7
CDC14A_5
DUSP13_14
CIC_7
LIPE_7
FDFT1_18
OPHN1_1
AFM_1
SCGN_3
CARMIL1_3
DDX1_5
DNM2_9
EPB41L2_24
RIMS1_16
MOXD1_3
STX7_2
KEAP1_8
DDX43_1
DCT_3
SLC35C2_7
SCTR_3
SLC4A4_7
SESN1_3
MID2_3
PIH1D3_3
SRCAP_4
PUM3_2
CPB2_2
CHRNA3_4
KCNN2_6
CNOT4_8
PSEN1_22
CPOX_3
CLDND1_26
MOK_23
RBL1_4
NDC80_4
AP4E1_5
RSBN1_5
MAGI3_4
AFP_2
TCF7_17
OSTM1_2
CDH7_3
IMPG2_1
EXD2_7
ARG2_1
MEF2C_33
PTPRC_9
PKP1_3
UBA5_9
STK17B_5
CDC14B_8
JMJD4_4
DUSP12_4
AACS_2
KIAA0141_4
SLC13A1_4
CADPS2_7
HSPB11_4
PHLPP1_2
ATP8B1_4
IL12RB2_5
SMARCD3_6
WDR70_2
MPP4_10
BZW1_9
PGR_9
ME2_15
C5orf22_6
CCNT2_8
FAM135A_10
COL19A1_3
COBLL1_13
DLG3_4
SERTAD4_1
TRAF5_3
MRPL22_5
GEMIN5_1
OPRK1_6
NFE2L1_19
GSK3B_2
ITGB5_8
XPO1_12
RNF13_15
PALB2_5
DOPEY1_4
LYRM2_5
BCKDHB_3
KAT6A_6
ZCCHC6_6
ULK2_5
GRHL2_3
TNPO1_5
DIS3_4
TDRD3_7
NUFIP1_1
PDS5B_3
RRAGB_3
EPYC_2
CYLD_12
ZNF416_1
ZNF446_6
FAT1_7
YTHDC1_6
CHMP2B_4
SMAP2_5
REST_9
HAL_8
GSTP1_4
APLP2_10
FAM234B_3
WBP11_3
EIF3I_2
NKAIN1_3
TXLNA_2
APOB_2
NCOA1_6
AGBL5_8
EFR3B_5
KIF3C_4
HADHA_2
MAPRE3_4
CAD_5
CD59_13
CD82_10
ATRX_14
MYNN_5
MECOM_17
PREP_2
HACE1_9
SEH1L_6
WDR47_9
WDFY1_2
OVGP1_1
SLC25A24_4
ABCB1_4
ZNF213_8
CPNE3_8
WNT11_3
MTIF2_10
TTC39A_15
EPS15_3
ORC1_2
MGST2_4
ATG16L1_10
USP40_9
POMGNT1_3
RAD54L_11
MAST2_3
DNAJA1_1
B4GALT1_2
AQP6_4
DIMT1_3
IPO11_9
EIF2AK1_4
NME8_5
EPDR1_4
SNX10_8
SEPHS1_5
ITPKC_2
FAT2_2
RBM22_4
ERO1B_3
ZFAND6_21
PPEF1_5
LAT2_9
HUWE1_7
ZW10_3
NOX4_13
MTMR2_5
PPP1R15A_2
ACHE_13
SRRT_10
BAX_9
NLK_3
PIGS_5
ADAMTS2_3
PSMC5_12
UIMC1_8
CETP_3
MMP2_8
LPCAT2_2
GNAO1_14
OGFOD1_7
SH3BP2_15
NOP14_4
ADD1_14
L2HGDH_6
TXNDC16_3
GMCL1_1
SF3B2_7
GNAS_22
DNM1L_17
TFAP2C_2
AURKA_13
CASS4_2
PIR_2
RFX2_13
SULT2B1_2
ALG6_4
CNOT3_27
PTPN4_7
DDX18_2
KHSRP_10
GNA11_3
EDEM2_2
DNMT3B_6
REM1_1
TPX2_2
PDRG1_1
SLC15A1_1
DOCK9_15
ANKRD10_4
TGDS_1
DOCK3_1
C3orf18_6
COQ9_8
TMEM40_5
ARHGAP28_13
CRLS1_3
PPP1R13B_6
ATRN_2
SIGLEC1_2
NSFL1C_8
SLC4A11_5
C20orf194_1
EBF4_5
CPXM1_1
MAVS_2
LZTS3_3
F11_5
XRN2_1
TESC_5
MAPKAPK5_5
P2RX7_12
ESF1_2
SLC23A2_3
SLC8B1_11
TMEM230_10
DZANK1_10
KDM2B_15
CFAP61_13
LHX5_1
OAS1_10
RPLP0_16
SIRT4_2
KIF16B_6
TRMT6_2
CHGB_2
TBX5_4
BRAP_2
ERP29_4
NOS1_4
FUS_4
FXYD5_11
GRAMD1A_5
FXYD3_13
KCNH4_2
GANAB_9
GMIP_6
RBM41_4
LAG3_2
MLF2_7
OTUB2_2
DDX24_6
ZBTB25_4
NECAP1_14
ARHGAP4_14
ANKRD24_5
DHX32_3
RCOR1_2
GPATCH2L_11
LTBP4_16
BLVRB_3
SPTLC1_2
PAPOLA_10
CCNK_4
RGS1_2
YPEL3_9
NDUFB2_12
MAEA_13
STRN4_12
LYZ_3
SI_2
MUL1_1
PDCD7_2
FETUB_7
CHRD_6
RAB11FIP3_6
GNPTG_5
GOLGA3_5
PABPC4_12
USP48_10
PDPR_9
AARS_2
GLG1_8
TNRC6A_7
PLEKHG2_13
DLL3_3
NAT14_4
PITPNM2_6
EXOC1_3
POU4F3_1
OSBPL8_13
DTX2_15
PUS7_4
LAMB4_4
NRCAM_13
LAMB1_5
SLC26A4_2
SLC26A3_3
DLD_8
WDR7_7
TXNL1_7
IL5RA_10
CMTM6_1
ITGA6_7
RAPGEF4_7
SMPX_1
FH_1
SEL1L3_9
TF_7
CDV3_9
MYO15A_8
NLRP1_12
PITPNM3_3
ZFHX4_8
SLC17A6_1
CPA1_5
ZC3HC1_8
ESR1_11
RGS17_2
ANGPT2_4
TMEM101_7
CCDC80_4
CMA1_2
PPP2R3C_18
CEBPE_1
SLC7A8_10
SLC22A17_8
SCFD1_14
HECTD1_9
HNRNPC_27
RPGRIP1_10
SUPT16H_4
TOX4_7
GEMIN2_9
TGM1_9
DAZL_3
TRPM7_4
TYRO3_5
WDR76_3
CAPN3_17
SNAP23_17
TBX15_3
PHGDH_2
EZR_3
AGO1_3
TEKT2_3
RFFL_10
UNC13D_9
MFSD11_16
TGFB2_2
CDC45_7
COMT_9
ADA2_8
ECHDC1_19
LRRFIP2_11
SEC22C_13
XYLB_3
HDAC6_11
GABRP_9
CDC6_4
UPRT_5
CDC23_5
CBX5_4
SUCO_5
MAP3K1_1
DHPS_16
HOOK2_9
NXPE1_6
ARCN1_5
EPB41L4B_2
TMEM38B_5
PTGS1_7
CRAT_7
SH2D3C_8
TBC1D2_5
WHRN_4
BTAF1_2
IKZF5_2
BLNK_6
TDRD1_3
SORBS1_16
CRTAC1_5
BAMBI_1
WAC_13
CREM_37
TREM2_3
KCNK16_5
CRISP3_4
FKBP5_4
SRPK1_8
BRPF3_11
MRPS18A_3
PGC_4
TMEM14A_1
EFHC1_25
MLN_3
CDC5L_1
ZNF184_2
DSP_2
SIRT1_4
IFT74_8
JAK2_3
ABL1_3
SH3GLB1_4
SYDE2_1
PCSK5_5
SCD_1
TMED1_7
ABLIM1_10
ERMP1_4
RAB18_6
NRP1_14
PRTFDC1_3
PALMD_3
TSPAN15_2
H2AFY2_2
OCEL1_9
MYO9B_10
CATSPERG_8
FBXL19_9
STX1B_2
HSD3B7_4
SETD1A_2
BCL7C_4
MAGEB2_1
ATP5D_4
HNRNPM_12
TECR_10
TIMM13_2
MISP_1
CEP170B_3
POLR2E_9
POLRMT_4
IZUMO4_7
RASSF7_14
PALM_5
MADCAM1_9
ARVCF_4
TRMT2A_7
ZDHHC8_4
KLHL22_7
MED15_18
SERPIND1_2
SNAP29_2
CRKL_2
MMP11_7
CECR2_5
SMARCB1_12
P2RX6_6
DERL3_8
SLC7A4_3
BCL2L13_13
OSM_3
SF3A1_4
SEC14L2_9
SEC14L3_7
PPIL2_6
UPB1_3
SNRPD3_4
PES1_7
MAPK1_3
PPM1F_5
SLC35E4_3
TOP3B_14
CYTH4_5
DGCR14_2
MFNG_8
GRK3_3
PLA2G3_1
LGALS2_2
HIRA_3
SH3BP1_3
SEZ6L_8
HPS4_7
PIK3IP1_4
SRRD_1
PATZ1_4
TFIP11_10
GCAT_5
CRYBB1_1
ANKRD54_9
EIF3L_9
POLR2F_12
CCDC134_2
TTC28_4
SLC5A1_2
SLC5A4_1
DDX17_5
DMC1_5
TCF20_4
HSCB_4
CBY1_5
RSPH14_5
XBP1_5
JOSD1_6
FBXO7_6
RAB36_3
TIMP3_1
PPP6R2_7
CYB5R3_6
DNAL4_2
C22orf31_1
MIOX_4
RHBDD3_4
PACSIN2_11
TTLL1_4
RASL10A_2
AP1B1_8
HMGXB4_4
TOM1_14
BIK_1
HMOX1_2
MCAT_3
THOC5_12
ARSA_6
TSPO_5
RASD2_1
TTLL12_2
CBX7_3
PDGFB_4
CABP7_1
ZMAT5_1
RBFOX2_12
TAB1_2
ASCC2_9
MTMR3_6
MIEF1_7
PNPLA3_3
EIF3D_7
IFT27_6
CSF2RB_4
SLC25A17_15
FAM118A_6
KCTD17_6
IL2RB_5
RBX1_1
EP300_3
L3MBTL2_5
CHADL_3
ZC3H7B_1
PHF5A_1
TRMU_7
PMM1_2
CERK_2
MLC1_3
HDAC10_7
KCNK10_4
ABHD4_7
SDR39U1_10
GZMB_9
RBM23_19
PRMT5_20
COCH_9
POLE2_4
VCPKMT_3
SOS2_4
CDKL1_4
NIN_13
PYGL_3
TRIM9_3
GNPNAT1_3
DDHD1_5
CDKN3_9
CNIH1_7
PLEK2_5
PIGH_10
LRRC74A_5
TIMM9_8
GSTZ1_12
KIAA0586_10
TMED8_1
SAMD15_2
AHSA1_7
DAAM1_3
ISM2_6
SPTLC2_3
LGMN_14
CHGA_6
ITPK1_8
DHRS7_8
PPM1A_8
SIX4_2
GALNT16_4
ASB2_6
CEP128_11
ERH_2
HIF1A_5
SUSD6_1
SRSF5_9
SLC10A1_1
EIF5_10
SERPINA4_3
SLC8A3_9
DICER1_9
ZFYVE21_5
MTHFD1_7
TCL1A_8
ZC3H14_21
TELO2_3
PCNX1_5
GSKIP_6
PSMC1_3
PAPLN_7
RPS6KA5_6
C14orf93_16
PSMB5_6
YY1_4
ACIN1_11
CCNB1IP1_12
TRIP11_4
EFS_3
ARHGAP5_10
CINP_6
DHRS2_6
SRP54_8
CPNE6_14
CHD8_7
PCK2_12
NFKBIA_5
REC8_5
SEC23A_11
PNN_3
RABGGTA_8
NFATC4_27
PLTP_5
PCIF1_2
GSS_2
MMP9_1
VSX1_6
UQCC1_15
ZMYND8_20
SGK2_9
IFT52_2
HNF4A_9
RIMS4_2
PABPC1L_10
STK4_5
ADNP_6
PFDN4_2
DOK5_2
CSTF1_6
BMP7_4
RAE1_8
DNAJC5_2
NELFCD_2
CTSZ_1
PRPF6_1
TUBB1_1
HRH3_3
MTG2_3
PSMA7_4
SLCO4A1_4
NTSR1_1
MRGBP_1
TCFL5_2
GID8_1
BIRC7_3
ARFGAP1_14
COL20A1_4
EEF1A2_2
GMEB2_3
C20orf27_4
SPEF1_1
ISM1_1
RNF24_4
ARFRP1_8
NDUFAF5_3
SEL1L2_5
TRIB3_4
RASSF2_2
SLC52A3_3
ANGPT4_1
RSPO4_2
CDS2_2
PROKR2_1
HM13_6
SNPH_3
MYLK2_2
SEC23B_6
HAO1_1
PDYN_3
PLCB4_9
MYL9_2
HCK_10
TM9SF4_5
TLDC2_3
CRNKL1_5
POFUT1_2
SAMHD1_1
PAK5_3
KIF3B_1
NOP56_4
MANBAL_5
IDH3B_6
JAG1_3
CDK5RAP1_5
SNTA1_1
OXT_1
TTI1_4
E2F1_1
RPRD1B_6
CHMP4B_1
CST9L_1
SLC32A1_1
FAM83D_2
DHX35_5
DNTTIP1_5
MAP1LC3A_3
SYNDIG1_1
PIGU_3
TNNC2_2
ACOT8_9
ZNF516_4
CDH20_3
ADNP2_5
USP14_7
VAPA_3
METTL4_6
LPIN2_3
CEP76_8
ST8SIA5_5
CEP192_11
RNMT_8
SMAD7_4
LIPG_6
ANKRD12_7
NOL4_9
POLI_10
MIB1_1
RBBP8_14
CSTF2_4
VSIG1_3
PSMD10_5
ATG4A_6
STS_1
POLA1_3
MID1_11
NKAP_1
NXT2_4
GUCY2F_1
ATP1B4_3
PRPS2_5
TLR8_2
AMMECR1_3
CHRDL1_5
WDR13_6
SUV39H1_2
PAGE4_2
SRPX_4
GLRA2_4
STAG2_13
ATP11C_6
F9_2
CCDC22_1
SYP_6
PLP2_2
BMX_3
LUZP4_2
PLS3_9
RENBP_6
MTMR8_1
ZC3H12B_1
KCND1_3
SLC25A14_7
FMR1_16
PIM2_2
SCML2_3
SLC35A2_18
PQBP1_8
RS1_1
TAZ_12
MAGT1_4
PHEX_1
UBL4A_5
CD99L2_8
EEA1_4
GPR50_1
RP2_1
JADE3_4
CDK16_15
PCYT1B_4
BRS3_1
VGLL1_3
CD40LG_2
KLHL4_2
GABRE_3
FGD1_1
ITIH6_1
MAGED2_8
SRPX2_4
SYTL4_4
ZDHHC15_2
CENPI_5
DRP2_5
TAF7L_3
GLA_2
ARMCX3_5
BEX4_2
RUBCNL_11
NALCN_2
FGF14_2
HTR2A_4
TNFSF13B_3
FNDC3A_6
CAB39L_10
STK24_6
ACP5_9
DNAJC3_2
UGGT2_6
ARHGEF7_15
FGF9_1
SGCG_1
SUPT20H_10
FLT1_9
RGCC_1
VWA8_2
DGKH_8
KATNAL1_4
MEDAG_2
TSC22D1_8
CLN5_12
OLFM4_1
MSLN_8
MGRN1_10
ZNF629_1
TRADD_2
HSF4_15
CORO1A_8
MAPK3_11
GDPD3_3
ELMO3_4
MT4_1
PHKB_11
NUTF2_4
CENPT_14
TSNAXIP1_11
NFAT5_10
LONP2_6
N4BP1_2
CBLN1_3
PLLP_4
ZNF423_8
DHODH_5
CTCF_2
ACD_7
POLR2C_2
PARD6A_3
ZNF821_17
MMP15_2
USB1_7
CYB5B_5
CCDC113_5
NME3_5
NDRG4_39
SETD6_6
VAC14_7
HAS3_4
SMPD3_5
SLC7A6OS_4
SLC7A6_13
PLA2G15_8
FA2H_4
WDR59_8
MON1B_8
CMC2_16
AXIN1_3
HCFC1R1_6
NPRL3_11
HSDL1_5
TAF1C_13
NAGPA_8
SEC14L5_2
USP10_11
CRISPLD2_8
TSC2_13
ZNF500_7
ABCC1_4
FOXF1_1
NARFL_10
MTHFSD_17
CLCN7_5
HAGHL_13
SLC7A5_2
FBXO31_4
STUB1_7
RHBDL1_3
NUBP1_5
UBE2I_12
ZP2_2
MEFV_13
CRYM_7
EEF2K_2
PIEZO1_6
GSPT1_7
ZNF174_5
CLUAP1_11
EARS2_8
ELOB_5
GGA2_9
AQP8_2
CPPED1_3
USP31_3
BFAR_9
SALL1_4
TOX3_4
XYLT1_1
PYCARD_3
RPGRIP1L_10
CDIPT_7
BCKDK_9
KAT8_4
SYT17_8
TMC5_9
CCP110_6
C16orf62_14
SLC6A2_10
RNF40_9
AQP9_3
AAGAB_4
IQCH_11
LACTB_3
CORO2B_4
CSK_6
HERC1_9
MTFMT_4
RASL12_3
AP3B2_7
ACSBG1_8
IGDCC4_1
RAB11A_6
CTSH_6
TTC23_14
FAH_6
CEMIP_5
RPAP1_6
HOMER2_4
EHD4_1
TMEM87A_10
CEP152_6
ATP8B4_8
OCA2_9
DTWD1_8
TGM5_5
FAM189A1_2
GABPB1_10
TJP1_8
BMF_9
SCG3_3
SPG11_14
VPS18_3
SLC30A4_1
BLOC1S6_15
MYEF2_9
PDGFRL_2
CSPP1_5
ZDHHC2_3
BRF2_4
TRIM35_3
ZFAND1_17
CA2_3
FZD3_3
INTS9_11
RIPK2_3
EYA1_9
TRPA1_2
DECR1_11
CALB1_5
IMPAD1_3
SFRP1_2
LAPTM4B_4
POP1_3
NIPAL2_2
IKBKB_18
PLAT_9
JPH1_2
DKK4_1
STK3_7
GDAP1_3
EIF3E_10
EMC2_3
ESRP1_8
WISP1_5
NDRG1_17
ZC2HC1A_2
IL7_8
STMN2_3
TRPS1_12
SPAG1_4
CHRAC1_4
NCALD_24
SNX16_11
UBR5_7
TSTA3_8
PYCR3_6
ANXA13_3
SQLE_4
SH2D4A_4
ERI1_5
SLC39A14_11
MTMR9_3
LEPROTL1_8
DCTN6_5
R3HCC1_9
TNFRSF10A_3
ERICH1_4
NEFM_4
TUSC3_7
MCM4_7
FGL1_7
ASAH1_51
BNIP3L_6
KCNN4_6
NUCB1_7
DHDH_4
GYS1_3
MAP4K1_6
ECH1_8
NFKBIB_6
SNRNP70_7
CLPTM1_7
RELB_5
CLASRP_8
LIN7B_4
PPP1R37_2
CKM_1
PEX11G_3
DOT1L_6
PLEKHJ1_6
SLC17A7_3
RNASEH2A_2
KLC3_6
SF3A2_2
DKKL1_6
LYL1_2
TRMT1_11
STX10_11
DMPK_11
RSPH6A_3
IL4I1_8
TLE6_4
CCDC130_6
PTOV1_10
NOVA2_2
SGTA_3
MED25_10
SNAPC2_3
CCDC61_5
IL27RA_1
ASF1B_5
VRK3_18
PPP6R1_3
C19orf44_8
OLFM2_4
AKAP8_3
EPHX3_4
ILVBL_7
SYDE1_5
SLC1A6_10
AURKC_8
CCNE1_5
PDCD5_6
FBL_9
DYRK1B_7
PLD3_16
PRX_2
PIAS4_1
NUMBL_7
EBI3_1
SHD_3
TBCB_8
FSD1_5
POLR2I_4
OVOL3_2
CLIP3_4
SLC1A5_6
PRKD2_11
TJP3_6
APLP1_8
CCDC9_4
HNRNPUL1_18
FZR1_4
TGFB1_2
DENND3_13
ATP5SL_13
PLIN3_7
NKG7_5
ETFB_3
CD33_4
BABAM1_15
TYK2_11
SULT2A1_1
CDC37_6
NAPA_10
RABAC1_5
ATP1A3_7
MEIS3_10
PTPRS_8
GRWD1_2
SYNGR4_4
CLEC11A_3
CCDC114_1
LIG1_11
SIGLEC6_6
CABP5_1
RAB3D_2
FAM83E_2
RASIP1_2
THEG_3
FGF21_2
BCAT2_8
MIER2_3
PLEKHA4_7
PPP2R1A_7
TNPO2_13
CACNG7_3
GCDH_9
DNASE2_2
MAST1_4
PRPF31_14
TFPT_11
JAK3_3
SLC5A5_1
KCNN1_3
ARRDC2_4
RAB3A_3
PDE4C_13
ISYNA1_10
CRTC1_4
UPK1A_4
COPE_5
ATP4A_2
ARMC6_20
TMEM147_4
MAG_6
TMEM59L_3
HAMP_2
USF2_11
LSR_11
FKBP8_13
SUGP1_8
HPN_4
ZNF14_1
SCN1B_6
ERF_4
ZNF574_4
GRIK5_4
SIPA1L3_3
ETHE1_5
CADM4_1
SMG9_8
AVL9_4
RUNDC3B_3
CFAP69_9
GTPBP10_9
CDK6_2
DNAJC2_6
TFPI2_2
BET1_5
TWISTNB_1
PIK3CG_4
ITGB8_2
HBP1_11
DUS4L_6
SP4_3
WDR91_2
CBLL1_5
DLX5_2
MTPN_2
PTN_2
MPP6_8
DFNA5_9
ATP6V0A4_3
ZC3HAV1_4
TTC26_7
OGDH_8
NPVF_1
TFEC_5
H2AFV_8
CAV2_3
CAV1_8
MET_6
RNF32_9
LMBR1_11
WNT2_3
HOXA1_2
HOXA2_1
HOXA3_5
LFNG_6
HOXA6_1
BRAT1_2
IQCE_13
VIPR2_4
TSPAN12_7
HOXA13_1
CPED1_7
EVX1_3
HIBADH_3
TAX1BP1_10
CPVL_11
CHN2_13
COBL_9
FKBP14_3
PLEKHA8_6
STX1A_4
NOD1_6
GARS_4
MINDY4_1
CASP2_4
CCL24_2
NPTX2_1
PDAP1_3
BUD31_4
ZKSCAN1_5
EIF3B_4
NUDT1_7
PTPRZ1_2
TAF6_16
WASL_1
HYAL4_5
SPAM1_6
AIMP2_4
TFR2_4
FSCN3_3
PAX4_7
PCOLCE_1
FBXO24_7
PPP1R17_2
RBM28_5
USP42_6
AGFG2_3
SERPINE1_1
AP1S1_3
PLOD3_7
CLDN15_6
NOBOX_2
PHF14_4
NRF1_6
TMEM106B_5
CEP41_12
ZNF862_2
SFRP4_2
MEOX2_1
ANKMY2_5
POU6F2_7
TSPAN13_1
RARRES2_4
AGR2_4
AHR_2
TMEM176B_6
GLI3_3
COA1_15
TMEM248_6
RHEB_5
PRKAG2_8
POLD2_9
YKT6_3
TBL2_13
EIF4H_2
SPATA6L_6
LHX2_4
FKTN_7
FSD1L_7
SPIN1_1
NMRK1_4
MEGF9_1
TRIM14_4
CORO2A_2
TGFBR1_10
C5_1
OGN_3
ASPN_2
ECM2_4
TLE4_15
LHX6_9
AMBP_3
AKNA_6
DNM1_14
ENG_3
AK1_6
CDC37L1_2
TBC1D13_2
RIC1_6
DOCK8_10
KANK1_6
ELAVL2_7
NCS1_2
TESK1_2
FUBP3_1
TYRP1_3
CREB3_1
RGP1_1
MPDZ_15
LHX3_3
PIP5K1B_6
BAG1_7
RAPGEF1_6
NPDC1_3
APBA1_4
SETX_2
PTGDS_5
SHB_1
UBE2R2_1
ABHD17B_2
EXOSC3_3
PDLIM1_1
CCNJ_3
DNTT_2
GATA3_2
ATRNL1_6
HPS1_6
RASSF4_5
RAB11FIP2_2
CXCL12_6
ERLIN1_3
EIF3A_2
TRDMT1_8
DDX50_4
SEC23IP_4
ATE1_7
NSMCE4A_2
PLEKHA1_6
PALD1_1
UNC5B_2
VSIR_2
SPOCK2_4
PPP3CB_5
CCSER2_4
BMPR1A_5
MINPP1_3
LIPA_5
TLX1_3
TWNK_2
LZTS2_6
SFXN3_3
KAZALD1_1
FGF8_6
PITX3_2
GBF1_1
ARHGAP21_11
CPEB3_3
FBXL15_6
CUEDC2_1
SUFU_3
LHPP_3
LARP4B_8
EDRF1_8
MTPAP_3
NEURL1_3
STN1_2
MAP3K8_6
DKK1_1
SORCS1_6
FAM208B_3
XPNPEP1_5
SMC3_1
SHOC2_3
CCDC6_1
CUL2_8
CCNY_6
UBE2S_3
ZMIZ1_3
DNAJC12_5
PBLD_5
TSPAN14_8
LGI1_19
TBC1D12_1
CRYBA1_2
GIT1_10
FBXL20_5
RUNDC3A_3
UBTF_11
PSMD3_3
CASC3_4
RAPGEFL1_9
RGS9_5
RNF43_6
WNT3_2
SEPT4_15
TRIM37_11
P2RX1_2
TUBD1_12
KPNB1_8
PNPO_7
CDK5RAP3_14
RECQL5_11
GALK1_5
INTS2_4
CAMTA2_8
MED13_2
HOXB6_2
RNF167_11
SLC25A11_3
RASD1_2
CHRNE_1
RAI1_5
NUP88_5
SLC6A4_4
BLMH_7
GOSR1_7
CCDC47_5
DRG2_12
FTSJ3_8
AKAP10_9
ALDH3A1_11
SMARCD2_8
ICAM2_11
UTP6_3
DDX5_19
C17orf75_9
CYTH1_11
PSMD11_6
LGALS3BP_15
CCL8_1
CCL1_1
PEX12_4
KRT32_1
MLX_4
CNTNAP1_2
ABI3_4
EZH1_13
DLX4_3
COL1A1_2
SGCA_8
VAT1_9
RND2_1
ALOX12_2
HDAC5_7
ABCC3_9
DUSP3_4
CACNG1_1
EFTUD2_10
HLF_6
SLC16A6_5
PRKAR1A_18
EFNB3_1
FAM20A_4
YWHAE_14
MMD_2
RANGRF_4
MAP2K6_6
DHRS7B_6
WSB1_10
RCVRN_1
SLC9A3R1_4
TMEM104_5
VTN_2
TNFAIP1_5
IFT20_10
TMEM97_5
CDR2L_1
FOXN1_3
ALDOC_8
SUPT6H_4
RAB34_21
PHF12_13
PHOX2B_1
GNRHR_2
SLAIN2_4
OCIAD1_24
CWH43_3
DCUN1D4_13
USP46_6
SULT1E1_2
ODAM_4
CHIC2_3
KIAA1211_6
LAMTOR3_2
NFKB1_8
AREG_2
MANBA_3
MAPK10_42
ELF2_8
UCP1_1
TBC1D9_1
ZNF330_7
INPP4B_16
GAB1_8
IL2_1
CPE_5
ANXA10_1
GRPEL1_1
GAR1_2
CLCN3_9
AADAT_7
GALNT7_4
SOD3_2
SEPSECS_5
CPZ_4
TRIM2_9
FBXW7_8
TBC1D19_6
CLNK_4
SH3D19_7
STIM2_10
NKX3-2_1
MFSD10_7
GLRB_6
BST1_5
RAPGEF2_9
HGFAC_2
SNX25_4
LRP2BP_4
UFSP2_7
KLF3_2
KLHL5_7
NCAPG_3
PPARGC1A_7
DDX25_7
HTATIP2_8
CTSC_5
CCDC34_2
ZBTB16_5
ELP4_23
ZPR1_6
FNBP4_2
TECTA_2
CRTAM_2
C11orf63_3
B3GAT1_3
P2RX3_3
VWA5A_5
SIAE_3
SNX15_6
LPXN_4
DTX4_2
EHD1_8
OSBP_2
PUS3_5
DCPS_1
KMT5B_12
FOXRED1_4
PPP6R3_18
NRXN2_9
ST3GAL4_16
CPT1A_8
CCDC86_3
PRPF19_5
TMEM109_2
CCKBR_5
HPX_2
TRIM3_7
CHORDC1_9
PANX1_2
APOA4_1
CEP164_7
RNF141_4
CEP126_3
EIF4G2_18
IL10RA_3
GALNT18_1
BIRC2_10
UBE4A_3
DDX6_4
UPK2_1
CBL_5
HIPK3_5
FBXO3_9
PDHX_6
SLC1A2_7
COMMD9_3
SLC15A3_6
CD5_2
ACCS_3
MADD_15
SLC22A18_10
CD81_12
SLC35F2_6
ELMOD1_3
CALCA_5
SOX6_9
AIP_3
TCIRG1_8
GTF2H1_7
POU2AF1_2
PTPN5_5
VWF_3
P3H3_1
PRPF40B_5
CD69_2
PRDM4_4
COQ5_6
SELPLG_3
CORO1C_13
ASIC1_6
DAO_6
CAPRIN2_13
TSPAN11_4
MLEC_4
MVK_14
CSRNP2_5
CAMKK2_13
IL23A_1
SYT10_2
BCL7A_2
RSRC2_8
CYP27B1_3
MYF6_1
MYF5_1
LIN7A_4
ACSS3_4
TNS2_8
GLI1_6
PPM1H_1
METAP2_9
LTA4H_4
ELK3_5
SLC6A12_6
WNT5B_7
TRPV4_7
ITFG2_7
PRMT8_2
PARP11_7
GPN3_7
VPS29_7
FGF6_2
CUX2_2
SH2B3_3
AKAP3_4
MANSC1_4
DUSP16_4
CREBL2_1
ACAD10_8
CDKN1B_3
GPRC5D_3
NAA25_4
LTBR_6
OGFOD2_12
CDK2AP1_7
OAS2_6
ART4_4
RASAL1_4
ARHGDIB_7
EIF2B1_4
SLC38A1_7
RERGL_3
C12orf49_4
RFC5_7
STX2_3
COPZ1_13
TBC1D30_5
CAND1_4
IFNG_1
RAB5B_8
MDM1_8
NUP107_6
CNOT2_27
TIMELESS_2
CPSF6_5
KRR1_2
MRPL51_7
NOP2_15
CHD4_5
ACRBP_5
UHRF1BP1L_9
COPS7A_20
ING4_13
GNB3_6
CDCA3_5
CHPT1_7
USP5_3
GNPTAB_7
C12orf57_5
PTPN6_11
LPCAT3_6
NT5DC3_3
APOBEC1_2
SUDS3_1
PRKAB1_6
CMAS_4
CLEC4A_4
AICDA_5
PHC1_11
RFX4_9
RIC8B_11
COL12A1_8
FRK_1
DSE_4
RSPH4A_3
MAK_5
PAK1IP1_1
NEDD9_8
CEP85L_6
ASF1A_1
MCM9_6
FAM184A_13
RNGTT_3
MAN1A1_1
GABRR2_1
SERINC1_1
HDDC2_5
TPD52L1_11
HINT3_1
NCOA7_9
RIPOR2_6
SASH1_5
UST_1
FBXO5_2
PPARD_5
OPRM1_19
TULP1_4
SLC26A8_6
RHAG_3
KCTD20_8
STK38_1
SRSF3_4
SOD2_12
IL17F_1
RNF8_7
MDGA1_6
ICK_2
CD83_2
GLP1R_1
SAYSD1_2
BMP5_1
BACH2_5
RBM24_5
CAP2_9
ZNF451_12
BAG2_1
RAB23_2
TSPO2_3
FHL5_3
GPR63_1
KHDRBS2_1
FBXL4_2
PTP4A1_4
SIM1_2
ASCC3_5
BVES_3
COL9A1_3
MED23_6
GPLD1_1
ALDH5A1_3
CRYBG1_3
VNN1_1
ACOT13_2
C6orf62_2
B3GAT2_2
GMNN_6
EYA4_8
SOBP_2
SNX3_4
SLC17A2_3
HBS1L_15
PEX7_3
ZBTB24_1
FIG4_5
PERP_1
SLC16A10_5
HECA_1
PHACTR2_8
SLC39A7_6
UNC93A_3
SLC22A2_2
PHF1_8
QKI_15
MDFI_8
TFEB_16
CCND3_13
BYSL_3
FAM120B_4
TBP_8
GUCA1B_1
PRPH2_1
BICRAL_3
PPP2R5D_7
MRPL2_5
PTK7_16
SRF_1
CUL9_4
DNPH1_3
DUSP22_11
EXOC2_2
TMEM30A_4
GMDS_2
IMPG1_4
PRPF4B_3
TTK_8
SLC29A1_9
WISP3_8
LAMA4_15
FAM46A_5
CLIC5_3
FBRSL1_2
LY86_2
PRSS16_8
MEP1A_2
TBX18_4
ERBIN_10
HARS2_7
NUDT12_2
CEP72_1
MAN2A1_1
SEMA5A_2
C7_1
GHR_11
HMGCS1_3
BRD8_17
KIF20A_5
NNT_8
MRPS30_1
HSPA9_8
MRPS27_6
PFDN1_3
HBEGF_1
SLC4A9_4
LOX_3
GZMK_1
CDH9_3
APBB3_9
TMCO6_8
HMGCR_7
COL4A3BP_5
FAF2_2
HAND1_1
PDE8B_9
CLK4_7
GRM6_2
ITK_3
THG1L_3
ARSB_4
THBS4_2
CNOT6_4
IL12B_1
TTC1_3
DROSHA_7
CDH6_2
LMNB1_4
ARRDC3_1
GOLPH3_2
SUB1_7
NPR3_6
FAM172A_5
SLC27A6_4
TARS_12
PDE4D_18
BRIX1_1
AGXT2_3
PRLR_19
IL4_3
RAD50_7
IL5_2
ST8SIA4_3
GNPDA1_10
PCDH12_2
NUP155_4
FGF1_13
NR3C1_13
C5orf15_1
TRIM23_6
TRAPPC13_6
C9_1
SEC24A_3
TXNDC15_7
RARS_5
H2AFY_6
TCERG1_3
DPYSL3_5
CSNK1A1_11
HMGXB3_4
ERGIC1_7
CDX1_2
BNIP1_5
STC2_3
CPEB4_7
HRH2_4
DBN1_7
ZNF346_8
UNC5A_3
EHHADH_3
CNTN3_1
SMC4_13
ACTR8_4
TBCCD1_5
TIMMDC1_8
CRBN_6
KNG1_3
HRG_1
BCL6_7
HGD_5
CLDN16_2
ARL6_7
CD86_7
AMOTL2_10
NIT2_4
FAM162A_3
OGG1_14
KPNA1_7
PCCB_15
UBE3A_25
ARMC8_18
CEP70_11
RBP2_3
RBP1_6
GRK7_1
XRN1_7
KAT2B_1
BCHE_5
SERPINI2_7
PDCD10_14
LRRC31_3
WNT5A_4
PFKFB4_8
COL7A1_2
FGF12_6
PRKAR2A_7
USP4_5
ACAP2_7
ECT2_13
GNAI2_7
TUSC2_4
NPRL2_7
C3orf14_5
FXR1_13
BBX_21
IFT57_3
HHLA2_11
GBE1_2
MORC1_2
UMPS_8
SNX4_3
FRMD4B_9
SLC41A3_17
PLXNA1_1
ABTB1_6
PODXL2_1
CSPG5_4
KLHL18_4
NEK11_10
MRPL3_6
PLSCR4_10
HEMK1_6
CISH_2
ACVR2B_1
WDR48_6
COMMD2_3
GORASP1_10
PEX5L_13
RRP9_1
ABHD14B_6
EIF1B_1
ARHGEF26_4
PLCH1_5
DNAH1_3
ZBTB47_2
TNNC1_2
NKTR_5
FOXP1_17
EIF4G1_29
SPCS1_4
SLC4A3_8
INO80D_3
ADAM23_3
DGUOK_4
MOB1A_1
KANSL3_12
LMAN2L_7
RTKN_4
TTL_1
IL1A_1
PIKFYVE_7
KCNIP3_3
NCL_6
SLC35F5_6
ZAP70_2
ACTR3_5
STEAP3_4
EPB41L5_5
TFCP2L1_1
SF3B6_1
TP53I3_4
DNAJC27_3
POMC_5
STAM2_1
GPD2_9
CYTIP_5
ACVR1_9
TANC1_1
SLC30A3_7
MPV17_13
GTF3C2_9
EIF2B4_9
NRBP1_5
ITGB6_6
ITGA4_3
PSMD14_2
SNX17_5
PPM1G_1
PDE1A_5
PCSK4_3
GCG_2
APC2_7
IFIH1_2
GCA_6
TTC31_6
NDUFS7_9
PCGF1_1
GRB14_3
CLIP4_8
TLX2_2
SPTBN1_4
AUP1_2
RTN4_12
HTRA2_3
LOXL3_7
DOK1_4
POLE4_1
TACR1_2
CCDC88A_10
LANCL1_8
WDR75_4
EFEMP1_11
FANCL_9
FN1_13
STAT1_11
GLS_8
PAPOLG_4
PECR_2
IGFBP2_4
ELMOD3_15
IGFBP5_2
EFHD1_7
KCNJ13_5
CCT4_2
GGCX_5
EHBP1_12
OTX1_3
TXNDC9_6
COQ10B_3
SF3B1_6
ST3GAL5_53
CHST10_8
MOB4_7
HSPE1_3
KDM3A_7
ZNF142_7
IL1R2_4
PRKAG3_5
SMYD1_3
IL1R1_13
IL1RL2_3
IL18R1_4
IL18RAP_3
SLC9A2_1
FHL2_12
MLPH_11
CNPPD1_4
UXS1_8
STK16_5
SLC5A7_2
HDLBP_27
PPP1R7_13
PASK_10
STK25_19
TAF1B_5
HPCAL1_8
NOL10_4
GORASP2_5
STRN_2
CEBPZ_2
PRKD3_5
DCAF17_6
QPCT_3
RAB3GAP1_4
SLC25A12_4
RMDN2_10
DLX2_2
LCT_2
DARS_6
SRSF7_10
PLCL1_4
SLC1A4_2
SOS1_4
KYNU_8
WIPF1_9
ORC4_8
PLEK_1
RND3_5
ATF2_18
AAK1_6
TRAK2_3
TIA1_9
PCYOX1_5
ARID3A_3
CD207_1
VAX2_1
ATP6V1B1_6
MSH6_12
PLEKHA3_3
SPR_1
EPHA4_10
PARD3B_9
FARSB_1
ALMS1_4
BCL9_1
PRRX1_3
DHCR24_3
DNAJC16_6
MARK1_4
TNR_3
MORN1_5
GPX7_1
SCP2_15
RALGPS2_5
ANGPTL1_3
CEP104_6
FAM20B_2
TCEANC2_3
TMEM59_8
LRRC42_4
WRAP73_5
NPHS2_2
MRPL37_4
ICMT_3
CHD5_6
QSOX1_4
STXBP3_1
PHF13_1
ERRFI1_5
OPRD1_2
AMPD2_14
MECR_3
KCNC4_5
EDEM3_3
WDR77_2
RAP1A_3
HDAC1_2
CAPZA1_1
S100PBP_8
RNF19B_3
SCAMP3_2
TRIM62_2
DLGAP3_2
SFPQ_3
RHOU_1
ARHGEF2_12
LAMTOR2_3
FBXO2_2
FBXO6_2
MAD2L2_7
DNAJC6_4
LEPR_6
IVNS1ABP_3
KIAA2013_3
MFN2_3
MIIP_1
SMG7_11
NCF2_6
SLC35D1_1
PLA2G4A_1
GADD45A_3
WLS_11
PRDM2_11
RGS2_1
RPE65_1
TROVE2_10
AMPD1_3
UCHL5_12
CTH_3
AGMAT_1
OLFML3_3
PLEKHM2_2
ZBTB17_5
CD58_5
TFAP2E_1
CD2_2
TTF2_2
NR5A2_6
KIF21B_4
TMEM9_9
ADPRHL2_1
MAP7D1_6
WARS2_2
HAO2_4
OSCP1_7
EXOC8_1
GNPAT_3
TBCE_3
NID1_2
LGALS8_18
NT5C1A_1
MTR_3
RLF_1
KMO_4
KCNQ4_3
RIMS3_2
AKT3_5
ETV3_2
ACADM_11
ST6GALNAC5_2
SLAMF1_3
CD48_3
ADGRL2_14
PADI2_2
MFAP2_2
KDM5B_4
UAP1_4
ACTL8_2
CTBS_3
RGS4_7
KLHL12_3
IGSF21_1
SSX2IP_7
ZNHIT6_2
PLA2G2D_2
RBBP5_2
KIF17_3
RAB29_6
CD160_5
ECE1_8
HMGCL_4
GALE_7
ID3_1
CR2_4
CD46_11
APH1A_4
P3H1_5
SLC2A1_5
EBNA1BP2_2
CDC20_2
IPO13_2
ATP6V0B_8
B4GALT2_4
ERI3_5
PRDX1_5
TSPAN1_1
BLZF1_5
CCDC181_5
SLC19A2_2
FAAH_2
NSUN4_7
TMED5_4
CNN3_4
F3_2
ABCD3_2
VAMP4_3
DPH5_4
FASLG_2
PTBP2_4
DARS2_1
HSD11B1_4
IRF6_3
DIEXF_2
PLPPR5_2
PLPPR4_3
RCAN3_11
SYF2_2
RCOR3_11
STMN1_6
MTFR1L_19
MAN1C1_4
NEK2_3
RPS6KA1_12
DHDDS_17
NSL1_4
PROX1_6
ARID1A_10
PPP1R8_4
STX12_2
SLC5A9_6
OSBPL9_20
TXNDC12_3
CD3EAP_4
MESDC2_5
RCN2_4
CHRNB4_3
COLEC11_10
A4GNT_1
KMT2A_8
TREH_3
KIF14_2
TNNT2_14
CAMSAP2_5
ATF6_1
MREG_5
FASTKD2_4
NRP2_7
CREB1_11
KLF7_9
TTR_3
B4GALT6_4
C1orf54_3
CA14_3
ATP10B_2
ELOVL4_1
FILIP1_3
HMGN3_3
UBE3D_7
SPACA1_1
SGIP1_5
PLAGL1_16
FBXO30_1
TNFAIP3_10
AKAP7_7
RAB32_1
MYB_40
ALDH8A1_6
SGK1_10
RNF146_12
ARG1_3
CTGF_1
TCF21_2
FBXL5_10
MED28_2
SLC16A7_13
TMEM5_3
DCLRE1B_1
MYL12B_4
FOXO3_3
ARMC2_4
GHRH_3
RPN2_7
CASQ2_1
OLFM3_3
PKD2_3
ABCG2_4
SPP1_5
RARRES1_2
MFSD1_14
RAB3GAP2_3
PPL_3
KLF12_1
UCHL3_3
PCDH17_4
LDAH_12
WDR35_5
FGF23_1
ELL2_4
CYP20A1_7
GTF3C3_8
SATB2_7
UBE2B_4
TRPM6_4
GDA_8
KLF9_1
TJP2_8
ITGB1BP1_14
CPSF3_3
SENP5_5
CCDC92_7
C1orf198_5
TRIM67_3
HEATR1_3
PTBP3_7
FKBP15_3
CTNNAL1_4
FAM206A_3
WDR34_3
RAB14_2
CNTRL_8
TRIM32_3
FBXW2_2
NEK6_15
BSPRY_1
PPP6C_4
NDUFA8_1
RBM18_1
SLC46A2_2
HSDL2_2
MAPKAP1_14
NR4A3_4
INVS_3
GALNT12_2
DENND1A_4
ALG2_3
CSF3R_7
KDSR_4
VPS4B_3
C19orf25_10
DCAF4_7
PROX2_3
VSX2_1
FCF1_7
PGF_4
BBOF1_3
NEK9_5
IFT43_5
NPC2_9
DNAL1_9
LTBP2_4
AREL1_9
TTLL5_7
FLVCR2_8
ABCD4_17
PPP4R4_10
TGFB3_2
ALDH6A1_3
ESRRB_5
EIF2B2_4
NRDE2_5
COQ6_8
KLHL29_2
ATAD2B_4
ATL2_12
YPEL5_5
FAM98A_3
YIPF4_3
AFTPH_6
LGALSL_5
CNRIP1_3
BCL11A_8
EPCAM_4
SLC17A5_1
OGFRL1_1
SLF2_4
IDE_4
TECTB_1
ELOVL3_1
IFIT3_2
NKX2-3_2
IFIT2_3
GPAM_2
PPP1R3C_1
PYROXD2_1
CNNM1_1
MXI1_7
SMNDC1_2
C10orf88_1
TCTN3_5
WDR11_4
C10orf76_3
KCNIP2_9
CFAP58_2
GOT1_1
GNA13_2
KANSL1_21
HOXB5_1
CRHR1_30
DUSP1_1
PANK3_2
MSX2_2
TEK_5
RCL1_7
CAAP1_4
EQTN_3
MOB3B_1
INSL6_1
MLANA_3
CD274_2
GRIA2_11
MTHFD1L_10
LRP11_2
CCDC170_1
PLEKHG1_3
MYCT1_3
CXorf21_1
CYSTM1_1
WDR55_3
ARAP3_5
TNN_3
CENPL_3
TNFSF18_1
GORAB_3
SNX19_6
KCNJ5_3
MSANTD2_5
TEX11_4
ARR3_4
NUDCD1_4
MASTL_4
KIAA1217_14
PLXDC2_2
EPC1_3
IQSEC3_2
CCDC77_6
TAF12_2
ENOX1_1
TNFSF11_5
MTRF1_7
DNAJC15_1
PROSER1_3
UFM1_3
WBP4_1
ELF1_5
HSPH1_6
KBTBD7_1
ALG5_2
EXOSC8_3
TGFBI_8
FAM53C_4
SIL1_9
PAIP2_5
MYOT_3
KDM3B_4
SERP1_4
PLS1_10
ZFP30_8
NR2C1_7
UTP20_1
ARL1_8
GLT8D2_5
MTERF2_6
SOCS2_12
APAF1_9
DUSP4_2
CLU_14
SORBS3_8
PTK2B_9
CHRNA2_9
ADRA1A_9
PPP3CC_8
PDLIM2_19
EPHX2_7
RNF170_8
UBIAD1_4
CRISPLD1_4
RDH10_3
AKAP1_19
TRIM25_3
SCPEP1_8
TBX2_2
SLC35B1_9
TBX4_3
LRAT_3
KIAA0922_4
ABCC11_5
PAPD5_3
ADCY7_8
TSHZ3_2
ECHDC2_8
PLBD1_3
TAS2R10_1
BCL2L14_9
PSPC1_6
ZSCAN18_11
PDZRN3_7
LHX4_2
TRMT1L_2
SEC22A_9
CSTA_2
B4GALT4_14
NAA50_10
CD80_3
KIF18A_1
GJA8_1
DESI2_3
MAPK8IP1_2
CRY2_4
PEX16_8
DEPDC7_2
CAT_1
GJB6_5
TBC1D15_9
ADGRB2_10
HCRTR1_3
ZCCHC17_8
TMEM39B_3
CCRL2_5
CCR2_4
POLR3GL_2
GHSR_2
TNFSF10_3
ZNF639_8
SLITRK3_3
PIK3CA_3
PDS5A_5
TMEM156_2
LIAS_17
CPXM2_2
TMEM54_2
ZSCAN20_2
HPCA_1
LRIF1_3
TMIGD3_4
CLCC1_7
GPSM2_6
GTDC1_14
CXCR4_2
ACVR2A_3
POLK_12
SV2C_2
FLT3_2
MTIF3_3
GTF3A_5
RASL11A_1
UBL3_1
FYTTD1_8
MTERF4_12
XPNPEP2_2
SASH3_1
OCRL_2
PAEP_9
MRPS2_3
TBX22_7
FMOD_1
MYOG_1
LAX1_2
PLG_3
COPA_2
CD244_4
HS3ST2_2
RBBP6_8
ZC3H7A_11
SERAC1_7
LDB3_9
OPN4_3
FAM213A_6
ZNF205_6
NAA60_25
ODF2L_12
PTGFR_4
TRMT13_4
LRRC39_4
RWDD3_2
ZNF644_5
CCDC18_7
RPAP2_1
PQLC1_9
BBS9_10
ZMIZ2_8
SEPT7_11
EEPD1_3
KLHL7_6
INHBA_3
FKBP9_4
RAMP3_3
MRM2_3
SMU1_1
GLIPR2_4
CLTA_10
RECK_1
SPINK4_2
ACO1_3
DNAI1_5
DCAF10_2
CNTFR_4
KIAA1549_2
TRIM24_2
CALD1_13
AKR1D1_4
PLAU_3
SRGN_1
CHST3_1
BICC1_2
EGR2_4
P4HA1_5
SLC25A16_5
ZWINT_5
VPS26A_5
RBM19_4
CIT_6
ACADS_2
HVCN1_8
MED13L_5
RNF11_1
NECAB1_3
ACOT9_6
DDX39A_11
PKN1_8
C19orf43_4
ADGRE5_6
WDR83_6
GIPC1_11
CCDC70_1
SPRYD7_3
ATP7B_9
ZC3H13_4
NLN_5
CENPK_11
OPTN_10
ITIH5_4
ATF1_5
TSFM_9
ARHGAP9_13
NCKAP1L_3
MMP19_6
SPATS2_17
ORMDL2_4
NR4A1_13
PDE1B_5
HOXC13_1
CDK2_6
ATG101_4
NFE2_5
HOXC12_1
IKZF4_6
SMUG1_16
EEF1AKMT3_4
KBTBD4_10
SARDH_7
DBH_2
STIL_7
HJURP_7
IL13RA2_2
COL10A1_4
AMD1_6
USP45_11
PLP1_9
RAB9B_1
NRK_4
FAM199X_1
TTC21B_2
NMI_2
TNFAIP6_1
ACVR1C_4
BAZ2B_8
SLC36A1_10
LPGAT1_2
BATF3_1
KCNJ2_2
COQ8B_13
PFKFB2_6
C4BPA_3
C4BPB_5
RAB38_3
GPR83_2
AGO2_4
MXD4_3
DAW1_4
ACSL3_6
CHPF_3
INHA_1
MOGAT1_1
FAM124B_3
SLC12A4_10
ENKD1_3
FAM210B_2
PI3_1
SNX21_6
SLPI_1
WFDC3_4
TTPAL_4
SLC12A5_13
ARHGAP40_4
SDC4_1
PIGT_55
MATN4_5
NCOA5_2
PARD6B_2
CHD6_5
PLCG1_7
TOX2_5
GDAP1L1_8
GTSF1L_2
ARFGEF2_1
ZNFX1_5
EDN3_5
CSE1L_2
RAB22A_1
STAU1_10
SNAI1_1
MOCS3_1
PMEPA1_7
RNF114_6
DDX27_5
RBPJL_4
C20orf85_1
BCAS4_5
TP53TG5_1
PCK1_1
NEURL2_2
MTRR_13
FASTKD3_5
PEPD_7
CHST8_4
IQSEC2_14
VAMP7_4
IL9R_2
XG_3
STAMBP_8
NAGK_13
PAIP2B_1
SNRNP27_4
MPHOSPH10_2
ATP8A1_7
POF1B_2
HIF3A_11
ZNF576_6
ZNF45_4
LYPD3_1
CEACAM8_2
NDP_1
CRISP2_3
F13A1_5
GRM4_9
TRERF1_5
PACSIN1_4
SIRT5_6
MRS2_5
WRNIP1_5
BTN1A1_2
SNRPC_3
SLC17A3_7
SLC17A1_4
XPO5_6
PEX6_2
NQO2_9
OARD1_14
UNC5CL_2
ZNF391_2
HIST1H2BJ_3
MED20_5
SPDEF_2
TCP11_25
MAD2L1BP_2
APOBEC2_1
KLHDC3_3
GNMT_1
DNAH8_5
TREM1_4
MEA1_1
KLHL31_2
COL21A1_6
CDKN1A_5
SOX4_1
GLO1_1
CPNE5_4
KCNK17_2
RREB1_9
SSR1_7
NRN1_3
SLC35B3_1
RPP40_5
ATXN1_2
NUP153_3
CRISP1_4
RUNX2_9
OPN5_4
GCM2_1
LRRFIP1_5
CXCL6_2
EREG_1
MYRF_3
SCGB1D2_1
SCGB2A1_1
AHNAK_7
EMC3_3
WNT1_2
CNOT1_15
BBS2_7
C16orf70_6
GOT2_3
DOK4_16
PIWIL1_6
GPR18_4
CLYBL_7
SLC10A2_1
EFNB2_1
TM9SF2_1
C17orf53_3
IRF1_7
UPF3B_4
SEPT6_7
ATP5S_5
PTGER2_2
GRK4_5
SOX9_1
TEKT3_7
HS3ST3B1_2
SLC25A35_6
GGA3_16
ARMC7_4
NUP85_15
SLC25A19_14
MIF4GD_12
NT5C_8
GTF3C4_2
DDX31_5
BARHL1_2
PPP1R12C_4
SRMS_1
FNDC11_4
IL1B_4
CHCHD5_3
PAX8_9
INSIG2_3
POLR1B_12
CCDC93_3
PSD4_4
SLC25A23_10
GTF2F1_4
CLPP_4
GRIA3_6
THOC2_11
MED1_4
RPL23_7
ATG4C_5
CD70_3
SH2D3A_3
TRIP10_6
GPR108_10
SNRPD2_7
GPCPD1_4
SDCBP2_4
PANK2_6
GNRH2_4
GZF1_3
PAX1_3
PSMF1_6
NKX2-2_1
RBCK1_11
TMX4_3
STK35_2
SNRPB_3
AP5S1_5
RRBP1_9
ZNF133_14
FLRT3_2
OVOL2_1
PCSK2_3
MKKS_4
BFSP1_3
DSTN_3
LAMP5_2
MGME1_3
LRRN4_1
ITPA_3
MCM8_5
BANF2_4
MRPS26_1
DEFB129_1
NCLN_7
CITED1_10
ZNF436_2
MAX_16
GDF5_2
MMP24_1
NECAB3_10
ID1_2
DYNLRB1_3
C20orf173_4
FAM83C_1
BPIFB1_2
CEP250_10
GRPR_1
KDM5C_8
AMOT_5
TMEM115_1
PSMB2_2
TMEM53_6
HECTD3_2
XRCC3_12
TUBGCP3_4
F10_4
PCID2_7
PROZ_2
SLURP1_1
LRFN3_2
CAPNS1_16
RBM42_6
KIRREL2_5
UBA2_7
HCST_2
KRT36_2
CCR7_3
NR1D1_1
BCL2L12_11
IRF3_24
PRR12_2
TSKS_2
ASL_5
WNK4_3
BECN1_13
PRKCG_4
TRAP1_10
GLIS2_4
NSRP1_12
IFI6_3
DACH2_8
ZNF384_12
UXT_3
CFP_4
TIMM17B_6
PCNX4_8
RHOJ_3
DLGAP5_4
L3HYPDH_3
ZBTB1_5
TRMT5_3
SGPP1_1
PLEKHG3_8
RHOT1_14
AIF1L_8
FAM78A_3
NUP214_12
AVPR2_5
MAP2K2_3
HNRNPH2_1
TIMM8A_1
ZC4H2_3
CANX_15
RGS13_2
IPPK_2
ZNF484_4
FGD3_4
HIVEP3_2
PPCS_4
EDN2_1
BCL11B_3
TRAF2_4
ABHD8_3
MASP1_8
ATP13A4_7
HRASLS_2
HELB_4
IL22_2
TSPAN8_3
BEST3_10
RAB3IP_16
DYRK2_5
TAS2R5_1
LRRC61_3
IDUA_6
AUNIP_2
FBXL12_13
EMC1_7
UBR4_6
SLC35E1_4
EPS15L1_13
F2RL3_2
PKMYT1_13
FBXL16_3
GNG13_1
SMARCA4_10
KDM4B_6
TICAM1_2
IL17B_1
EMC6_2
METTL16_5
TUBA4A_7
VIL1_5
PNKD_4
TNFRSF19_4
RNF6_3
GNGT1_5
HIP1_4
PTPN12_10
POR_17
FGL2_2
STYXL1_9
STEAP4_3
GNAI1_5
MTERF1_6
SGCE_9
RBM48_3
CASD1_4
LRFN1_1
SRD5A3_2
RASL11B_1
KDR_1
PPAT_3
TUBGCP6_4
DGCR8_4
ASPHD2_1
VPREB3_2
SDF2L1_1
GAL3ST1_22
YWHAH_4
GNAZ_1
A4GALT_3
CDC42EP1_4
TPST2_9
MPST_7
LIF_2
C22orf23_6
RIBC2_1
EMC4_10
SPECC1_18
POT1_13
TAS2R16_1
LSM8_4
VGF_3
PODXL_3
FOXP2_23
STRIP2_2
IFT22_7
MKLN1_6
DNAJB9_1
FLNC_2
LRRC4_4
CALU_6
CCDC136_10
SMO_3
IRF5_13
LRRC17_3
KLHDC10_3
OPN1SW_1
MYO1B_10
HOXD1_1
PDE11A_7
CHN1_11
GAD1_11
OSGEPL1_6
HAT1_3
HOXD9_1
HERC2_5
TWSG1_3
ARHGAP22_8
MYO5C_5
TMOD2_4
TTBK2_7
ELL3_2
C15orf57_13
INO80_6
ICE2_10
DLL4_1
ALDH1A2_10
MINDY2_4
IVD_9
KNSTRN_11
CHAC1_5
CLN6_17
CALML4_7
LOXL1_2
ACKR4_2
ANAPC13_4
MBD4_6
COPB1_5
SUMF2_14
PALLD_12
BBOX1_5
SERGEF_15
KCNC1_9
TPH1_3
CSRP3_2
E2F8_4
DCTD_16
RPAIN_11
SHBG_19
PLD2_7
AIPL1_11
CD68_4
TXNDC17_4
ATP1B2_3
FXR2_2
KIF1C_2
MPDU1_19
LRRC6_8
CCNT1_4
PUS7L_8
KRI1_5
ILF3_20
SLC44A2_10
AP1M2_9
CDKN2D_2
MTUS1_9
KLK8_8
NGDN_5
RIPK3_3
ADCY4_8
RAB2B_2
AJUBA_7
PARP2_5
SNX6_8
EGLN3_4
MIS18BP1_6
NRL_6
RNASE1_5
DAD1_4
TEP1_10
EPB41L4A_2
ITFG1_5
QRICH2_5
FOXJ1_1
AANAT_4
ARHGEF6_3
ASH2L_8
TTI2_5
ART1_1
CHRNA10_3
SGO1_12
TMEM8A_5
SHC2_3
LBP_1
CBFA2T3_9
ERMARD_12
PHF10_4
PRRG3_5
CRACR2A_4
NXNL2_3
STARD8_4
GDPD2_4
SAT1_4
SH3BP4_7
MOSPD2_4
ECSIT_12
LDLR_9
ELOF1_9
ANGPTL8_4
PRKCSH_10
CNN1_9
CDC16_7
ZSCAN10_7
THEM6_2
NECTIN2_5
APOE_4
GADD45G_2
LRCH2_2
DPP6_6
XPO7_4
FAM98C_5
SAFB2_4
RPL36_6
NCAN_2
PLVAP_3
BST2_1
SLC27A1_6
NSUN5_5
USHBP1_6
COLGALT1_3
DDA1_3
MRPL34_5
PGLS_4
LSM7_4
TULP4_3
SNX9_3
RTN4IP1_2
QRSL1_2
RSPH3_3
ACSBG2_11
MLLT1_1
BMP15_1
AFDN_15
ACTN4_6
NDUFA10_10
CACNG6_3
ZSWIM6_1
FCHO1_25
UNC13A_4
MAP1S_11
SCO2_2
PXDN_5
SSBP4_10
PGPEP1_9
LSM4_5
HRC_3
TRPM4_8
SULT4A1_3
ZNF557_2
CRB3_4
OLFM1_11
CAMSAP1_3
SAG_4
ZBTB46_3
TNNI2_5
ATXN10_5
TUBGCP2_7
CALY_3
PNPLA7_3
PAK4_10
CEP85_5
TAF4_3
RBBP8NL_1
OSBPL2_6
ASS1_5
EXOSC2_6
POMT1_11
UCK1_5
FIBCD1_5
PRRC2B_8
METTL26_12
YIPF2_10
TMEM160_1
NPAS1_6
LRRC47_2
SESN2_1
MED18_2
THEMIS2_7
CLIP1_13
CCDC62_6
HIP1R_2
C19orf66_7
DNMT1_13
PNCK_16
DKC1_7
PLXNA3_1
DUSP9_2
MPP1_9
ZNF331_18
ZNF236_4
SLC7A10_4
LRP3_2
C12orf65_6
NOL11_5
UBE4B_5
HSD17B3_2
HABP4_2
SLC35D2_3
PRRG1_7
RGN_4
POLN_3
PPIL4_2
AKAP12_4
SYNE1_20
LATS1_6
EPS8L1_6
AAR2_3
BPIFA2_2
COX4I2_1
BPIFA3_2
ZNF341_4
GGT7_4
DEFB118_1
ACSS2_11
EDA2R_4
ARHGEF9_32
GFAP_24
HIGD1B_4
ZNF227_9
ZNF428_2
TEX101_2
CCL25_4
COX4I1_9
EMC8_3
GSE1_8
SLC34A1_3
F12_1
NFATC1_12
IDO1_6
CAP1_16
PPT1_9
RAB11FIP4_6
RLIM_2
TRAF3_8
HAUS8_5
ADGRE3_5
MRPS25_5
SH3BP5_7
TBC1D5_17
CAPN7_5
RFTN1_8
C3orf20_3
RBSN_6
GALNT15_4
SLC6A6_8
NAPSA_3
NR1H2_10
PDLIM4_3
KIF3A_6
MGAT1_14
GFPT2_3
PSME3_13
PSMC3IP_7
AOC3_7
VPS25_4
RAMP2_5
NDUFA2_2
NDFIP1_1
UBE2D2_6
ACAP3_3
PPFIA1_13
TMEM204_2
KREMEN2_6
THOC6_4
TRAF7_5
BARX1_2
CA6_5
MAP1B_5
IL13RA1_2
CKMT2_5
TOP2A_3
STARD3_13
RARA_7
PPP1R1B_6
KHDRBS3_7
CHD1L_8
FMO5_7
PIAS3_4
PRKAB2_1
FSHB_3
RAI2_6
SELENOS_4
CHSY1_1
SNRPA1_5
NR0B2_1
LIN28A_2
THAP1_3
RHPN2_2
ACTR10_9
ABHD12B_4
GCH1_5
LGALS3_3
DNAJB1_10
ZSWIM4_3
FBXW9_3
C19orf57_7
DCAF15_4
CC2D1A_4
MATN3_2
TRIM21_2
LRRC41_7
CCT6B_4
DHX30_8
SLC6A11_2
PPARG_12
NUP210_1
FCRLA_12
HSD17B7_5
ENOSF1_8
EMILIN2_1
ARFIP2_7
TRIM5_7
CNGA4_2
RRP8_4
EFR3A_5
PTCD3_5
IQCA1_5
ILKAP_5
PER2_2
SCLY_13
PTPRE_8
RAN_8
PRKAA1_3
CARD6_2
RAP1GAP2_5
INPP5K_14
MYBBP1A_5
UBE2G1_6
EEFSEC_2
TBC1D14_8
TMEM128_2
COQ3_2
PNISR_3
POPDC3_2
SEC61G_4
LANCL2_2
DDC_11
FTHL17_1
GRSF1_6
ENAM_1
JCHAIN_6
WBP2_12
UNK_6
TRIM47_4
SLC52A1_3
GUCY2D_1
DLG4_9
MATN2_13
REEP2_6
PCBD2_3
SDF2_3
FLOT2_6
ERAL1_5
PRMT7_11
TERF2_10
MTSS1L_4
HSPA12B_2
ANKEF1_2
SCP2D1_1
SNAP25_3
BTBD3_11
PCNA_2
NXT1_1
POLR3F_1
RIN2_2
PTPRA_8
DAP3_17
RHBG_5
KIAA0907_3
NES_1
BCAN_7
ARHGEF11_2
RAB25_1
APCS_1
SYT11_1
IGHMBP2_4
ACY3_2
TESMIN_4
TOE1_1
NASP_19
MUTYH_26
CTNNBL1_7
LPIN3_3
ZSWIM3_1
VSTM2L_3
OSER1_2
SERINC3_3
PPP1R3D_1
DMGDH_6
AP3B1_3
SYT4_4
SLC14A2_3
RSG1_2
CASP9_10
PDE6A_3
ATP8A2_3
ZMYM5_4
USPL1_2
XPO4_2
POMP_2
CDK8_4
ALOX5AP_2
WASF3_2
RNF17_4
GPR12_2
PEMT_7
CHI3L1_2
MYBPH_2
DSTYK_3
CHIT1_4
SLC41A1_1
LGR6_5
TMCC2_5
CCNA1_4
COG6_8
SPG20_4
RXFP2_2
EPSTI1_5
POSTN_6
KL_1
RFC3_3
STARD13_5
MORC4_3
TBC1D8B_6
FAM104A_6
SLC39A11_21
SRRM1_6
BTBD2_7
KMT5C_4
ZNF414_6
HSPBP1_9
CSNK1G2_8
SLF1_4
CNDP2_19
MACROD1_1
LGALS12_5
RTN3_11
RARRES3_3
HRASLS2_1
MED10_1
PDZD2_2
MORC2_4
C1QTNF6_3
FAM83F_2
GIMAP4_3
ADCK2_4
MKRN1_13
AGAP3_10
KRBA1_7
NTS_2
LRRIQ1_4
C12orf29_5
ATP13A3_6
DYDC2_7
TMEM254_7
IMPA1_11
LRRCC1_6
E2F5_7
CCDC59_2
SWAP70_5
ARNTL_15
LYVE1_3
MICAL2_12
HSD17B4_8
ZFC3H1_4
SARAF_11
RNF122_1
DUSP26_3
DPF2_5
MEN1_14
C14orf1_1
GSC_1
C14orf159_31
UNC79_5
NUMB_19
TTC9_1
EIF2S1_4
ELP3_14
PEBP4_2
ADAMDEC1_3
CTIF_6
MRO_10
MBD2_4
CCNB1_6
CD180_1
IRAK2_1
CAMK1_4
ARL8B_5
EDEM1_4
CNTN6_5
CHL1_9
MEIS2_16
DPH6_4
TRPM1_14
GNAT2_2
PRPF38B_3
TSPAN2_3
TSHB_2
VAV3_7
PSRC1_9
HMGCS2_2
PTPN22_8
SORT1_6
WNT2B_3
PTGFRN_1
TRIM45_5
CEPT1_3
CD101_2
VTCN1_5
NGF_1
AP4B1_6
NAPG_4
SPIRE1_9
PPHLN1_18
TMEM106C_16
SLC38A2_4
YWHAQ_3
KIDINS220_9
GRHL1_6
ROCK2_5
RSAD2_2
MYCN_2
LPIN1_9
CMPK2_3
IAH1_9
ANO3_4
IL6ST_10
FST_4
NAV1_7
CDC73_2
TIMM17A_1
CRB1_8
NARS_8
GRP_5
KIAA1468_4
IL2RA_4
ANKRD16_3
ECHDC3_3
IL15RA_18
CCNH_3
HRH4_2
KCTD1_8
CABLES1_6
DOCK2_6
EMP1_7
RERG_7
KLRD1_9
LRP4_2
MYBPC3_4
DDB2_10
ACP2_8
RAB33A_1
RBMX2_3
STK26_5
PIWIL4_5
PUM1_18
SPOCD1_8
YARS_2
PHC2_4
CDCA8_2
HOOK1_2
CYP2J2_1
ZCCHC11_14
PRPF38A_1
DSC2_2
DSG3_1
RNF138_6
ELP2_13
DSG1_2
DSC3_3
DSC1_2
DTNA_28
FHOD3_7
TPGS2_19
DAGLA_2
SLC43A3_22
TIMM10_3
GIF_2
DHX34_2
APLNR_3
FADS2_11
TCN1_1
C5AR2_2
TMEM165_5
CLOCK_4
PDGFRA_7
GGACT_6
COL4A2_3
CLDN10_3
UBAC2_5
ARGLU1_3
TPP2_2
KDELC1_1
ARHGAP32_5
STT3A_7
ADAMTS8_1
ACRV1_4
ETS1_6
SLC37A2_3
KLB_1
APC_9
NREP_18
WDR36_3
OSTF1_1
UBQLN1_4
NAA35_2
ANXA1_4
AGTPBP1_4
GOLM1_5
FAM189A2_4
PSAT1_2
ISCA1_4
ADAM19_4
CCNJL_5
TAOK3_14
USP30_7
SDS_3
MSI1_2
HNF1A_12
FBXO21_5
TBX3_2
OASL_4
RNFT2_6
P2RX4_8
BICDL1_4
DTX1_1
TRAFD1_7
DMTF1_27
CCDC146_2
TMEM60_1
CSN2_1
PNPLA8_8
FAM71F1_6
RINT1_5
SRPK2_9
TES_5
ANKRD6_15
HTR1B_1
CEP162_4
SYNCRIP_4
SNX14_12
NT5E_5
MRAP2_1
EPHA7_2
AKIRIN2_1
ORC3_4
LCA5_3
MAP3K7_5
CGA_5
GJA10_2
PRR5L_11
LMO2_3
PHF21A_14
NAT10_5
EHF_10
ELF5_5
PRRG4_1
CAPRIN1_6
CD63_14
PRPH_3
AVIL_3
AMHR2_4
GDF11_2
GLS2_11
ITGA7_13
TESPA1_13
FAM186B_5
AGAP2_4
TROAP_15
TSPAN31_7
B4GALNT1_12
TFCP2_4
COQ10A_5
FAIM2_7
ESPL1_4
ACVR1B_6
OS9_15
MIP_1
KCNH3_1
MAP7_9
CD164_6
AFG1L_4
NHSL1_5
AHI1_13
HEY2_2
PKIB_8
NMBR_1
SMPD2_2
MICAL1_5
REPS1_15
STX11_1
TEC_3
PRADC1_1
SEMA4F_9
EGR4_2
SMYD5_5
DYSF_11
CCDC142_3
KCNMB4_2
USP15_10
GNS_6
CPM_10
KLHL36_5
BCO1_3
KIAA0513_6
DYNC1LI2_9
FHOD1_5
CCDC102A_1
SLC9A5_5
AGT_1
KCNK1_2
URB2_2
CAPN9_3
COG2_4
NTPCR_2
TAF5L_4
GLUL_4
STX6_2
RNASEL_2
DHX9_1
KIAA1614_4
CEP350_8
FAM129A_2
PIGC_2
LAMC1_2
RC3H1_3
GPR55_5
MRPL44_1
CHRND_6
PAX3_8
TTLL4_12
USP37_5
ITM2C_9
SLC19A3_7
SERPINE2_7
DNAJB2_7
WNT10A_2
TMBIM1_18
EIF4E2_9
ARMC9_9
CAB39_4
TMEM127_3
TGFBRAP1_3
GCC2_8
GPR45_1
C2orf49_2
EPC2_5
ALDH1L2_3
STAB2_3
USP44_6
CKAP4_2
PLXNC1_6
APPL2_9
DRAM1_5
WASHC4_7
SLC41A2_9
VILL_6
FLNB_8
NEK3_9
PCDH8_2
CNMD_3
TBC1D4_4
BORA_5
SUCLA2_7
RCBTB1_2
PHF11_9
COG3_4
LMO7_18
SCEL_4
ITM2B_4
EDNRB_4
RCBTB2_4
LCP1_4
SETDB2_4
SCRN1_9
TNS3_9
CHST12_3
IGF2BP3_3
GPNMB_3
RAPGEF5_7
NUPL2_6
IL6_7
AOAH_5
BZW2_12
DGKB_6
DDX56_7
DBNL_18
CCM2_8
MYO1G_3
CIDEB_4
TTC5_3
NKX2-1_5
ABHD17C_3
IREB2_7
TM6SF1_7
CIB2_9
NMT1_5
MYCBPAP_9
CHAD_3
TACO1_1
TEX2_7
LIMD2_8
BRIP1_5
RTP4_1
ACTL6A_5
TRA2B_6
TBR1_3
MARCH7_6
ERMN_9
GALNT5_1
SCN7A_6
TANK_15
BLK_2
GATA4_8
SKIL_6
EPRS_3
HLX_2
VPS45_6
IL10_1
KCTD3_3
RPS6KC1_6
IL36G_3
IL36RN_4
IL1F10_2
WDR33_5
CCDC115_3
SAP130_5
BIN1_11
IMP4_6
UGGT1_5
STAM_3
GAD2_4
ABI1_12
YME1L1_8
DNAJC1_2
NIPSNAP3A_1
LRRC8A_3
CDK9_2
ODF2_17
KIAA0368_5
TOR1B_2
C9orf78_1
SMC2_5
KLF4_4
TOR1A_1
RALGPS1_8
FAM129B_2
ST6GALNAC4_2
TMOD1_3
DAB2IP_6
STXBP1_18
SLC2A8_10
ANGPTL2_2
CDK5RAP2_9
SLC31A2_2
SLC31A1_1
ZNF189_4
ALDOB_2
STX17_8
PRPF4_2
FPGS_7
USP20_3
BAAT_3
KIF12_5
ATP6V1G1_1
TEX10_3
GARNL3_11
DPM2_2
WDR38_3
TSTD2_3
GABBR2_3
PSMB7_2
TRMO_5
RABEPK_6
GOLGA1_4
XPA_2
NCBP1_4
ANP32B_1
PDCL_3
CTSV_2
LMX1B_4
ARPC5L_2
ENPP2_7
DSCC1_1
DERL1_5
MYC_7
NOV_1
IL33_4
POLR1E_3
PLAA_5
UBAP2_7
APTX_27
RNF38_7
TLN1_1
CCL21_2
DNAJB5_9
DCTN3_7
CD72_5
TMEM8B_4
ALDH1B1_2
HINT2_1
DENND4C_6
RPS6_4
CNPY3_2
FOXP4_6
KLC4_14
KIF13A_9
GMPR_1
CMTR1_4
TFAP2A_11
YIPF3_10
TMEM63B_6
FRS3_4
TJAP1_11
CAPN11_3
TINAG_3
HCRTR2_2
KIAA0319_6
IRF4_2
SLC22A23_8
BPHL_8
RIPK1_2
TCF19_11
FLOT1_52
IER3_10
MDC1_42
PGBD1_1
ATAT1_18
TPMT_1
CLPS_3
RNF144B_1
NRM_20
VARS2_6
TAF8_8
FAM8A1_1
C6orf52_5
FGFBP1_1
CPEB2_8
FHDC1_2
TLR2_1
TTC29_7
FCHSD2_9
ARRB1_7
SLCO2B1_12
THAP12_2
ANKRD42_8
IL18BP_11
NUMA1_24
SYTL2_22
RAB30_16
LRRC32_4
PRCP_12
NARS2_6
RNF121_9
MRPL15_3
PI15_2
TTPA_1
GGH_1
SLCO5A1_4
TGS1_2
DDX60_4
SORL1_5
TMPRSS4_12
BUD13_3
TRPC6_4
MMP20_1
DCUN1D5_10
YAP1_9
TRIM29_12
BTG4_3
POU2F3_4
RDX_13
PPP2R1B_9
ARHGAP20_6
MMP13_3
TMPRSS13_6
CASP1_13
ALKBH8_6
MAP2K5_7
CTDSPL2_7
SLTM_14
THBS1_2
NUSAP1_9
KIF23_8
ITGA11_2
KNL1_8
HAUS2_11
RTF1_2
PARP6_16
PAQR5_4
LRRC49_19
TUBGCP4_8
RMDN3_6
ITPKA_2
UACA_6
SMAD6_4
TMEM62_9
ADAM10_8
STRA6_14
CYP19A1_15
SEMA6D_15
GCHFR_6
BCAR3_5
TTLL7_5
FNBP1L_5
KYAT3_3
GTF2B_3
BRDT_16
RABGGTB_2
GIPC2_1
ARHGAP29_3
SLC44A5_2
DNASE2B_2
DBT_2
RTCA_3
IFT172_7
SELENOI_4
CGREF1_8
HADHB_7
KHK_3
ADCY3_9
PPM1B_6
PNPT1_6
DYNC2LI1_8
THUMPD2_4
CYP1B1_4
ACTR2_5
PREB_6
ABCG5_4
PREPL_14
SLC3A1_10
EMILIN1_2
FBXO11_6
ATRAID_5
CENPO_3
LRPPRC_5
TRIM54_2
DTNB_12
ACTR1A_3
MFSD13A_3
MYOF_5
LOXL4_1
CH25H_1
LBX1_1
BTBD16_1
KIF11_1
CUZD1_5
TACC2_21
CALHM2_2
CEP55_2
KIF20B_3
ENTPD1_8
EXOC6_6
PLCE1_3
RBP4_4
DBR1_2
DNAJC13_3
FAM149B1_4
ASCC1_16
PLA2G12B_1
ZNF365_9
OIT3_2
ADAMTS14_2
TET1_1
MYPN_5
AOX1_4
ATIC_7
SMARCAL1_10
BARD1_10
MSTN_1
SSB_5
NAB1_9
CDK15_5
PPIG_8
FASTKD1_5
MDH1B_5
HECW2_4
OLA1_6
SSFA2_8
CHRNA1_7
ABI2_17
ITGAV_4
SLC35A5_5
DIRC2_2
SENP7_7
GUCA1C_3
PARP9_6
SECISBP2L_5
GLCE_2
SHF_10
APH1B_6
INTS14_14
PARP16_3
SEMA7A_4
ARHGAP24_7
FAM13A_12
HERC5_2
NDST4_3
AP1AR_3
PRKG2_4
RASGEF1B_11
SEC31A_30
FGF5_3
GPAT3_3
FGF2_3
BBS7_3
BMPR1B_8
RAP1GDS1_15
MMRN1_3
PDE5A_5
PRDM5_5
TRPC3_5
NAAA_6
NUP54_7
CXCL9_1
G3BP2_14
SEPT11_9
FRAS1_6
SCARB2_15
CCNG2_5
CNOT6L_6
USO1_2
CDKL2_3
SHROOM3_1
ANXA3_7
PPA2_14
CENPE_5
GSTCD_8
INTS12_10
ENPEP_2
LEF1_8
HADH_15
EGF_3
PAPSS1_1
SEC24B_3
C4orf17_3
PPP3CA_8
SLC39A8_3
MTTP_11
FBN2_6
RGS3_15
GUCD1_8
RNF185_4
KIAA1644_1
PARVG_7
B4GALNT3_2
PDE6H_1
ERP27_2
ETV6_3
CPNE8_4
YARS2_2
FGD4_11
PLCZ1_14
AEBP2_7
SLCO1C1_5
ETFBKMT_6
ZCRB1_3
TMEM117_4
PRICKLE1_15
CLSTN3_7
KLRG1_4
VAMP1_4
TAPBPL_2
CD27_1
RBP5_3
PEX5_17
PIANP_6
SLC38A4_5
AMIGO2_3
SCAF11_9
COL2A1_2
PPFIA2_19
LRIG3_5
MARCH9_2
INHBE_2
GLIPR1_4
TMEM19_6
LGR5_3
DUSP6_4
POC1B_8
TMTC3_4
LUM_1
KERA_1
SNRPF_3
AMDHD1_3
NEDD1_10
GAS2L3_6
TMEM132B_2
SLC15A4_3
SDSL_6
MMAB_8
GLTP_6
GIT2_9
FOXN4_4
NUP58_8
MTMR6_1
SLC46A3_2
PDX1_1
LNX2_1
SUOX_10
SLC39A5_7
TARBP2_12
RDH16_1
ACVRL1_6
GPR84_2
NPFF_1
N4BP2L1_11
CELA1_1
SMARCC2_6
BRCA2_4
KANSL2_11
CERS5_16
MAP3K12_5
ITGB7_8
GALNT6_12
CSAD_13
LMBR1L_15
C12orf10_4
ANKRD52_1
ZNF740_1
WDFY2_2
RB1_2
SBNO1_3
MORN3_3
SLAIN1_16
RBM26_5
SRRM4_1
METTL21C_1
MBNL2_6
ZIC5_1
ABHD13_1
RAB20_1
GRTP1_4
CUL4A_6
CDH24_5
REM2_2
CBLN3_2
TSSK4_6
NOVA1_11
MDGA2_7
TMX1_2
FRMD6_10
PELI2_3
RTN1_4
C14orf37_2
SYT16_4
RDH12_2
DCAF5_7
ESR2_10
STON2_6
EFCAB11_7
JDP2_5
AK7_3
FAM181A_5
SLC24A4_5
SERPINA10_6
C14orf79_6
WARS_34
SLC25A47_2
WDR20_13
SLC12A6_16
DUOXA1_14
MFAP1_1
SORD_4
ZSCAN29_7
DUOXA2_2
LYSMD2_4
SLC27A2_3
HDC_3
GCNT3_5
BNIP2_6
GTF2A2_6
DISP2_1
CDAN1_3
TLE3_21
UBE2Q2_6
PSTPIP1_12
ETFA_13
BCL2A1_2
HMG20A_9
SCAPER_13
TSPAN3_6
WDR61_8
NCOA2_5
DNAJA4_9
MESDC1_1
TPM1_25
IGF1R_6
ARRDC4_1
PIF1_3
USP3_16
BBS4_13
PML_18
CYP1A1_10
ADAMTS17_4
ULK3_12
PCSK6_14
SCAMP2_7
LMAN1L_4
HAPLN3_4
POLG_15
RLBP1_3
FANCI_10
ABHD2_5
WDR93_3
TICRR_3
NTRK3_15
DET1_6
UNC45A_3
ST8SIA2_3
MCTP2_5
FURIN_7
IQGAP1_6
CRTC3_4
EFL1_6
SH3GL3_3
SEC11A_8
GLYR1_8
PMM2_12
SLC5A2_3
C16orf58_7
ARMC5_7
PARN_8
CDR2_6
IGSF6_2
MYLK3_2
DHX38_7
TXNL4B_6
MARVELD3_5
CPNE2_6
KATNB1_6
KIFC3_25
ADAMTS18_4
NUDT7_6
CMTM3_14
CDH11_10
MBTPS1_5
CDH13_10
ZCCHC14_3
TLDC1_6
ADAD2_3
IRF8_9
RHOT2_9
RPL3L_2
ZSCAN32_13
NDUFB10_4
PDPK1_9
GAS8_7
MED9_3
GID4_4
ZNF287_3
MYOCD_4
UTP4_17
RANBP10_7
CTRL_3
NOB1_3
PRPSAP2_25
UNC45B_3
PCTP_6
TOM1L1_19
C17orf80_9
TOB1_2
SGSM2_9
SKAP1_7
SCRN2_9
SSH2_8
RHBDL3_5
ARSG_4
G6PC3_6
CLTC_9
PTRH2_3
SS18_19
TAF4B_3
PRELID3A_9
IMPA2_8
GNAL_8
SLC39A6_4
RPRD1A_9
C18orf21_6
GALNT1_5
ADCYAP1_2
MEP1B_3
GAREM1_3
ESCO1_3
OSBPL1A_11
GATA6_2
C18orf8_7
PELP1_8
ARRB2_12
ZMYND15_4
WRAP53_7
SAT2_4
PIK3R5_9
TP53_26
CCDC40_8
ARHGDIA_10
TMC6_10
SLC16A3_16
CARD14_7
RAB40B_4
CSNK1D_10
TBCD_13
FOXK2_5
CBX8_3
RNF157_5
CEP131_7
ZNF750_2
CBX4_3
RNF165_7
DYM_12
MAPK4_4
ELAC1_3
MBD1_21
SMAD4_11
TNFRSF11A_5
ZCCHC2_6
FBXO15_9
CBLN2_4
P3H4_5
NT5C3B_6
RETREG3_9
ERBB2_13
GRB7_7
PNMT_3
IGFBP4_1
FKBP10_6
TXNL4A_10
SAMD1_2
BRD4_7
NFIC_6
PRDM15_8
PFKL_3
CIB3_3
SH3GL1_6
DPP9_17
DMRTC2_6
ZFP14_2
HUNK_3
IFNAR1_2
COL6A2_6
TRPM2_6
SCYL1_9
TMEM50B_5
APP_10
DOPEY2_2
URB1_1
AKT1_10
EMP3_7
NTN5_2
CBLC_2
ADAMTS10_6
SLC6A3_2
RNPEPL1_3
CAPN10_11
NLRP12_5
TIMM29_2
FBN3_5
EVI5L_4
TM4SF5_1
SLC47A1_6
PSMB6_3
RPS11_5
NOSIP_8
IGLON5_1
RCN3_4
SLC2A5_9
RERE_11
MMEL1_4
PRDM16_6
PADI3_1
EPHA2_1
ARHGEF19_3
PGD_6
MYOM3_2
SH3BGRL3_2
IL22RA1_1
C1orf216_1
KIAA0319L_10
EVA1B_1
C1orf94_2
PLK4_6
MAP3K6_5
FCN3_2
GPN2_3
SYTL1_5
WDTC1_4
HSPG2_4
ITGB3BP_3
BCL10_2
CYR61_1
PRKACB_17
PIGK_4
TINAGL1_3
AZIN2_4
RPS8_2
KIF2C_5
PTPRF_8
BEST4_1
MOB3C_3
TMEM61_1
DMRTB1_1
LMO4_2
SYPL2_1
BARHL2_1
MTF2_4
SLC44A3_9
IGSF3_4
ZNF697_1
CTTNBP2NL_2
STRIP1_3
PSMA5_2
FNDC7_2
CD53_1
PROK1_1
CELSR2_1
ALDH9A1_1
ATP1B1_3
TIPRL_2
NME7_4
POGK_3
MPC2_3
CREG1_1
DCAF6_5
RXRG_2
TBX19_3
TMCO1_9
POU2F1_9
MAEL_4
ILDR2_7
DPT_1
MGST3_6
ADCY10_5
RFWD2_8
PPOX_11
NUF2_7
RGS5_6
PFDN2_1
NR1I3_29
USP21_7
F13B_1
PRCC_3
RRNAD1_7
CASQ1_2
ISG20L2_2
CRABP2_4
ABL2_8
XPR1_2
RGS16_1
TOR1AIP1_8
FAM163A_1
LYPLAL1_2
LHX9_7
RORC_3
TUFT1_4
SF3B4_2
ECM1_3
ZNF687_6
TARS2_6
CGN_5
SNX27_4
SETDB1_10
ADAMTSL4_4
MCL1_3
RFX5_16
PI4KB_11
ANP32E_10
MINDY1_6
ANXA9_1
CERS2_9
ENSA_13
SEMA6C_6
MRPL9_7
ARNT_6
POGZ_13
C1orf56_1
HORMAD1_5
GOLPH3L_2
GABPB2_2
SYT14_9
DTL_2
EIF2D_6
INTS7_8
VASH2_7
SMYD2_2
SUSD4_6
DUSP10_4
ATP8B2_2
CRNN_1
ADAM15_12
JTB_4
RAB13_2
NUP210L_3
SNAPIN_1
SLC27A3_6
UBAP2L_12
CREB3L4_7
AQP10_2
KCNN3_4
GATAD2B_8
RIT1_5
INTS3_12
PKLR_6
HCN3_2
ACTA1_2
C1orf131_4
SCCPDH_1
MAP3K21_3
CEP170_14
SNAP47_8
SDE2_1
DEGS1_3
FBXO28_3
CNIH4_4
ITPKB_3
GUK1_13
CNIH3_1
PARP1_4
PSEN2_8
LBR_4
EPHX1_5
REN_2
SOX13_5
ETNK2_8
PTPN7_15
SYT2_2
ARL8A_2
GDF7_1
PDIA6_7
ATP6V1C2_3
HNRNPLL_10
GALM_4
ABCG8_1
EML4_3
CHAC2_1
WDPCP_10
VPS54_4
ASXL2_3
ETAA1_1
MEIS1_6
CIAO1_1
SNRNP200_2
MRPS5_2
ANKRD53_4
TPRKB_3
EXOC6B_4
SFXN5_5
DQX1_4
NPHP1_8
MALL_3
THNSL2_5
RALB_7
C1QL2_1
TMEM177_5
SLC20A1_5
FBLN7_6
CNGA3_4
LYG1_2
AFF3_13
UBXN4_4
SPOPL_3
GPR17_4
POLR2D_3
AMMECR1L_2
GALNT13_7
PKP4_10
SLC4A10_6
SCRN3_9
LNPK_6
ZNF385B_8
TMEFF2_3
CDCA7_5
DLX1_4
FAM171B_2
CCDC150_5
METTL21A_10
CPO_1
KANSL1L_8
SPAG16_10
ABCA12_3
SUMF1_5
NYAP2_2
RHBDD1_9
ACKR3_2
TRPM8_7
ANKMY1_15
COPS7B_19
DIS3L2_12
VGLL4_16
RETREG2_8
CTDSP1_5
MARCH4_1
STK11IP_5
GMPPA_10
EAF1_2
CNTN4_9
DYNC1LI1_4
RBMS3_9
GADL1_2
OSBPL10_4
POMGNT2_2
FAM198A_3
CSRNP1_2
SLC25A38_2
ITGA9_3
SLC22A14_3
GOLGA4_8
CTDSPL_6
STAC_4
IQSEC1_3
CAND2_5
PTPRG_2
IL17RD_5
UBA3_7
ARL6IP5_4
TMF1_2
LRIG1_2
LRTM1_2
LIMD1_2
NFKBIZ_7
COL8A1_4
NXPE3_6
ADGRG7_2
PHLDB2_12
ABHD10_4
TAGLN3_7
PLA1A_5
RABL3_6
ADPRH_5
IGSF11_8
ATG3_4
NR1I2_5
BOC_11
SRPRB_3
TMEM108_9
AGTR1_8
MED12L_5
EIF2A_10
OSBPL11_1
TRPC1_4
NCEH1_5
LPP_13
TMEM44_10
RUBCN_7
TCTA_1
NICN1_4
MANF_2
CCDC39_5
STXBP5L_8
EAF2_4
ILDR1_4
SLIT2_9
EIF2B5_3
ECE2_7
VWA5B2_2
FIP1L1_6
SLC26A1_4
EPHA5_6
ATP10D_3
OCIAD2_5
SLC10A4_1
SCD5_2
PLAC8_5
CABS1_1
GC_5
TRMT10A_5
KLHL8_5
SNCA_13
PYURF_1
TBCK_13
ANK2_19
TIFA_2
FABP2_1
METTL14_5
USP53_4
SETD7_6
NAF1_3
MARCH1_6
SFRP2_1
RNF175_5
PDGFC_4
CBR4_6
GLRA3_2
ROPN1L_2
NDUFS6_2
MARCH6_6
NKD2_2
CDH18_7
ADAMTS16_2
SRD5A1_3
MYO10_7
FAM105A_1
SKP2_9
OSMR_5
PLK2_2
GZMA_1
PIK3R1_11
HAPLN1_7
LHFPL2_2
BHMT_2
IQGAP2_11
CRHBP_2
RASA1_5
LIX1_2
GIN1_4
PPIP5K2_13
PAM_14
SLC30A5_7
BTF3_4
SPATA9_4
TSLP_3
TNFAIP8_7
FEM1C_1
COMMD10_5
MEGF10_4
ADAMTS19_4
YIPF5_5
ARHGAP26_11
CXCL14_2
LECT2_4
SLC25A48_5
IL9_1
TIMD4_3
RNF145_7
C1QTNF2_1
GABRA6_5
GABRB2_7
FBXO38_4
SPINK7_2
PCYOX1L_5
GLRA1_3
TNIP1_16
G3BP1_12
ZNF300_5
N4BP3_1
RMND5B_8
CPLX2_9
KCNMB1_2
MYLK4_1
FARS2_4
CDKAL1_3
PSD2_1
LRRTM2_3
GFRA3_2
KLHL3_5
DCDC2_3
SLC17A4_3
HIST1H2BA_1
TRIM7_5
FAM193B_11
PLA2G7_2
TNFRSF21_1
RNF44_4
MUT_1
RASGEF1C_5
PPP1R18_18
DAAM2_6
MLIP_12
HMGCLL1_8
LGSN_4
FGD2_3
SCUBE3_1
ANO7_4
CRIP3_4
TTBK1_2
TCTE1_2
RPL7L1_4
NFKBIE_4
CYP39A1_2
IRAK1BP1_4
PHIP_1
FAXC_2
PNRC1_3
PM20D2_1
RARS2_2
SCML4_6
TBC1D32_5
CLVS2_2
RSPO3_2
ARHGAP18_1
TAAR1_1
SLC18B1_2
MTFR2_5
SLC2A12_1
SHPRH_9
AIG1_8
DYNLT1_3
PNLDC1_5
WTAP_5
ZMYM4_3
VIP_3
SLC22A3_1
VWDE_5
GNA12_4
SDK1_4
C7orf26_4
RBAK_2
EGFR_8
CDCA5_6
IGFBP3_8
IGFBP1_3
SSC4D_1
MDH2_4
ZNF92_4
TMEM168_6
ASB15_7
C7orf43_7
SLC12A9_7
GIGYF1_1
MEPCE_2
TMEM209_5
AGBL3_4
STRA8_1
ZC3HAV1L_1
EPHA1_1
CNPY1_4
TMEM47_1
LANCL3_3
SYTL5_2
KDM6A_10
SLC16A2_3
ZNF157_1
NDUFB11_2
RAB41_3
ZMYM3_7
GPR174_1
CCDC120_6
LPAR4_3
AWAT2_2
SNX12_4
ITGB1BP2_2
IL2RG_7
ZNF711_3
CPXCR1_3
NXF3_2
RIPPLY1_2
CXorf57_4
FRMPD3_2
HTR2C_3
DOCK11_4
IGSF1_6
ARHGAP36_6
GPR119_1
MCPH1_3
MFHAS1_1
FBXO25_6
FATE1_2
MAGEA4_14
NSDHL_3
ZNF185_12
CSGALNACT1_9
ATP6V1B2_5
HMBOX1_11
CHRNB3_2
CHRNA6_3
GNRH1_2
DOK2_4
SLC25A37_4
CHMP7_6
STAR_3
PLPBP_5
ERLIN2_9
SNTG1_6
RGS20_6
TACC1_17
GOLGA7_4
PLPP5_8
GINS4_5
NSD3_8
DNAJC5B_2
CRH_1
TRIM55_4
PMP2_2
LACTB2_2
SLC26A7_8
PSKH2_1
ATP6V0D2_3
SYBU_33
DPYS_3
MTDH_5
LRP12_3
EBAG9_9
RSPO2_8
UTP23_7
FAM83A_4
FAM135B_6
ARHGAP39_2
NAPRT_7
VLDLR_3
UHRF2_4
NFIB_19
CER1_1
PLIN2_4
C9orf72_4
IFNK_1
ZCCHC7_3
FBXO10_3
CEP78_5
NTRK2_8
IDNK_6
SHC3_2
C9orf3_9
PLPPR1_7
ZNF462_5
INIP_3
UGCG_1
SNX30_2
STOM_3
MRRF_9
NR6A1_5
CRB2_3
ALAD_4
WDR31_5
POLE3_2
GTF3C5_7
ASB6_3
PTGES2_4
NTMT1_10
SLC25A25_7
SH3GLB2_8
MIGA2_5
PTGES_1
LRSAM1_4
GPR107_5
C9orf142_1
INPP5E_1
PROSER2_4
USP6NL_4
MSRB2_2
PDSS1_2
FAM171A1_2
MINDY3_4
SLC39A12_4
TMEM236_1
ST8SIA6_2
PARD3_13
ZEB1_10
FAM13C_14
A1CF_8
LRIT1_1
RGR_3
HERC4_9
LRMDA_4
CAMK2G_9
ADIRF_3
ANKRD1_1
HTR7_3
RPP30_4
FRA10AC1_1
ADD3_3
HABP2_2
VAX1_2
DNAJB12_5
NPFFR1_1
PLEKHS1_7
CYP17A1_5
FUOM_4
PAOX_7
TAF5_1
PPRC1_3
ADAM12_3
RGS10_3
BTBD10_7
ADM_8
GAS2_8
SLC5A12_4
LIN7C_2
LRRC4C_6
PGAP2_24
SCGB1A1_2
ZNF215_6
APIP_2
PAMR1_7
DGKZ_13
EIF3M_9
TNKS1BP1_4
GLYAT_5
SERPING1_11
SSRP1_4
C11orf49_13
ARFGAP2_19
HIKESHI_4
CCDC81_4
SESN3_5
ENDOD1_1
CCDC82_4
KLHL35_2
INTS4_7
PAK1_12
RPS3_17
ZC3H12C_3
TTC12_15
NCAM1_20
DRD2_7
C11orf52_2
HTR3B_3
NPAT_3
ATM_14
AASDHPPT_4
SLX4IP_2
P4HA3_5
GRIK4_3
ST14_1
ADAM33_5
KAT14_4
TKFC_5
MTA2_3
TMEM138_3
TMC2_1
ROM1_4
EML3_11
INCENP_3
OOSP2_2
MS4A3_5
PLCH2_8
B3GAT3_5
EI24_12
CCDC15_2
CHEK1_16
ESAM_4
KIRREL3_3
MPZL2_2
SCN2B_1
SIDT2_10
TMEM25_17
TAGLN_7
DUSP15_8
C20orf144_1
KIAA1755_4
SPATA25_1
DSN1_7
SOGA1_3
CNBD2_7
SPINT4_1
LSM14B_5
YTHDF1_2
CABLES2_2
GPHA2_3
TRPT1_8
NUDT22_7
FERMT3_5
PLCB3_3
TM7SF2_15
VPS51_12
TBX6_5
PPP4C_8
FAM57B_6
DOC2A_11
HIRIP3_2
TAOK2_4
TMEM219_9
HMGA2_10
MMP3_3
CNKSR2_4
CNTN5_6
KLRF1_7
CLEC1A_5
MKX_4
MPP7_5
DCUN1D2_8
TMCO3_8
TIRAP_5
EEF1AKMT1_2
LATS2_1
SAP18_6
ADGRL3_15
KIAA1328_9
FAM124A_3
LYPD1_3
LYPD6B_7
PDCD4_3
GPM6A_18
SPATA4_3
CD226_8
CNDP1_3
FSIP1_2
DLG2_21
CCDC83_3
RGS18_1
MTMR12_5
PPP1R1C_3
C11orf53_3
FAM173B_5
DOCK1_2
DIXDC1_4
PIH1D2_7
C11orf57_8
IL18_3
PTS_5
PIP4K2A_4
FOXO1_1
ABCB9_18
RILPL2_1
ITPR1_6
PRSS53_1
SLC7A11_2
GPR158_1
CACNA2D4_14
DCP1B_4
CACNA1C_27
THRB_12
NGLY1_7
OXSM_6
UEVLD_8
TMEM86A_1
TMEM263_7
UBE3B_9
ANK3_26
IPMK_1
PLBD2_3
DLG5_7
MAT1A_2
GXYLT1_2
TWF1_8
DIP2C_5
MAGI1_10
TEX30_6
CSNK1G3_8
NPAS3_11
FAM177A1_10
MBIP_8
MIPOL1_9
EXT2_6
TMEM18_5
ALLC_1
KCTD14_2
ME3_9
MSGN1_1
ADAMTS12_5
NUBPL_7
ATP6V1G3_8
FER_5
VIPAS39_7
ANKRD50_2
UPF2_3
CDC123_5
SCLT1_6
C4orf33_5
FRMD4A_8
SLC25A31_1
EPS8_13
ACAD8_4
THYN1_4
NCAPD3_10
VTI1A_2
QDPR_7
FAM160B1_4
ANO4_8
QTRT2_7
DRD3_4
MMAA_3
ZNF827_5
POU4F2_1
EDNRA_5
NR3C2_6
ITIH2_3
KIN_2
PIGF_5
INPP1_11
MFSD6_8
RNF144A_4
ASAP2_2
ADAM17_3
FLI1_7
KCNJ1_6
TMEM45B_2
WWC2_8
ACSL1_11
AMN1_9
BICD1_8
SAV1_5
CCDC122_2
NBAS_8
ZNF385D_2
TDO2_6
GUF1_2
SLC35F4_5
GABRA2_15
SACS_4
CCDC175_2
FBXO4_5
TMEM267_5
CCL28_3
PARP8_16
GFRA1_4
CACUL1_2
DST_19
BEND6_3
TIAL1_6
BAG3_2
GLT1D1_6
RBM46_4
MCHR2_2
KCNE4_1
AP1S3_8
ASTN1_3
FAM168B_2
PTPN14_2
MGAT5_2
TMEM163_1
GEMIN6_3
TMEM178A_2
RNF219_1
RIT2_3
EPG5_5
PSTPIP2_2
ATP5A1_14
SPC25_2
PDK1_8
PTH_2
PDE3B_2
TCF7L1_2
TGOLN2_6
SH2D6_1
UHMK1_3
ATG10_7
POC5_8
SPOCK1_4
FAM151B_2
TADA1_1
GUCY1A2_3
CWF19L2_3
HOMER1_4
XRCC4_4
BOLL_6
DCLRE1C_13
RPP38_6
NMT2_2
ZSCAN1_3
CCDC50_2
CAMK4_6
TRIM36_6
ZFP36L2_1
PAN3_2
PLEKHH2_3
PFKM_25
TMEM123_6
GRIA4_12
IGSF10_2
SPEF2_10
SPARCL1_10
DMP1_2
MEPE_7
MBNL1_19
CAPSL_4
NADK2_8
GJA1_1
CCNO_2
DDX4_12
SLC30A6_9
SAR1B_9
CATSPER3_1
GPR180_1
TCTEX1D1_2
ANKRD22_1
FARP1_9
IFIT5_1
SLC16A12_2
PANK1_3
PRDM8_4
BMP3_1
HNRNPDL_10
PTPRK_13
CNTNAP4_6
RAB3C_1
MARVELD2_12
RAD17_16
PLOD2_6
STK32B_4
NRSN1_4
ADGRA3_5
CPB1_5
SREK1IP1_1
LGI2_2
CDYL_5
TEKT5_2
BANK1_5
TXNDC11_5
DAB2_8
ACMSD_2
BCL2L11_25
CAST_31
CETN3_6
SMARCA5_1
BMP6_1
RASSF3_5
HNRNPU_19
MERTK_6
TMEM87B_3
PTPRR_7
NR4A2_10
CCDC148_7
PLA2R1_2
RBMS1_6
SCN3A_8
FEZF2_3
CD96_7
SLC25A27_6
ADGRF4_3
FRMD1_5
FAM49B_21
ASAP1_9
LPCAT1_2
NMRAL1_22
C16orf89_3
ING1_5
TEX29_2
SPACA7_4
ADPRHL1_4
FBXL2_9
RMND5A_1
CD8A_4
RPIA_1
PTPRD_12
LURAP1L_1
GTF2E1_4
ZDHHC7_5
FAM92B_3
C7orf31_5
TMPRSS11D_2
JAZF1_6
SPHKAP_2
KCNJ16_10
TRIP12_10
FBXO36_3
CEBPG_2
KCTD15_10
MCOLN2_3
DDAH1_5
SREK1_7
CHD1_5
ANKFN1_4
DGKE_4
MSI2_7
CACNA2D1_4
ZUFSP_2
GDPD1_6
SEMA3D_2
ASB17_1
SLC5A10_5
AK5_5
IMPACT_5
ANKRD29_5
SDHAF4_1
CHST9_3
THY1_6
DNAAF1_5
C16orf74_6
JPH3_1
ANKH_2
OTULIN_4
UBASH3B_1
ROBO4_2
ROBO3_3
PANX3_1
TBRG1_5
CDH12_3
GPR15_1
TOMM70_1
ABI3BP_22
ANGPT1_5
PITPNC1_5
CC2D1B_4
CERS3_5
PRKCA_3
GAL3ST2_1
ABCA5_11
C4orf19_3
TNIK_10
FAM167A_4
NEIL2_6
WNT3A_1
LONRF1_6
TRIM11_5
ENAH_5
PPP1R3A_3
ASZ1_3
GPR26_1
MMP21_1
C10orf90_7
FAM69A_5
SRSF12_3
PDLIM3_7
SORBS2_40
LY96_2
BTG3_3
C21orf91_4
NCAM2_2
L3MBTL4_6
PDE1C_6
MRPL39_3
JAM2_4
ATP5J_7
GABPA_2
ADAMTS1_4
ADAMTS5_1
WNT7A_1
XPC_3
CCDC174_3
FGD5_4
DPH3_2
OXNAD1_7
PLCL2_3
SKA1_10
PPP4R1_11
APCDD1_6
MPPE1_18
USP43_4
EME1_6
EPHB1_7
ACSS1_4
ANKRD40_2
ZNF18_7
CA10_7
VOPP1_13
SEPT14_1
DKK2_3
CYP2U1_2
FBXL18_5
CNTNAP5_1
PROM2_4
ODF1_2
KLF10_2
ATP6V1C1_4
TMEM55A_6
OTUD6B_5
CDK19_5
GTF3C6_1
TTC39B_6
OR4K1_1
ZFYVE27_7
GOLGA7B_2
GPR78_2
SLC25A28_2
HSPA13_1
SAMSN1_4
USP25_6
GRAMD3_10
C16orf87_3
MOV10_4
PPM1J_4
DBI_9
SLC16A1_5
HEATR3_1
OXA1L_7
SLC7A7_16
CNOT8_20
GRIA1_6
LRGUK_1
SETD9_4
MIER3_8
NUP205_5
ZKSCAN2_2
C9orf85_6
PIK3AP1_3
VSIG4_4
KDM8_6
PDZD9_3
KCTD18_2
FAM126B_5
ALS2CR12_7
C2CD6_4
TMEM237_6
FZD7_1
DEPTOR_2
RNF20_4
CYLC2_3
PPARGC1B_5
ELMO1_12
LSM11_1
MED7_3
SAXO1_3
TRIM42_1
PXYLP1_13
ADCY8_3
RASA2_3
RMND1_4
SLA_12
TMBIM4_12
RAB39B_1
CLIC2_2
MICU3_3
GRIP1_14
PSD3_13
CARNMT1_3
MCU_8
ELMSAN1_6
CFAP70_5
GNA14_1
WIF1_3
GPR61_5
MMP16_2
ADK_4
BATF_2
DCK_5
ADAMTS3_2
ALX3_1
DPY19L4_8
NDUFAF6_14
DRAM2_3
C8orf37_1
PPEF2_3
CFAP161_3
ADAMTSL3_2
ART3_8
SLC28A1_4
WHAMM_1
CXCL13_1
RWDD2B_1
USP16_4
MAP3K7CL_12
BACH1_12
TIAM1_5
SCAF4_3
CDK20_5
PCGF6_2
SFXN2_10
C14orf2_7
TDRD9_3
FGF18_1
PCDH1_6
SH3RF2_2
GDF6_3
MTERF3_5
PPP2R2B_16
FAM122C_4
SUPV3L1_2
FAM122B_6
FBXO43_2
HKDC1_1
TYSND1_2
PHF6_5
CD109_3
LRFN2_1
NODAL_2
PRG3_1
UBE2L6_4
ZDHHC5_5
MED19_2
ZFAND3_4
NPTN_7
KAT6B_5
SAMD8_4
UNC5D_6
UTP14A_3
AIFM1_8
MAPK13_3
BAG4_3
MS4A1_8
TBC1D31_12
WDYHV1_6
ATAD2_4
FBXO32_2
NSMCE2_10
ZNF689_1
PRR14_4
FBRS_3
FRRS1_1
PHKG2_7
MFSD14A_1
SASS6_1
COX6A2_1
MALSU1_1
VPS8_15
GALK2_19
LHFPL4_1
BUB1B_4
PDE6D_3
EIF4A2_9
BRPF1_6
SST_1
GHRL_11
EXOG_14
NTAN1_15
SHCBP1L_1
NMNAT2_2
ATP2B2_7
LYZL4_2
SLC6A1_2
FCHO2_4
RBPMS_11
TMEM171_2
KLHL40_1
C8A_1
TIMP4_1
NRG1_18
C1orf27_3
CPT2_9
NECAP2_8
LRP8_9
CDCP2_2
PAXIP1_4
STEAP2_9
HTR5A_1
CLDN12_6
MMP14_3
GATAD1_1
SUSD3_5
C1orf158_2
ST3GAL2_2
FUK_8
IL34_4
DHRS1_3
KIT_2
AASDH_7
RNF111_7
FAM81A_10
MYO1E_6
MUM1L1_3
AFAP1L1_2
TSC22D3_17
DSCR3_4
DYRK1A_6
KCNJ6_1
ERG_11
TSPAN18_8
TMEM164_4
MX1_11
CREB3L1_3
TAB3_5
C9orf43_2
ZNF618_5
TMEM268_2
SVOPL_5
SNX22_2
UBN2_3
SLC34A2_5
PSMG3_3
WDR19_8
SLC37A3_18
GAREM2_2
SPPL3_6
DPYSL5_6
RAB28_8
FAM213B_8
TNFRSF14_14
PANK4_14
CIB4_1
PEX10_7
RER1_7
RADIL_3
SKI_1
LDLRAP1_1
KRTCAP3_5
PAFAH2_4
EXTL1_1
SLC30A2_2
TRIM63_1
MRPL17_2
GRHL3_6
UBXN11_12
RHPN1_1
TPRG1L_2
CNNM4_1
EYA3_5
DZIP1L_5
FANCC_4
MRAS_8
WASF2_2
ABHD3_6
FAIM_6
FAM46B_1
CLSTN2_1
RNF207_1
CUL4B_4
GPR153_1
SLC13A3_10
GPRASP2_3
RHBDL2_3
SHROOM4_3
HIST1H2BD_2
CDC25C_8
MITD1_5
CATIP_1
CNOT11_2
KCNB1_4
TSPAN33_1
NRG2_7
AHCYL2_7
CD1D_1
SPATA2_2
CD1C_2
CD1B_2
DNAH3_1
CD1E_14
CPA5_10
ZC3H18_6
DYNC1I1_10
PFKFB1_4
TMED4_3
PPP1R15B_1
EMSY_13
GPAT4_4
ZSCAN12_2
TAGLN2_4
ELK4_4
SLC45A3_1
DUSP23_3
RNF166_7
HTR6_1
F11R_3
USF1_7
PLA2G2F_1
SPATA2L_3
ZNF276_6
EDA_8
VWA5B1_7
CDA_1
B4GALT3_3
ADAMTS4_2
NDUFS2_2
SLC5A11_10
TOMM40L_3
MPZ_4
CCAR2_11
WNT9B_3
CACHD1_1
CDC42SE2_5
EPB41_8
MIS18A_1
ALG8_17
FBXW5_5
SYNJ1_9
PAXBP1_5
MRPL10_5
IFNGR2_6
GART_10
SON_9
DONSON_11
SV2A_2
LAD1_6
STC1_2
TNNI1_7
CSRP1_8
HOXB13_1
KCNE2_1
RCAN1_10
UBE2Z_6
CIART_5
CCDC24_7
RUNX1_10
IGF2BP1_2
GIP_1
CBR1_4
CBR3_1
GJD2_1
ACTC1_1
MORC3_5
CHAF1B_1
CLDN14_5
SIM2_3
HLCS_6
ARHGAP27_18
ADPGK_10
ADIPOR1_4
CYB5R1_2
M1AP_6
PSMB4_1
IRX6_1
BTG2_2
CES5A_16
HK2_2
ALDH4A1_5
THEM4_3
UBR1_9
TGM7_1
PGLYRP3_1
ISL2_2
RSPRY1_7
CCDC17_5
GPBP1L1_2
NAE1_14
ADGRG5_3
DRC7_9
TEPP_2
UROC1_2
LRRC36_14
ZDHHC1_2
ATP6V0D1_12
AGRP_1
CARMIL2_4
PIP_1
FAM131B_8
RGS12_5
PSKH1_2
ABR_51
LYPD5_5
CCDC117_6
CCDC107_6
NPR2_4
GNE_6
TNFRSF13C_1
ARHGAP35_2
PTGIR_5
DFFA_3
CCDC28B_4
IQCC_2
TMEM234_8
BSDC1_10
ZBTB8A_2
SSU72_2
FNDC5_3
ANKLE1_5
VMA21_2
CILP2_2
TFF1_1
TMPRSS3_4
UBASH3A_8
RSPH1_2
SLC37A1_4
PDE9A_13
WDR4_2
NDUFV3_2
PKNOX1_3
HSF2BP_2
RRP1B_1
PDXK_6
G6PD_7
AGPAT3_11
GAB3_4
AIRE_1
C21orf2_3
ITGB2_17
FAM207A_3
RALGDS_7
FTCD_5
SPATC1L_2
LSS_11
VAV2_3
MCM3AP_3
PCNT_2
DIP2A_5
PRMT2_11
ADAMTS13_8
CACFD1_5
SLC2A6_4
FCN2_2
C9orf116_4
GPSM1_6
C19orf47_7
HIPK4_1
CFAP157_3
TOR2A_7
ST6GALNAC6_8
SHKBP1_16
RDH13_13
ZER1_3
ZDHHC12_4
PKN3_1
SPTBN4_7
BRSK1_6
TAOK1_3
MED27_3
SIK3_6
MPZL3_4
JAML_9
TLCD1_4
PCSK7_6
SAFB_6
CD3G_3
S100A1_4
CHTOP_6
CXCR5_1
ZBTB7B_4
FLAD1_7
SHC1_10
NLRX1_8
ADAR_3
UBE2Q1_1
CHRNB2_4
CRTC2_4
ANO10_14
RUSC1_12
FAM189B_6
PAQR6_9
SLC25A44_2
LMNA_11
NBEAL2_5
CCDC12_4
PTH1R_7
UBQLN4_1
MYL3_3
PPP1R35_1
LRRC71_1
AZGP1_3
FGFR4_10
NACC1_3
HK3_4
CPSF4_8
TONSL_2
LRRC14_5
ZNF333_5
FOXH1_1
ORAI2_9
ALKBH4_2
CCDC105_1
SH2B2_3
MRNIP_17
SQSTM1_9
MGAT4B_11
RPL8_8
MAML1_1
PGLYRP2_4
LRWD1_7
FBXL13_8
NAPEPLD_8
PSMC2_5
CELF5_4
MFSD12_11
CCDC116_3
DVL3_4
ABCF3_3
FBXO27_5
BDH1_10
THAP8_3
ZNF382_7
LRRC56_2
PLXDC1_8
IKZF3_17
GRIN2C_2
FDXR_16
SAP30BP_13
ACOX1_9
PRPSAP1_6
CYGB_4
ZNF577_10
TMEM143_7
KLHL10_3
CCDC155_7
HCRT_1
ALDH16A1_5
DCD_3
ITGA5_4
ZNF385A_13
MPP3_4
CD300LG_6
IZUMO2_4
NAGS_2
LSM12_3
ASB16_3
EMC10_7
JOSD2_4
SHANK1_5
DBF4B_3
FMNL3_4
LARP4_19
GRASP_3
RAVER1_6
KRT82_1
SYCE2_2
IP6K3_3
LEMD2_8
TREML1_3
CXCL16_3
SCIMP_4
BCL6B_4
FGF11_5
EIF4A1_20
CCDC42_3
POLR3K_1
PRR35_1
SPSB3_3
CCNF_3
NTN3_1
BICDL2_3
PAQR4_5
CLPB_11
NEU3_7
CYB561A3_14
PPP1R32_6
UBXN1_6
NXF1_9
STX5_8
SLC25A45_11
ITIH3_3
SYVN1_8
ZFPL1_10
TPCN2_6
FGF19_1
PDZK1IP1_2
BEND5_1
ELAVL4_7
SLC1A7_5
FAM151A_2
PARS2_1
LEXM_2
BSND_1
PLPP3_1
NOL9_1
PRKAA2_2
KLHL21_6
ZSWIM5_1
GMEB1_3
SLC45A1_2
JAK1_1
RAVER2_3
LZIC_4
RBP7_2
TMEM82_1
DRAXIN_1
PDPN_12
LRRC38_1
DHRS3_3
MATN1_1
LAPTM5_1
SDC3_2
SYNC_4
KIAA1522_4
TSSK3_2
TMCO4_2
ALPL_5
WNT4_3
TTLL10_4
SCNN1D_7
CCDC27_2
IL23R_5
C1orf87_2
MYSM1_2
USP1_4
FUBP1_4
NEXN_5
DNAJB4_2
ADGRL4_3
TYW3_4
LHX8_2
SNX7_4
NTNG1_7
FAM102B_2
HENMT1_4
C1orf52_2
WDR63_6
ATXN7L2_2
ZNF326_4
BRINP3_3
GFI1_3
VCAM1_4
EXTL2_5
SLC30A7_3
ARPC5_3
CADM3_3
NLRP3_6
ZNF496_2
TRIM58_1
IGSF8_4
DDR2_6
PEA15_3
NCSTN_8
SLAMF6_3
OLFML2B_5
FCRLB_5
KLHDC9_2
LRRC52_1
FLVCR1_2
ATF3_9
RBM15_5
DENND2D_2
AXDND1_7
TDRD5_4
SNED1_7
SPATA17_2
BROX_5
ACP6_7
WDR64_5
TFB2M_1
CNST_3
PPP1R21_7
KLHDC8A_9
PM20D1_1
PKDCC_2
B3GALNT2_3
MAPKAPK2_2
IL20_3
IL24_6
FCMR_7
PIGR_1
FCAMR_4
CAPN2_3
MRPL55_26
WDR26_4
REL_2
PUS10_5
PEX13_4
KIAA1841_6
TRIM17_8
RFTN2_3
DISC1_21
CAPN13_4
DPY30_2
TYW5_3
KCNF1_1
PQLC3_6
KCNJ3_2
NEUROD1_1
FRZB_1
DUSP19_2
CFAP36_5
NUP35_7
ZSWIM2_2
FBXO41_3
WDCP_3
COQ8A_3
SGCB_3
SPATA18_6
NOSTRIN_9
SGPP2_1
SMARCAD1_6
HPGDS_1
PDLIM5_17
PDHA2_1
ANKRD23_3
CTSS_5
MSX1_1
PACRGL_30
BNIPL_5
C1QTNF7_5
TNFAIP8L2_1
LYSMD1_2
SCNM1_3
RNF149_2
IWS1_4
BOLA3_2
SMCP_1
DHX57_5
BMP10_1
PGLYRP4_2
ARHGAP25_10
S100A9_1
S100A12_1
TGFA_7
FZD5_1
DCAF16_1
NPPC_2
GNPDA2_6
GABRG1_1
GABRB1_3
PAQR3_7
NIPAL1_3
ALPI_2
ANTXR2_5
HELQ_3
CGGBP1_5
FAM175A_8
GPR155_4
DAPL1_4
PMVK_1
PBXIP1_4
CLDN1_1
PYGO2_2
HIPK1_11
DCST1_4
COL6A3_9
C1orf106_4
KBTBD8_4
FAM19A4_3
EOGT_8
LMOD3_3
NAXE_3
POGLUT1_5
SLC22A15_2
CCKAR_1
ATP1A1_6
SLC15A2_3
EIF4E3_8
LRRC58_1
ELF3_4
PDCL2_1
IGFBP7_2
TRIM46_8
KRTCAP2_1
CXCR1_1
ARPC2_6
TSACC_8
CCT3_11
TMEM79_4
SSR2_10
RNF25_2
STK36_8
ADORA1_6
CRYBA2_3
IHH_1
KIAA1524_6
EOMES_3
CWC22_2
AZI2_7
TGFBR2_2
HDAC11_16
FCRL4_1
TRAT1_2
CHCHD4_2
NFASC_15
SGO2_3
SERPINI1_5
NUAK2_1
SPTA1_2
PRKCI_1
MNDA_2
IFI16_11
AIM2_2
EFHB_4
EIF5A2_4
SLC2A2_4
RPL22L1_5
FABP1_2
ICA1L_19
CTLA4_4
ICOS_2
RYBP_1
PPP4R2_6
CD200R1_5
NEPRO_17
SPICE1_5
CCDC191_5
NKX6-1_2
CDS1_2
WDFY3_5
COX18_4
PTPN13_7
SYNPR_9
ALB_10
C3orf49_2
C4orf36_6
ATXN7_6
PSMD6_7
PRICKLE2_4
ADAMTS9_5
PPM1K_7
ERICH6_4
CLRN1_5
GMPS_2
TIPARP_7
CCNL1_9
PTX3_1
HESX1_3
DCLK3_2
SLMAP_14
RPL9_6
ABHD6_5
DNASE1L3_6
RBM47_13
APBB2_19
IL17RE_7
CRELD1_6
PRRT3_3
PCOLCE2_4
U2SURP_8
MTMR14_11
TTC14_9
PPBP_1
MTHFD2L_7
RCHY1_8
CCDC158_2
CPA3_1
GYG1_8
HPS3_3
TM4SF18_3
TOPBP1_3
RYK_5
SNRK_4
TCF23_1
DNAJC5G_5
UCN_1
ZNF513_3
SLC4A1AP_5
PLB1_8
KIAA1143_1
WDR43_4
ZDHHC3_8
CDCP1_2
SLC6A20_4
FYCO1_4
RTP3_1
LRRC2_2
ELP6_10
FBXO40_1
NMNAT3_8
TPRA1_10
YEATS2_2
GRIK3_2
ZC3H12A_3
MEAF6_5
SNIP1_2
DNALI1_1
KLF15_1
CFAP100_3
TMEM41A_3
RPN1_3
HEYL_1
IFT122_20
RHO_1
RFC4_10
PRKCD_5
RFT1_3
SFMBT1_4
GNL3_5
PBRM1_18
UVSSA_6
FAM208A_4
ARHGEF3_12
SLBP_6
ZDHHC19_3
SLC51A_5
RNF168_2
PIGX_10
MELTF_3
S100P_1
ABLIM2_10
ZNF691_8
AIMP1_4
SGMS2_6
METAP1_8
DNAJB14_7
SLC9B1_9
SLC9B2_7
BDH2_5
CDC25A_4
FBXW12_4
PLXNB1_4
CCDC51_6
ATRIP_7
SHISA5_12
SPRY1_7
BSN_1
APEH_9
INTU_6
HSPA4L_4
MFSD8_3
MON1A_3
MST1R_8
RAD54L2_2
POC1A_3
PPM1M_5
ETNPPL_8
WDR82_3
PRSS12_1
NDST3_1
HMGB2_4
SAP30_1
SCRG1_2
HAND2_3
ANXA5_5
ADAD1_5
MAP9_7
GUCY1A3_11
FBXO8_5
CEP44_9
HPGD_11
ASB5_3
C4orf45_1
TMEM144_13
NPY1R_7
NPY5R_3
NAA15_3
IL15_6
FAM160A1_6
ARFIP1_5
ICE1_2
HHIP_2
ANAPC10_9
ABCE1_4
LSM6_4
PRMT9_2
ITGA2_6
SLC45A2_8
EDIL3_2
ELOVL7_7
ZNF474_3
LMBRD2_1
NIPBL_3
RNF180_3
ADGRV1_16
SLC25A46_5
STARD4_7
PGGT1B_2
F2RL2_2
CCDC112_4
CMBL_1
PRRC1_3
F2RL1_2
AGGF1_3
WDR41_17
SCGB3A2_2
SPINK1_2
HTR4_11
ESM1_3
CDC20B_5
ARSK_5
RHOBTB3_10
GPX8_3
SERINC5_4
PRIMPOL_8
ERAP1_6
ERAP2_8
CMYA5_1
EGFLAM_9
CFAP97_4
TMEM174_1
CARTPT_1
RICTOR_4
PAPD4_5
EBF1_4
ANKRA2_2
UBLCP1_1
FAM170A_7
UTP15_6
TLR3_3
NSA2_3
GFM2_6
TERT_4
CCDC127_2
ACSL6_15
IL3_1
CSF2_1
SEPT8_12
SHROOM1_5
GDF9_5
LEAP2_1
FABP7_2
TLX3_1
TXLNB_2
FAM26D_5
T_4
CREBRF_4
DCBLD1_3
SFXN1_6
SAMD3_11
TMEM200A_4
IL22RA2_3
STXBP5_6
IL31RA_8
PI16_2
TBX20_1
KIAA0895_9
STK17A_1
TRA2A_5
GALNT10_4
SAP30L_3
MYOZ3_5
BMT2_2
GPR85_6
SLU7_4
RP9_2
BMPER_4
RELL2_4
KCNK5_1
KIF6_6
SLC29A4_5
TEX47_1
CDCA7L_7
MIOS_6
KIAA1324L_8
USP49_5
SYTL3_4
IQUB_4
HEY1_4
ZNF704_2
TAGAP_3
FNDC1_2
CHMP4C_1
SLC13A4_3
PGAM2_1
BRI3_3
LMTK2_1
CTSB_25
SOX17_1
DLC1_9
ADCY1_3
C7orf57_5
HNF4G_2
PEX2_5
SLC30A8_7
MED30_2
SBSPON_1
EN2_1
KCNV1_2
CSMD3_4
SPIDR_15
ORC5_5
OSGIN2_3
DEFB1_1
SUN1_18
OXR1_12
TMEM74_1
NOS3_5
CA3_2
SLC4A2_9
SLC7A13_2
GBX1_1
FOXK1_2
OSR2_7
BAALC_5
FZD6_7
CTHRC1_4
SLC25A32_4
DCSTAMP_3
TP53INP1_2
INTS8_11
KIAA1429_5
FREM1_5
GEM_3
PDP1_9
TMEM67_12
FAM219A_9
SNAPC3_6
KIAA1161_2
PSIP1_6
UBAP1_5
SYK_4
ABCA1_3
NFIL3_1
LETM2_11
ZMAT4_6
NKX6-3_2
TMEM71_8
MAMDC2_2
PRSS37_4
CPA6_3
C8orf34_6
TMC1_2
ALDH1A1_4
KDM1B_3
RASEF_2
GKAP1_4
C9orf64_3
SSMEM1_1
ANKS6_3
FBP1_3
TMEM246_3
ZHX1_4
CYBB_1
MID1IP1_4
C9orf84_5
KIAA1958_3
PTCHD1_2
ASB11_4
PCDH19_5
PIGA_12
VEGFD_1
STRBP_8
CLDN3_1
ATP7A_2
ZNF367_1
HDX_4
NOL6_4
AQP3_1
TRMT10B_8
VCP_3
PIGO_3
STOML2_4
BRWD3_1
SLITRK5_1
MELK_11
ARMC3_5
ARHGAP12_6
DEUP1_10
HECTD2_5
SLC7A3_2
FBXO33_3
INTS6L_2
GPR101_1
LRFN5_3
WRN_1
MARCH8_4
TSHR_7
CFL2_6
GTF2A1_3
ZCCHC24_2
PGM2L1_1
PHYHIPL_3
SLC16A9_2
INPPL1_10
PHOX2A_2
CRYL1_3
REEP3_2
HEPACAM_1
SKA3_5
MICU2_2
DDIAS_10
PCF11_5
PKNOX2_5
RPL10L_1
LRR1_4
DNAAF2_2
C10orf10_2
ZNF22_1
KLHDC2_5
RPUSD4_3
ARF6_1
TTC8_15
TMEM63C_6
NGB_1
CDX2_1
AKR1E2_9
OTX2_7
FAAH2_1
DRGX_2
DACT1_5
OXGR1_4
UCMA_2
BEND7_3
PRPF18_3
TAF3_1
VSTM4_2
SOHLH1_2
SLC18A2_1
PDZD8_1
ZNF503_1
FAM175B_1
QSOX2_2
FAM204A_4
NSD1_13
ENOX2_6
CLEC1B_4
SNAPC4_2
TMEM52B_3
PMPCA_3
FRMD7_3
AK8_1
SPACA9_3
TSC1_4
GFI1B_5
HPRT1_1
BORCS5_3
FAM69B_2
ZMYND19_1
STOX1_4
RET_6
DDX21_2
STK32C_5
KIAA1462_1
FUNDC2_2
METTL17_11
SLC39A2_2
NDRG2_61
ARHGEF40_4
NSMF_8
ZNF219_10
C12orf50_3
CASP7_10
CCDC186_4
METTL3_6
TRUB1_1
ZFYVE1_5
C10orf82_2
HSPA12A_4
UBTD1_1
ANKRD2_4
E2F7_6
PACSIN3_11
SLC39A13_9
PSMC3_10
RAPSN_4
TC2N_5
CPSF2_4
SERPINA12_2
CLMN_5
PDZRN4_3
SLC6A5_2
CCDC38_5
NELL1_4
PTER_4
CACNB2_13
ARL5B_1
SMCO4_6
CEP295_6
KCNC2_7
TAF1D_10
ABTB2_1
R3HCC1L_6
AMOTL1_3
HTRA1_2
LIPC_4
CEP57_13
TCP11L2_9
PASD1_1
SPRED1_2
TMCO5A_7
GPR176_3
JAM3_4
IL25_2
CMTM5_6
ADAMTS15_1
SVOP_3
SPATA19_2
GPT2_3
RAB8B_5
IKBIP_3
RPUSD2_3
HIF1AN_3
FBN1_4
AVPR1A_2
C16orf78_1
LRTM2_5
BRD7_4
TRMT61A_2
BTRC_4
POLL_13
BAG5_4
DPCD_4
LARP6_4
API5_7
SENP8_5
NOLC1_8
ALKBH3_7
GABRB3_13
SGPL1_3
FRS2_11
CCT2_4
PCBD1_1
C16orf71_4
CLMP_1
SCN3B_5
ZNF202_6
STXBP4_5
CYYR1_2
CUL5_4
PLEKHF1_4
ANAPC16_3
SMPD1_7
APBB1_17
SYNPO2L_3
C11orf65_7
TRIM44_1
ILK_11
TAF10_2
TPP1_5
NETO1_5
MSS51_3
CYB5A_4
USP54_8
C11orf74_10
ATP9B_14
PPFIBP2_14
CYB5R2_7
SERPINB7_7
KIAA0355_3
SERPINB8_9
TUB_3
RIC3_8
LMO1_3
IDH3A_18
WDR72_6
CRABP1_2
XRRA1_9
RNF169_2
CDYL2_4
PRTG_4
CENPN_8
AKIP1_11
C16orf46_3
TMEM41B_6
LEO1_2
TMX3_8
WEE1_6
PRKCB_6
AC024270.1_4
MCM7_6
CLEC3A_2
CCDC68_4
CLEC4E_5
RIMKLB_8
A2ML1_6
BEAN1_8
TK2_16
TMED3_4
SLC38A8_3
SEC11C_4
CPLX4_2
GALR1_1
TMEM135_5
IQCD_3
NDEL1_12
CDH16_9
RRAD_4
CFAP52_8
HSP90B1_6
MC4R_1
BLCAP_10
ATF7IP2_11
TVP23A_8
COG1_7
PLEKHA7_9
B2M_7
ZNF592_3
CASC4_7
HTR3A_6
NNMT_2
SLFN5_3
C16orf45_8
MARF1_14
YPEL4_5
PPIB_1
PCLAF_4
LDHD_3
PEX11A_4
TMEM170A_7
ANPEP_5
RBPMS2_2
ANKDD1A_7
GLYATL1_11
C18orf54_5
DCTN5_7
PLK1_4
CLPX_3
CACNG2_1
TAC3_10
CHP2_1
NEMP1_3
NAB2_2
VPS39_3
STAT6_20
ATP23_2
MRPL16_2
MTMR10_9
YWHAB_6
GREM1_5
NYAP1_2
MS4A14_11
MS4A5_5
DIS3L_8
EPB42_7
MS4A8_4
CCDC178_11
MS4A15_4
MAP1A_2
RCCD1_4
AKTIP_9
MAPRE2_10
EVA1C_7
MARS_17
MBD6_12
CNPY4_3
PDIA3_4
NUDT21_3
NAT16_4
TERB2_3
NKX3-1_2
SGSM1_3
DUSP18_9
TEF_3
B4GALNT2_3
PBX3_8
GNGT2_6
SNRPD1_3
TTC16_1
SUN5_4
SAMD14_4
PIP5KL1_2
BPIFB6_2
TMEM92_2
FAM102A_2
ACSF2_9
GOLGA2_8
TRUB2_1
SLC27A4_2
URM1_5
DOLPP1_4
ENDOG_1
PRRX2_1
SP2_5
PRR15L_1
GPRC5B_9
CRK_3
C16orf92_4
FBXO22_8
TBC1D2B_4
NOD2_8
SNX20_5
LOXHD1_11
KATNAL2_7
HDHD2_10
RNF214_5
CDK12_4
DPEP2_7
DUS2_14
POP5_2
ENGASE_4
RBFOX3_8
CD3D_4
TBC1D16_9
TEPSIN_6
MYO5B_3
ART5_5
ACAA2_6
STIM1_13
RRM1_6
FN3K_1
PRRT2_15
IRGQ_3
ZNF226_18
ZNF180_8
SMG8_5
RAB8A_2
JSRP1_1
KLHL26_5
GATAD2A_11
ANKRD11_8
SPATA33_9
SGK494_5
PROCA1_5
ZNF641_9
LALBA_2
CACNB3_13
DHRS13_3
TP53I13_8
KMT2D_3
CORO6_7
RHEBL1_4
AQP2_3
GPD1_3
PROSER3_11
NFKBID_4
TMC4_10
ANKRD33_3
TTYH1_12
LENG8_8
TMEM145_3
ZNF283_7
SPINT2_8
C19orf33_2
YIF1B_11
LY6D_1
DAPK3_6
UBXN6_5
PLIN4_2
ZNF444_8
FAM57A_6
GLOD4_14
MFSD3_1
GPT_2
KIFC2_1
SLC43A2_6
SERPINF2_10
WDR81_10
TSR1_4
HSD11B1L_19
KRT80_2
ACER1_1
ANGPTL4_8
CD320_4
SPRYD3_4
IGFBP6_3
SOAT2_3
ZNF558_2
CABP2_4
NDUFV1_14
CDK2AP2_3
TEKT1_4
HID1_5
TMEM88_2
SRP68_6
MGAT5B_5
TMC8_4
TK1_5
TMEM68_17
KRT24_1
GHDC_8
RAB26_4
MLST8_18
E4F1_5
DNASE1L2_6
CASKIN1_1
ABCA3_3
SRRM2_11
NLRC3_4
SDHAF2_8
DDB1_7
VPS37C_2
RAB3IL1_4
BEST1_5
POLR2G_6
SLC3A2_13
HRASLS5_6
C11orf84_3
ATG16L2_12
C2CD3_7
TRANK1_2
TTC21A_5
ENTPD3_4
CTNNB1_10
ULK4_5
FADD_1
LTBP3_13
NAALADL1_14
SAC3D1_3
BATF2_4
MAP4K2_7
MAJIN_5
CCDC88B_3
SCARA3_2
PBK_4
SCARA5_4
PNOC_3
COPS6_4
PAFAH1B2_5
ANKS3_21
SETD5_12
FAM83B_1
THAP9_6
HOOK3_4
DDIT4_1
LMBRD1_3
ZCCHC4_4
PTGDR_2
TTC39C_6
GLYCTK_7
GNG4_5
UBTD2_1
NKIRAS2_12
DNAJC7_16
KCNV2_1
IRF2BP2_2
NT5DC2_7
FOXI1_2
COA6_4
KIF5C_2
MMADHC_3
PDHB_5
PXK_14
KCTD6_5
ACOX2_6
FAM107A_6
IRF2_7
CX3CR1_6
INSM2_1
DEGS2_2
SCN11A_3
SEPT2_25
MFSD2A_4
DTYMK_5
TAP1_8
ING5_4
ATG4B_13
BDKRB2_3
RFWD3_6
MTNR1A_1
KCNG4_2
RHOH_14
CDC40_3
STIP1_6
SCNN1B_6
TXNDC2_5
RAB31_4
REEP4_4
CCDC110_9
POLR3D_4
FEN1_3
CAVIN2_1
MTCL1_7
GBX2_2
HFE2_7
SERINC2_4
MYL1_2
CHRM1_3
COL3A1_3
GFRA2_7
ING2_2
CDKN2AIP_3
SNRNP48_2
TMEM223_3
SLC20A2_8
CRYGA_1
DYNLRB2_5
TMUB2_15
ADAM29_9
STAT3_6
ADAM9_6
AXIN2_8
LDLRAD4_9
KCTD19_5
SLC16A4_9
IL7R_7
TMEM208_5
WFDC12_1
AHCYL1_3
DNAJC21_2
NPNT_11
CA7_3
FAM178B_2
CNNM3_2
TET2_7
TCTN2_3
SHOX2_5
PPIP5K1_15
TSPAN5_7
ABHD15_1
ADAL_7
SNTB2_5
IL12A_3
ZNF507_3
AC110814.1_9
ZBTB49_6
GFM1_6
FSTL5_3
ATOH8_1
ANKRD49_9
USP39_10
TNIP2_3
RNF181_5
VAMP5_1
LRRC28_11
PLA2G4F_6
ZNF608_6
INPP5D_5
LETM1_1
PPIC_1
CEP120_8
STXBP6_7
TM4SF20_2
MFF_19
PXDC1_2
NTSR2_1
E2F6_9
FEM1B_4
COMMD8_1
MFSD7_7
MAP2K1_2
MECP2_11
ZBBX_10
C8orf46_6
HSPBAP1_1
PARM1_2
FAM110B_1
ARMC4_3
AFAP1L2_3
ZNF354A_4
UBE2V2_7
ZBTB43_4
CPT1C_14
PCSK9_1
XPO6_11
GSG1L_5
NSMCE1_8
CCDC126_4
IL13_2
OR10G3_1
RAB3B_1
OR6F1_1
CD2BP2_2
RSPO1_4
RGS14_2
TBC1D10B_2
GCSAML_10
RAB24_4
THBS3_5
CA5B_5
SLC50A1_5
EFNA1_2
CXCL10_1
SH3TC2_9
CXCL11_2
NMD3_8
GPRIN1_1
HSPB3_1
SHE_3
NR0B1_2
PGM2_6
STK32A_3
IL1RAPL1_2
P2RY12_1
C22orf15_7
KIAA1024_2
UMOD_12
SLC33A1_5
SIN3A_11
ARL13B_6
PTK2_41
PTAFR_3
PTPN9_3
RNASE6_1
KCNK9_3
SCN9A_5
RASSF6_4
SDC2_6
TM2D2_6
PLEKHA2_5
CLIC4_2
SLC38A11_5
METTL15_11
ZNF280A_1
CT55_2
ZEB2_34
GJB1_4
DTWD2_4
CLIC3_1
INO80E_9
NFU1_9
ANTXR1_4
CKAP2L_2
C15orf40_9
APLF_4
HEXDC_12
DRD5_1
BUB1_6
SPNS1_10
LRRC45_3
CHRNA5_4
AGPAT2_3
CNBP_8
GPS1_22
ZNF32_2
LDB2_8
RAC3_3
NRG4_12
TMEM266_3
NLGN1_6
TAPT1_4
UGP2_25
TAS2R1_3
BTD_7
CSGALNACT2_1
TACR3_1
GSX1_1
PCDH7_5
ONECUT1_3
AVEN_2
CTNND2_9
AHSP_2
WNT10B_5
CALML6_2
REPS2_2
SYAP1_1
TPST1_3
TM4SF4_2
TOR1AIP2_4
TM4SF1_4
OTUD3_1
OTUD7A_3
FRMPD4_3
ZFPM2_4
ZNF768_2
TAS1R3_1
TMEM42_1
MAP3K2_3
PUSL1_2
SF3B5_1
ZNF35_6
TIGD4_1
NLGN2_3
CHD3_9
MYRIP_7
ALCAM_4
YWHAG_1
CNTROB_10
TRAPPC1_6
ZPLD1_3
KCNAB3_3
SERPINA9_7
GPR37L1_1
SERPINA6_6
NIPA1_5
UBE2E1_6
SIK2_1
VGLL2_2
CHRNB1_6
USP38_3
ADRA1B_1
ADPRM_3
FABP6_3
PWWP2A_6
USP47_3
MRAP_3
FAM161A_5
GLB1_9
FAXDC2_10
CRTAP_2
CMTM8_2
STX8_5
CDK1_6
NFRKB_10
FABP4_2
PRDM10_9
B3GNT2_2
FOS_9
TMED10_2
EMX2_3
TCAF2_6
SEMA3E_4
LRRN2_3
SLC30A1_1
DCLK2_6
GPRC5C_8
TMEM182_6
VSTM2A_4
KRT78_3
ADORA2B_1
SDR9C7_1
METTL7B_2
NFXL1_4
DENND5B_5
CD14_5
DNAJC18_9
RALGAPB_5
SLC23A1_4
NPAS2_6
KISS1_2
LONRF2_2
NUDT9_5
HSD17B13_2
ELOVL6_5
PFKFB3_18
TMC7_3
SMAGP_8
CDH2_5
IRX2_2
SIX2_1
DLGAP1_12
NUDCD2_2
OR9K2_1
HSPA4_3
FOXA3_2
FAM71B_1
SLC26A5_14
SGCD_4
GTSF1_3
ZNF16_5
ARMC10_10
RNF34_8
ACYP2_8
TRABD_4
ZNF296_2
TTLL6_6
KCNS3_3
KIF5B_1
GPR37_1
AKAP13_14
CDCA4_2
SDR16C5_3
DYDC1_5
HTRA3_2
FOXN2_3
LMOD2_2
BFSP2_1
FSHR_4
CEL_1
PPM1D_4
KBTBD2_6
RIOX2_7
KIAA0232_3
MTSS1_9
TMEM43_2
RNF139_2
PLA2G1B_3
CYTL1_3
TSEN34_18
TRH_2
GSTA4_4
MSANTD4_5
PAQR8_3
NUDT6_6
TEX13B_1
PKHD1_2
DNAJC24_6
MBD3L1_2
CAVIN3_2
PDGFD_3
PLAC1_1
S1PR1_1
PYGO1_2
PKIA_3
PATE1_2
C8orf74_4
ALK_4
KYAT1_6
TRMT61B_3
MFN1_6
GIMAP8_1
NRTN_1
KCNMB3_7
KCNG3_2
PRKCE_3
JAGN1_1
TADA3_4
SOCS5_2
C1GALT1C1_2
MORN4_3
ZNF672_4
ZNF692_14
NAIF1_1
RBKS_5
GRIK1_7
MUC7_4
OPRPN_1
TMEM126A_5
TMEM126B_11
TRIM8_2
NETO2_5
CSN3_1
CDC42BPG_1
C10orf35_2
LRG1_1
SHCBP1_2
SOSTDC1_2
NPTX1_1
FAM98B_3
GAA_5
CANT1_12
CHST11_5
EXOSC1_6
CHD7_6
ESCO2_6
LURAP1_1
CLCN5_5
KCND3_3
KRT9_2
PDE7B_3
MCC_5
ZBTB26_2
POLR1C_5
ASXL1_8
DLK2_4
ZNF318_3
WIPF2_7
HOPX_12
LRRC8C_2
LRRC8D_7
MROH2B_2
ETFDH_4
RXFP1_9
LPAR3_2
PTGER4_1
NEUROD2_1
MAP6_3
OTP_1
ECEL1_3
BCL2L1_9
FGG_6
OR2AT4_1
FGB_3
PLRG1_7
DNAI2_5
CLSTN1_3
CXXC5_14
PIK3CD_5
PTCRA_4
SLC25A33_1
ENC1_6
P2RY6_12
GPR82_1
PLEKHG5_11
ATF7IP_20
RGS19_2
TCEA2_7
ANO5_1
GPHN_11
VAT1L_1
TMEM51_6
CAMTA1_10
LRRC34_4
PAH_6
SPATA5L1_5
GATM_7
SYCE1_4
NXNL1_1
RASGRP4_14
NHLH1_1
BCL2_3
RHNO1_7
CTPS1_2
KNDC1_2
METTL18_3
COL8A2_3
ANGPTL7_1
FBXL14_1
EXOSC10_3
NINJ2_4
MLLT3_4
TRAPPC12_11
IFNB1_1
C3AR1_2
MRM3_3
PTEN_2
PRNP_4
KLF17_2
FRMD5_10
AQP4_6
TLN2_4
ZNF217_4
SCG2_3
ATPAF2_6
FOXB1_1
DRC3_12
C20orf196_4
JMJD1C_4
LDHAL6B_1
SYNPO_4
MAL_4
RAB33B_1
THOP1_8
GAP43_2
REG1B_2
EPHX4_1
LAMB2_3
USP19_9
QARS_27
ORMDL3_6
EIF2AK3_3
MOB3A_8
NME6_14
CD8B_6
CALB2_4
SLC9C1_4
CCL11_1
SNTB1_3
MTBP_3
TEFM_3
MALT1_3
PRL_3
MBOAT1_1
GPR22_1
AZU1_4
ATOH1_1
PAIP1_10
CLEC7A_11
C5orf34_3
C1QTNF4_2
ZNF131_13
DPAGT1_10
BSG_10
HINFP_4
CERS6_2
SPTLC3_4
COPRS_5
B3GALT1_1
POP7_2
ALG14_1
STARD5_3
IL16_9
ABCG4_4
GNB2_10
CFAP53_1
C2CD2L_2
ARNT2_5
GNG12_1
MYOZ2_1
SYNPO2_6
INSL5_1
EFCAB3_4
TTC36_3
GTPBP2_7
FUT9_1
ZNF24_6
C2orf54_5
AGXT_1
AFF1_8
ACOT12_2
FIBP_6
CARNS1_3
PPP1CA_6
CTSW_3
NIPAL4_3
SNTG2_5
FNDC9_2
PDE3A_1
RASGRP1_13
KLHL6_2
SMPDL3A_2
RND1_3
EFEMP2_12
ZMAT3_3
ZFAND4_5
THEMIS_6
MOS_1
FAM71D_9
CCL19_2
CORO1B_6
FUT10_3
LRRC20_7
MUS81_8
PURG_3
TMCC1_6
EFCAB12_3
RAB37_10
SNX32_1
CYP7B1_1
OVOL1_2
RARG_7
SSH3_7
PDP2_6
SP3_4
DMXL1_3
METAP1D_1
EGFL7_5
NADSYN1_9
DHCR7_11
MYD88_6
MRGPRD_1
OXSR1_3
SLC22A13_2
LCLAT1_11
KAT5_11
SH3RF3_1
GXYLT2_3
HPSE2_6
DCAKD_6
ARPP21_26
TADA2B_5
GRK2_2
RELA_19
EVC2_4
ZNF680_2
FAM222B_15
BNC2_14
DEC1_2
RXFP4_1
HPSE_7
COQ2_4
CCDC63_3
KDM2A_4
ADCK5_4
NOC3L_1
RHOD_2
ADAMTS20_4
COMMD1_6
RAPH1_12
ADCY5_6
PARP14_3
CYSLTR1_2
ABCD2_1
AHSA2_4
ABLIM3_8
MAB21L3_1
VANGL1_4
GLRX_5
IQCB1_6
SYT12_4
GOLGB1_8
LIPM_2
GPR151_1
DMRT2_7
ZNF483_4
PLAC8L1_2
GPR137_17
SNCG_2
MMRN2_5
TNKS_6
ZNF449_2
ZBTB21_7
PPP1R3B_2
STOX2_4
MAP3K11_6
TRIB1_3
CST9_1
NDNF_3
IQCF1_2
OLR1_10
GLIPR1L1_4
DAB1_7
ARV1_6
NAA20_3
CCDC36_4
EHBP1L1_4
THAP2_4
TMEM196_5
RNF26_1
SSSCA1_6
AGR3_3
SMARCC1_2
PTPRM_8
FKBP2_4
VEGFB_3
MST1_2
GMPPB_3
ZNF622_1
SNX33_2
C2orf70_3
NABP1_7
XCR1_2
CCDC106_8
CCR9_4
CEP83_7
SULT1B1_3
NUDT4_7
PC_6
SCAI_5
NMNAT1_4
LRFN4_2
TRAPPC3L_3
APOBEC4_1
HSPB7_6
RCE1_4
TAS1R1_4
CXorf23_4
PSMD1_8
ADGRG2_10
SPATA3_9
MUC13_2
WFIKKN2_2
C11orf80_13
C1orf100_2
AGFG1_7
CD7_6
TOPAZ1_1
CNP_7
JUP_10
EIF1_3
ENDOV_22
RNF213_4
KCNH6_6
MARCH10_7
PLK3_1
NET1_3
PHOSPHO1_7
ZNF791_5
PHC3_12
GPR160_5
CBX2_2
SPTBN2_6
GOLIM4_2
RBM4B_6
C1QTNF1_10
MARCH3_2
SWSAP1_1
SLCO4C1_1
PIFO_2
UBXN2A_2
RAX2_2
LRRC63_3
TCAP_2
CCS_4
NRROS_1
KLHL15_1
SPERT_4
FAM46D_2
SLC25A30_7
CD34_3
CTSF_4
MSRB3_10
LEMD3_1
C16orf91_1
TLR1_6
FAM174A_1
RGMB_2
FAM53A_6
CYB561D1_9
TRMT10C_2
SELP_6
C12orf66_3
ARL13A_4
SNX31_6
PIGG_10
PRPF8_5
ADCY6_4
PITPNA_10
DDX23_6
EVX2_1
TNK1_5
ZHX3_14
SLC16A11_3
SLC16A13_1
GLIS1_2
CHRNA9_1
PODN_4
SLC6A19_2
EXO1_9
RALGAPA1_7
LIG4_5
TRHR_2
ABRA_1
ATP2A2_6
ZWILCH_8
VWC2L_2
C12orf76_8
GALNTL6_4
LINGO2_3
IGDCC3_3
SLC26A9_3
MFSD4A_7
PELI3_8
TMEM81_1
MRPL11_5
IL20RB_4
GOLT1A_1
NPAS4_3
MSL2_5
ANGEL2_3
UGT8_3
KY_3
SLC29A2_7
LEP_1
SH3PXD2B_4
KIAA1551_3
NR1D2_2
PABPC5_2
BRMS1_5
C4orf32_1
WDR49_7
PCP2_2
RIN1_5
THAP6_11
CEP135_2
FZD4_1
BTC_2
ADGRE1_6
DENND6A_3
PDE12_2
GLMN_4
YIF1A_7
CNIH2_4
RAB1B_2
C3orf33_5
SEZ6L2_7
ASPHD1_5
KCTD13_6
AMZ1_2
GPR149_1
CD164L2_2
DHX36_6
ZIC4_9
FBXW8_2
ZG16_1
SLC22A1_6
TEX36_3
ZDHHC14_4
ATR_6
DSG4_2
GK5_6
VCPIP1_1
RTP1_1
DES_1
PDIK1L_4
SPSB4_2
RAG2_5
PACS1_10
WFDC5_2
SH3BP5L_1
CADM2_3
PSMD2_7
CSRP2_4
DDIT3_5
PCCA_13
DCTN2_10
ZNF408_1
CTDSP2_6
CKAP5_7
ARHGAP1_3
MED16_24
ATG13_19
GAL3ST3_2
C1orf127_4
CHST1_1
TP53I11_18
DOLK_1
CATSPER1_1
ANKS4B_1
GRAMD2_5
LSM1_3
TMEM9B_5
NRIP3_5
SCUBE2_7
EIF1AD_10
SMAD2_10
ARL10_3
PCSK1_3
RFESD_5
TBC1D10C_4
SART1_2
PPP2R2D_4
MCTP1_13
DPP10_8
CLCF1_2
PNLIP_1
LIPT2_3
KCNE3_6
CABP4_3
DRAP1_5
LONRF3_5
UCP3_3
UCP2_5
C11orf68_3
PAAF1_13
MRPL48_13
P2RY2_3
FOSL1_5
ERCC4_4
SUGCT_6
TMEM70_3
RPS6KB2_6
RMI2_3
TOM1L2_10
TEX26_2
ZNF77_1
GPR156_4
NR2F1_2
TTLL11_5
EIF4E1B_4
SLC35E3_2
PRIMA1_4
RUVBL1_5
SFN_1
MSRA_8
ETV4_8
GAPT_4
BAIAP2_20
CALCB_3
CREG2_1
ZDHHC21_1
TSPEAR_4
PLEKHF2_2
A2M_4
DOK7_3
LRRN1_1
UBE2O_3
ORAI3_4
KLHL38_1
DENND2C_3
PLEKHD1_1
TUBB6_12
LYSMD3_4
TMPRSS7_5
NUPR1_3
JAKMIP2_4
MBLAC2_2
TPRN_2
KCNE5_1
ZNF683_9
CRYBG2_6
IP6K1_5
SSNA1_2
YES1_3
CHMP6_4
UFSP1_1
TMEM39A_8
TCP11L1_9
CCDC57_9
FOXG1_1
MYPOP_1
SMIM19_7
RTTN_11
ANAPC2_1
SLC35G1_6
ZNF135_6
FOXR1_3
ZSCAN2_14
B3GNT4_3
CDC26_1
HSD11B2_2
RNPEP_6
DMRTA1_1
EID2B_1
SPRYD4_1
VPS37D_2
SYNE3_4
CLK2_6
LPCAT4_3
SLCO3A1_5
ZNF575_4
DIRAS1_3
OR5AN1_1
PRR15_2
USF3_3
CNTD1_5
B3GNT5_6
MAP3K19_9
LMNB2_1
RMDN1_14
MEX3C_3
HORMAD2_3
RNF152_2
MYO1D_5
FOXL1_2
BDNF_18
ACSF3_13
BOK_1
PFN4_2
OR51V1_1
TCERG1L_1
RUFY1_7
IRX5_4
WSB2_7
GRIN1_8
TYMS_3
TCEANC_3
C8orf4_1
MAMSTR_5
C8G_2
EFCAB5_8
THAP4_4
NFATC2IP_3
LY6H_4
FIBIN_1
FAM89B_3
SHMT1_7
DPP7_6
TRIM60_4
SEC24C_5
MTHFR_9
C19orf18_1
DEAF1_3
MTX3_4
SIX5_4
IFNW1_1
ZDHHC13_2
SLC38A9_17
ACER2_1
WDR73_4
FAM109B_2
SCN4B_2
ZDHHC22_3
ANO6_5
ZBTB34_2
TALDO1_4
RIMKLA_2
CLVS1_7
PUS1_9
CHD9_12
SPACA4_1
TRIM72_2
MAN1B1_8
KCNA3_1
GJD4_1
FBXO39_3
KCNA2_11
TOP3A_11
C10orf71_1
LRRN4CL_1
TIMM22_2
PPFIA3_6
MAGEF1_1
UMODL1_10
SAMD9L_8
UBE2U_5
PAWR_5
TGIF1_21
MIEF2_7
NIM1K_2
ERICH5_2
NR2C2_10
ACOT4_1
CAVIN1_1
ARIH2_8
ZBTB33_2
ZBED2_1
IRX3_2
ST8SIA3_2
RPRM_1
RABEP2_8
FAM187B_1
TBL1XR1_21
SAMD12_7
CD163_6
GSG2_1
ACAD9_9
PNPLA2_1
MBOAT4_1
CD163L1_6
CRACR2B_7
MAGEB10_2
DNAJC28_4
CD151_14
POLR2L_2
NECTIN3_8
TMEM94_16
FLII_14
HNRNPA0_1
MYOZ1_1
CHID1_19
ZNF620_4
TMEM187_3
GRB2_8
ZBTB41_1
ARL6IP6_3
ZNF354C_1
CAPZA3_1
MAMDC4_3
ODF3_3
RIC8A_11
ASB8_16
C2orf73_7
TSPYL6_1
DMAP1_8
FAM26E_1
IMPDH2_3
ALS2CL_4
MLF1_16
NDUFAF3_4
C2orf69_1
GRAMD1C_7
TSSK6_3
BOLA1_3
PDE4DIP_27
DDX10_2
PPP1R42_2
ZNF518B_2
AMER3_4
SPINK6_3
ZNF366_3
LCORL_6
SH2B1_14
ZC3H12D_3
KDELC2_4
SH2D4B_2
RNF212_7
PRSS36_4
GALNT11_11
SLITRK1_1
WDR6_14
GEN1_5
AQP11_1
TMEM11_1
ZNF354B_2
PLEKHM3_3
HTR1A_2
CCDC185_1
FAM220A_5
DNAJC22_2
NEUROG2_1
BEND3_2
GLDC_10
MCMDC2_6
TUBAL3_2
UCN3_1
DTX3_9
KLHL11_1
AMBN_3
SLC25A20_3
CA8_1
CD28_3
DEFB125_1
PSAPL1_1
ERN1_2
GPR35_5
CSRNP3_5
ZNF713_3
DYNAP_2
SUZ12_2
NSUN3_2
GRINA_7
ERFE_3
FAM219B_15
GDPD4_2
TMEM139_5
MSC_1
APOLD1_4
RFLNA_4
DPY19L3_7
TAF7_2
PFAS_9
HYI_9
GAK_12
ZBTB7A_2
ERICH3_3
CTC1_5
MRFAP1L1_1
SNX18_3
EXD1_3
AURKB_10
TAS1R2_1
C14orf39_5
EXOC3L1_5
ZFP42_3
CYC1_1
PER1_9
TMTC2_4
HES7_3
FARSA_7
SPTY2D1_1
C10orf67_4
SAMD4B_9
ALOXE3_3
EDC3_15
TCAIM_8
TMEM125_3
ZNF664_4
SIGLECL1_6
CALR_4
MAGED1_4
LDLRAD3_3
RAD23A_7
C2orf71_1
DAND5_2
NSUN7_2
RAB39A_1
CLK3_15
GATA2_5
ARID3B_3
TMEM31_1
ELMOD2_5
EGR3_3
DNAJB8_2
KLHL28_6
MKRN3_4
ZBTB18_2
C14orf28_2
SLC17A8_2
SHARPIN_3
SLITRK4_3
HTR1D_1
GCC1_1
LSMEM2_1
RNF151_3
CIITA_8
LACC1_3
MAF1_6
TPPP2_7
FCER1A_2
ARL14_1
WDR97_2
PCED1B_6
PIPOX_3
FOXS1_1
CDH5_8
LRRC3B_5
FAM216B_2
MYADM_9
NKPD1_2
GIPC3_1
NLRP11_6
PDXDC1_28
ITLN1_1
GPBAR1_4
ZNF648_1
BBS10_1
PUF60_12
SOCS4_3
ZADH2_4
ZNF48_5
NKX2-6_1
TMEM150B_6
WFDC11_3
TMEM86B_1
SEPT1_3
TRNAU1AP_1
EXOC3_5
C12orf40_3
TH_8
MED14_3
FAHD1_4
RCC1_10
WFDC9_1
MYLPF_4
F2_3
FAM71C_1
PRKRA_6
RRH_1
SLC9A4_1
FGD6_6
GPR139_2
PLD5_7
OAZ2_4
WFDC10A_1
PNPLA1_5
ALX1_1
CCDC43_4
KCTD4_1
MEIOC_6
CCDC129_8
HCLS1_5
ZNF609_2
PAK2_2
MCFD2_12
HARBI1_3
DEFB123_1
C11orf71_2
OR6K6_1
SERTM1_1
OR10Q1_1
MIGA1_3
NRIP1_5
RNF182_8
HIST1H2AC_3
SKIDA1_2
MB21D2_1
GSX2_3
PCGF5_3
SLC47A2_4
PRF1_3
MAB21L1_1
YOD1_2
TMEM64_5
C3orf22_2
SHISA2_1
CLRN3_1
SLC36A4_4
ZDHHC20_6
OR51E1_2
ZFP3_1
ARSJ_2
HOXC9_2
MAP3K15_2
HOXC10_2
PSMG4_9
CXCR2_7
C11orf42_1
SSR4_4
CAPS2_8
KCTD2_3
D2HGDH_9
OXTR_3
OR56A1_1
ZNF572_1
PITPNB_6
LRRC57_4
GPR137C_3
BBS12_3
ZFP82_2
NQO1_6
SLC26A11_11
MAPK15_3
EHMT1_26
ADIPOQ_2
F2R_2
DHTKD1_4
PENK_6
HIST3H2A_1
ZNF746_3
POLR2A_2
TMEM136_3
TMEM102_2
TMEM132E_2
NME9_9
SPEM1_1
LRRC75A_2
CFAP65_10
SYNE4_5
OGFOD3_7
AATK_5
DDN_1
ZNF467_2
SOX2_1
TMEM45A_3
RAP2B_1
ACBD4_9
SGSH_9
MAB21L2_1
FANCB_3
SETD2_6
TMIE_1
TNFSF15_2
ATG9B_3
PLAG1_3
YIPF6_3
ZBTB20_9
C3orf58_4
C5orf30_3
AMIGO1_2
GPR3_1
TMEM252_1
ODF3L2_2
ACTL9_2
SIAH2_2
COPG1_4
SLC9A9_3
RFX7_3
SLC35C1_4
TIGIT_5
RNF41_9
SLC2A4_5
FTMT_1
IBA57_1
CLDN7_7
ZNF329_5
C5orf24_6
PRKAG1_15
NEUROG1_1
CCDC149_4
RTKN2_3
CHST15_4
MGAT4C_7
IDH2_4
OR52A1_2
PTCHD3_4
WRB_9
KCNIP1_9
TDRKH_11
ENPP7_2
CREB3L2_7
UNC5C_5
TSEN54_6
UBA7_1
CRYGB_1
ARL6IP4_13
SHMT2_24
HHIPL1_2
ATP6AP2_23
CYB5D1_4
BACE2_3
SYNM_4
KCNA4_1
FIGN_2
TMIGD1_2
B4GALNT4_3
AP1S2_5
GLTPD2_1
KIAA2012_3
LIPF_4
ZNF804B_2
KBTBD3_5
YBEY_6
NXPH4_2
CACNB4_55
TRAPPC6B_5
NPLOC4_11
OTOL1_1
KCNK4_5
TSHZ2_5
EXOC7_14
XKRX_2
LHFPL1_1
FES_11
TBPL2_2
CAV3_2
MXRA7_7
LIMK2_5
MFSD5_3
ADI1_3
RWDD4_7
CLEC4G_2
SATB1_13
CSF1R_5
ACTL10_1
EPGN_9
KRTAP11-1_1
C2orf82_4
TSPAN10_3
PLCB1_21
SKA2_9
OR10G7_1
CCDC172_1
NTM_10
TTC3_11
PPP1R27_2
BRICD5_3
GALR2_1
IGIP_1
TSKU_5
RGS6_14
SLC35D3_1
PAPPA_1
GRID1_2
CCDC87_1
C1orf116_2
MAGEB17_2
DDX28_1
ACBD3_1
C16orf72_2
PLCXD3_2
VMO1_4
ALG12_3
GALNT9_6
RBM10_4
ADGRG3_4
RGS7_5
SLC25A18_2
C11orf54_14
CEP63_12
SRPRA_2
OTOP3_2
ODF3L1_1
CNOT10_7
CADM1_13
PYCR1_17
NAA38_6
MCEMP1_2
AP2A2_31
SLC8A1_12
SLC25A21_2
CYLC1_2
CAMK1D_3
LYSMD4_6
WBP2NL_6
NKX2-5_4
AFMID_10
GAS6_1
FREM3_1
BEGAIN_9
ARHGEF37_2
CSMD1_7
CEP57L1_22
GJD3_1
RABIF_1
SMDT1_2
CHST6_2
PRR36_2
PTTG1IP_4
DDX41_8
ABHD16B_1
CCDC60_3
DAZAP2_9
CCBE1_3
SELENOF_7
SPDYE4_3
REC114_2
BCOR_11
C10orf107_2
FHL3_1
PMCH_1
TMEM89_1
RIPK4_2
LRIT3_2
SF3A3_1
GRIN2A_7
URAD_1
ASB7_3
EP400_5
MEX3B_2
FAM46C_1
UTP11_1
PSMG1_4
PRR14L_5
ACSM5_4
C10orf120_2
PCBP3_8
PGPEP1L_3
SETD3_7
ZNRF3_3
FBXL7_3
TANGO2_16
GKN2_2
FAM167B_1
ZNF438_9
HMCES_8
PRR32_1
RP1L1_1
KRTAP8-1_1
C11orf88_4
NDUFB1_5
MARCH11_2
KLHL25_1
FAM19A1_3
TRMT12_2
GPR1_10
ALYREF_1
RFLNB_1
UPP1_10
OPCML_5
LHFP_1
TMEM50A_1
NPBWR1_1
ASCL2_1
TBK1_4
MACC1_3
TBL3_4
ACP7_4
KREMEN1_4
TRAIP_5
CHEK2_22
AIFM3_8
B3GALT5_5
SLC35F3_2
TUBA8_5
OLFML1_4
FAM162B_1
CCR4_1
LIN9_5
NUDT14_2
ANKRD45_1
MAATS1_6
GPR39_2
FAM3B_4
KIRREL_4
IQGAP3_2
CNGA2_1
ARSI_3
C1orf64_1
TTC32_3
LRRC55_1
SH2D1A_3
SDR42E2_1
SMTN_16
PP2D1_2
PTP4A2_10
TMPRSS2_6
DENND5A_10
VPS33B_3
ADAP2_8
TRIML1_1
NIPSNAP1_4
CNTN2_12
SPRR4_1
KCNQ3_7
NR2C2AP_5
CRELD2_5
GPR173_2
PGP_2
SNRNP35_3
DGAT2L6_1
IRAK1_10
CMSS1_6
PCDH9_5
OAF_2
ALDH1A3_5
POU6F1_5
TM2D3_8
TSSC4_9
SIX6_1
PRKD1_6
ZDHHC23_6
GDF3_1
SLIT3_3
EFNA5_3
MRGPRE_1
SPATA32_3
MAP7D2_4
CSF1_8
COLEC10_1
PLA2G6_17
SS18L1_4
COPB2_9
THAP7_2
CCR10_3
BPIFC_4
WDR27_4
TXNRD2_13
PTP4A3_11
PROS1_4
GAST_1
NUTM1_4
HDDC3_4
ZFP1_6
CEND1_1
C6orf58_1
DHRS7C_3
DUSP8_2
SLITRK6_1
PIWIL3_4
XPOT_4
TMEM173_2
PDE4B_10
C14orf180_6
SNN_1
KCNH7_4
NELL2_15
KRBA2_2
MED12_5
PRSS55_3
ODF4_4
CDCA2_2
RALYL_10
AMER1_2
ZBTB40_4
CLDN6_3
SEPT5_12
LRRC26_1
SERINC4_5
RNLS_3
APOBR_2
ATL3_3
NDUFA12_6
TCTE3_1
UBE2G2_4
OSBP2_15
ZBTB7C_28
TMED9_1
DRD1_1
TMEM186_1
SDR42E1_2
ARMCX2_8
H1FX_1
RBM43_2
TCEAL2_2
JAG2_2
FMNL1_6
PTRHD1_1
LCN12_3
WT1_12
NDUFA6_4
CHRM5_3
TMEM106A_5
SIVA1_6
BRI3BP_1
DGAT1_2
RFX6_1
AP3M1_2
F8_4
CA13_1
MAFF_7
LRRC14B_1
SEMA4B_11
CIB1_2
ANKS1B_23
NELFA_12
SLC24A3_2
EFCAB10_4
C5orf47_1
FLRT2_2
MANEAL_5
ADSSL1_6
FAF1_3
PURA_1
INPP5J_11
NPY2R_2
MIXL1_2
MFSD6L_1
DDX51_1
SIGIRR_9
NRBP2_3
TNFAIP2_8
ZNF445_3
PGBD2_2
TCEAL9_2
MC2R_2
RAB11B_4
PRMT3_5
GP1BA_2
PRPF39_7
PPIL6_7
ZNF74_7
CDNF_2
KLHL33_3
RBM11_1
ZBTB37_4
CCDC137_5
ARL15_4
C12orf56_3
CDK10_12
SOCS1_1
TCN2_4
GAS2L1_8
ATP6V0A2_5
C14orf80_14
HGS_8
TARSL2_4
IFNLR1_5
SH3BGR_9
TMEM179B_3
GPRIN3_2
PARPBP_9
ROR1_3
MUC1_26
IRF7_11
SV2B_4
FAM131C_1
NR2F2_5
DLK1_4
LSAMP_4
OLFML2A_3
SP1_4
DBX2_1
FAM212A_1
PCGF3_9
P4HB_12
PSMD13_9
PBX1_13
NDUFA4L2_3
SHC4_5
NTF3_2
BRWD1_11
SMIM23_3
SNAI3_1
ZBTB3_3
LYG2_6
C6orf201_4
MYBL1_3
ANKFY1_6
ADARB2_3
NRG3_9
SRL_3
C11orf87_1
CXorf38_3
CLDN24_2
KCNQ5_13
ADAMTSL5_6
WDR53_5
DMWD_6
PIGP_6
IKZF1_13
CCDC190_3
EVI2B_2
THNSL1_2
TRIM69_7
ATP6V0C_4
PRSS38_1
LAMP1_1
POMK_3
KLHDC8B_1
SETD4_12
RTN4RL1_1
CALHM1_1
C7orf61_2
FAM186A_4
BICD2_2
TMLHE_2
RASA3_1
LRCH3_9
LEMD1_7
ATP4B_1
ZNF566_7
DLEU7_2
C15orf41_10
CYP2R1_6
ANKRD46_9
ZBTB6_1
C2orf76_5
POLR3C_2
PRR30_2
UBL4B_1
CCDC84_3
BCL9L_3
KIF18B_3
FFAR4_3
BPIFB3_1
BPIFB4_2
SAPCD2_1
SLC51B_1
KLHL32_7
MKL2_8
BTLA_2
GPAT2_4
TOR3A_5
PPP1CC_8
NAP1L3_2
BACE1_9
RGS9BP_1
SLC36A3_2
RXRA_1
ANKRD37_2
NUDT17_1
ZNF75D_2
CYP4X1_1
KRT26_1
CCDC30_7
NKRF_3
GLDN_5
KRT3_1
DEFB132_1
NAP1L2_1
AKAP14_4
RGS7BP_1
INSIG1_5
MYT1L_5
TMEM222_9
ARHGAP30_6
GPATCH8_6
CEACAM19_7
NF2_11
SPATC1_2
KATNA1_5
FSD2_3
KIF24_2
PDE2A_22
CARMIL3_1
PRG2_3
CYP27C1_2
LYRM7_3
CFAP73_2
CCDC73_3
BCR_3
SPIN4_1
KCNK18_1
VSIG10L_2
CXCR3_2
ZNF397_8
ZSCAN30_10
TPCN1_16
TRABD2A_3
PDZD7_5
POFUT2_6
QRFPR_3
MAPT_13
ERCC6L_2
TNFRSF18_4
FGF3_1
ZDHHC17_10
SERPINA11_1
ZNF395_9
ZACN_3
PPARA_6
TMEM232_5
EFCAB6_3
KANK3_4
EMID1_7
PTRH1_6
GPR141_3
RPS19BP1_2
TMPRSS11A_3
TMEM262_4
C3orf70_1
TEAD1_6
PLCD1_2
MITF_14
NAP1L1_21
LYPD6_5
VSTM2B_1
ANGPTL5_2
SHTN1_5
GCNT1_3
SESTD1_7
FNBP1_5
RSBN1L_4
NPSR1_9
FAM9C_4
DCC_10
TAF9B_1
MAGI2_21
LUZP2_4
CHP1_6
KCNJ11_4
COL4A1_3
PLEKHG7_3
HSPA14_3
ATP13A5_3
SIRT7_3
IFT140_6
AGMO_3
USP7_12
PLEKHN1_4
ZNF385C_2
TMEM247_1
MAGEH1_1
TET3_2
TMEM8C_1
C17orf97_4
VMAC_1
HAPLN4_1
ERC2_4
B3GLCT_1
SPRY4_3
TRPV2_6
C2orf88_6
GABRD_10
TCEA1_11
NHEJ1_6
SECISBP2_5
SEMA4D_15
LIN28B_3
FAM69C_2
MCRS1_11
TMEM72_2
FANCM_7
ZNF70_1
CARD9_3
PEAR1_4
ZFP69_2
HELT_3
TMEM220_5
PLSCR3_11
P2RX2_8
CCDC157_5
TTC24_2
GFRAL_1
C1orf168_1
CLEC17A_4
OR51I2_1
CYHR1_8
COL14A1_8
DNER_1
CPSF4L_2
PLA2G2C_2
ZSCAN23_2
RINL_4
C17orf99_3
MORN2_6
RILPL1_2
ZNF490_3
WNT7B_5
OR2AG2_1
MAPK12_4
TMEM215_1
COL4A5_5
AGRN_4
NHS_4
FAM166A_2
HEPACAM2_4
SMTNL2_3
ZNF793_10
PLA2G2A_2
HYKK_6
RUFY4_3
C19orf35_1
LRRIQ4_1
PLSCR1_13
C3orf62_3
ENO4_5
SBK1_1
FAM92A_17
IFNA2_1
JAKMIP3_1
TCTEX1D4_1
SELL_1
CHM_2
SLC24A5_3
INSC_6
SERPINA5_12
C19orf54_9
LCTL_3
NCCRP1_1
KRTDAP_2
COL25A1_8
C15orf52_4
NBR1_5
RALGAPA2_4
NDOR1_4
CFAP54_4
S100A16_4
PTAR1_4
SAXO2_5
C2orf80_7
PARVB_5
UROS_8
KRTAP24-1_1
QRFP_2
DUPD1_1
SMIM15_2
OSTN_2
FAM221A_6
TMEM120B_4
TMEM198_4
BCL2L15_3
SPRED3_5
OPTC_2
ADRB3_1
SKOR1_4
CATSPER4_3
PRELP_1
PLA2G2E_1
MTF1_1
FAM26F_3
CNR2_1
GLRA4_2
RPL14_4
BEND4_3
FAM78B_5
TMC3_2
FBF1_8
ASTL_1
MSL1_6
AC099489.1_4
LRRK2_5
FAM196A_3
TRMT2B_4
HACD4_1
NYX_2
C9orf152_1
MSANTD1_4
AADACL3_1
NELFB_2
SLC15A5_1
LRRC66_1
ZNF292_6
SBSN_3
ADAT2_2
DUSP21_1
ZNF567_6
ALKBH2_7
RNFT1_5
RNF222_2
APOD_4
ARID2_5
SF3B3_7
PRSS48_2
IL1RAPL2_2
SP6_2
ANKRD34B_2
CLDN4_3
JPT1_9
S100A13_4
PCDH18_6
BTBD8_3
C15orf61_2
NUGGC_2
GJB5_1
ALKAL2_7
RRP7A_2
LIN54_8
FAM53B_3
FAM180A_3
C6orf222_1
KAZN_8
TOGARAM2_4
NEMP2_5
CXCL17_2
SH2D5_6
IL1RAP_14
MYBPC1_14
PAX5_15
TDRD7_1
CCDC189_6
SPATS2L_21
ZNF250_9
WDSUB1_5
ZNF79_4
S100A4_4
PLEKHG4_14
ACADSB_2
STK40_4
TMEM63A_3
CTSE_2
SEMA4A_9
MPHOSPH8_3
SRGAP3_3
TUBB_24
SUPT5H_9
XPNPEP3_3
SFTA2_5
GRM7_11
SUPT3H_5
ATP2A1_8
ZBTB44_8
STK31_7
NLGN3_5
CD55_6
CPNE4_9
NTNG2_2
WDR5_3
LONP1_10
ASB13_2
SLC35F1_2
ZNF34_4
ZNF140_9
INCA1_4
EVL_11
NOXO1_5
EPHB4_3
XRCC6_6
S100A5_2
TSC22D2_4
CRYBA4_1
YRDC_1
ZNF777_1
PIK3R4_4
MYL6B_4
FGF16_1
SIAH1_5
C20orf96_3
ESRRG_19
IPO4_9
NCOR2_15
ARL9_2
PRPF40A_5
GDAP2_2
TCEAL3_3
TPK1_8
SLC6A9_8
AFAP1_5
MYO18A_9
BORCS6_1
MAN2A2_16
MME_14
AJAP1_2
XRCC2_1
MYO6_7
MKL1_10
HDAC2_12
MMP1_1
TCF4_71
WNK3_5
SDHAF3_2
ZKSCAN5_4
TRAPPC4_8
SLC30A10_2
TECPR2_2
ERI2_6
HSH2D_7
ZNF512B_1
ALKAL1_2
NF1_16
DAPK1_7
COL27A1_3
GM2A_3
CLPSL2_2
S100A2_6
CD47_4
TLE1_4
MAML3_3
STRN3_6
ZNF239_4
CHRNG_2
ZSCAN16_1
MVB12B_3
C6orf106_3
ARID5A_3
KRT39_2
NHLRC2_1
KIAA1211L_5
LAMB3_5
TEX43_1
ARHGEF12_3
PDLIM7_11
TMEM26_4
SRGAP1_3
FAM3C_3
NOP9_3
SLC39A10_7
CASP4_4
FUT11_2
ANXA4_5
WDR5B_1
FAM163B_2
ZNF398_4
ZSCAN25_5
SIGLEC15_3
ZMYM1_4
MAFG_3
ARRDC1_4
KRT35_2
IGF2R_2
SLC6A17_1
ZGPAT_6
SLC25A29_10
SRC_4
ACSL5_5
LRRC8B_6
ABCB8_13
HIST1H3J_1
SND1_2
NEK5_3
PSMD12_4
PIWIL2_4
SLC22A4_1
ENTPD4_6
SERPINA1_31
KANK2_8
GUCA2A_1
RAD54B_5
ZNF165_1
FITM2_1
BLM_3
OR10D3_1
DDI2_3
TRIM33_3
LRP10_3
PELI1_1
MRPL21_7
UAP1L1_3
ZNF786_2
OR8S1_1
ADARB1_9
HTT_2
OR6N1_1
VEPH1_12
FABP12_2
SHPK_1
IPP_2
MAP3K5_1
OGDHL_3
GSTK1_6
STMN3_5
PDGFA_4
COL13A1_11
SPN_4
GALP_3
SLC2A10_2
SLC28A3_1
FAM177B_5
MYO5A_10
SIPA1L1_6
ELANE_4
RAB40C_11
PIGN_41
COL4A6_6
BCO2_12
ENTPD6_13
DMBX1_2
ENPP1_2
CCDC154_3
C5orf42_5
ZNF615_13
CDC42SE1_3
SERPINB2_5
DPP4_5
SERPINB13_5
PDCD1LG2_1
CCER1_2
PARVA_2
KLHL14_3
FAM114A1_3
PHF2_3
PSAP_4
S100A10_2
CFAP43_6
CFD_4
STPG3_6
MCMBP_2
KLHDC1_5
ZNF81_4
FAM118B_7
CCDC180_1
SLC9A8_2
OCLN_7
FAM212B_4
GPAA1_8
ADAMTSL2_3
SGTB_2
FAM49A_4
MYO1C_12
NKIRAS1_9
MEIG1_2
SLC22A12_5
KIF13B_5
NRAP_4
SLC22A6_5
TEAD4_8
ERO1A_7
ZNF311_7
PLCG2_5
FCHSD1_5
AADACL2_2
S100A6_4
DNM3_7
ZNF121_3
MPZL1_5
VPS13A_9
MBP_31
ELOVL2_1
CLEC9A_1
KEL_4
NOL8_21
IRAK4_12
CCDC151_4
DLGAP2_15
ENTPD7_2
ZNF335_1
ZNF560_1
ZNF667_7
AVPR1B_1
PRIM1_4
MARCH5_1
ZBTB14_7
CD2AP_1
NUP62CL_4
TMPRSS11F_1
ADH4_9
OR2T6_1
ZNF248_8
MB_10
HIBCH_9
TMEM229B_7
HMGN5_6
MIER1_9
MAN1A2_4
SVIP_1
DDRGK1_2
TFDP1_4
ZNF607_5
BPIFA1_4
HSD17B11_2
SULT1C2_7
RPS6KL1_10
CACNA1E_9
QRICH1_7
DDX42_9
SLC29A3_1
STYX_2
HELZ_7
UCKL1_4
CARD11_3
ZNF485_3
PEG3_7
HYLS1_3
MYL4_10
ASNA1_4
SPRED2_7
WWP2_7
GFPT1_2
UVRAG_7
ZNF26_4
ITSN2_9
NTRK1_5
MGEA5_5
TCAF1_6
TXNRD1_20
ZNF583_4
TPM2_5
RTP2_1
ANKRD35_2
YTHDF2_5
ATL1_8
CNGA1_8
C1orf228_8
PLN_1
ITGBL1_6
ZNF627_4
WDHD1_4
ZNF789_6
CTNND1_35
DDX39B_32
SLC34A3_2
NUDT16_3
LRBA_6
ZNF536_4
MMP17_8
BAZ1A_7
AKR1C4_2
MDM4_12
RYR2_2
FAM3D_5
NCOA6_5
STK39_1
TAT_1
C6orf89_4
FAM19A2_8
PAPSS2_2
SLC9A6_12
FAN1_7
ABCA4_2
IPO9_2
GLMP_9
TOGARAM1_6
DLL1_2
ANKRD13B_5
TEX45_5
CTR9_2
LRRTM3_1
ZNF652_3
SMURF1_2
GPATCH3_3
CDC42BPB_3
COLGALT2_3
EPS8L3_4
EGFL6_2
SYCP1_5
APCDD1L_2
RCSD1_3
GRIN3A_1
TMEM184B_6
SCAMP5_15
ZNF521_8
ALPK2_1
BRINP2_1
LRIG2_1
PAX9_3
GK_12
FOXJ3_9
CD247_2
GRM3_5
INPP5F_8
ARHGAP11A_9
UBE2J1_1
GJC2_1
OPA1_12
DENND4B_3
ZNF277_7
DUSP27_3
ARHGEF15_5
TOX_1
CD3E_2
RUSC2_2
FICD_4
R3HDM4_5
LTN1_5
RUNDC1_2
CCDC152_2
STKLD1_1
GRK5_1
DCAF12_3
SFMBT2_4
SHISA4_1
CIPC_7
CAPZA2_8
TOP1_1
PRC1_9
MAP3K3_8
RASGEF1A_4
DZIP3_6
KIAA0753_8
DCLRE1A_2
NOS1AP_5
CSAG1_4
APRT_7
TBKBP1_4
MAGEE1_1
CCDC167_1
NAGA_3
SMG5_1
KIF1BP_11
TGM2_3
RORB_2
SGMS1_7
OR10R2_1
OR10Z1_1
COX20_2
STUM_2
TATDN3_13
C1orf53_2
ECT2L_4
METTL11B_1
CENPW_3
FAM229B_2
FANK1_7
PRR9_1
LELP1_1
KPRP_1
DDO_3
PLPP4_3
PNLIPRP3_1
C6orf163_2
RIPPLY2_2
PCMTD2_9
OOEP_3
C1orf146_2
CXorf66_1
SAMD13_7
C1orf141_7
EFCAB7_1
DEFB110_2
GLYATL3_2
C1orf185_3
LIPN_1
LIPK_1
LRIT2_2
LRRC73_1
INPP5B_6
TRAF3IP1_3
CHIC1_4
GIGYF2_25
NHSL2_5
PHACTR4_6
TMEM57_2
AWAT1_1
DAXX_7
BMPR2_3
TCEA3_4
PFDN6_10
RING1_3
HSD17B8_3
RXRB_16
OXLD1_5
HLA-DOA_12
HLA-DMA_20
COL5A2_2
PSMB8_24
SPIN3_43
PAGE3_2
HLA-DRA_6
COL15A1_2
TMEM225_2
NOTCH4_6
PBX2_7
AGER_44
RNF5_1
AGPAT1_6
DFNB59_4
FKBPL_1
ERICH2_1
SP5_1
STK19_17
DXO_5
SKIV2L_10
NELFE_28
NXPE2_1
LAYN_9
SLC44A4_16
LSM2_1
VARS_3
MBD5_9
MPIG6B_28
ABHD16A_11
LY6G5C_13
CSNK2B_4
GPANK1_8
NFKBIL1_4
MCCD1_3
AADACL4_1
ZNF805_2
CCHCR1_55
PSORS1C2_4
CDSN_4
C6orf15_5
DEFB121_1
DHX16_21
MRPS18B_1
PPP1R10_1
ABCF1_9
PRR3_2
DDR1_105
GNL1_2
TRIM15_24
TRIM10_14
TRIM40_3
RNF39_10
DISP3_2
TBC1D8_2
ASPDH_4
IL31_1
AKT1S1_8
OR14J1_4
SPDYC_1
C9orf135_6
TRIM27_19
RANBP17_10
TTC25_4
ATXN2_15
DCTN1_17
PNMA8B_1
FAM216A_2
ZBTB48_5
KRT40_3
MZT1_1
SPINK9_2
LRRC3C_1
GRXCR2_2
ZNF783_4
FBXO47_1
C12orf73_10
SPIRE2_4
AARD_1
SLC35B4_3
FAM71F2_2
CCNI2_2
CDKL4_4
C4orf47_4
ARID3C_1
FABP9_1
C4orf46_2
LGR4_3
PSMB10_2
VIT_8
E2F4_5
TMEM170B_1
CTXN3_3
SNX2_4
NT5M_5
OR6C1_1
ADGRG1_65
IPO7_4
TECPR1_4
SLCO6A1_5
C15orf59_3
CFI_5
CNEP1R1_9
EXOC3L4_4
IZUMO3_3
ATP6AP1L_2
RGL3_7
NAP1L4_15
CPT1B_7
LCMT1_8
MFSD2B_3
LIN52_2
ACOT6_2
SMIM11A_3
TECRL_4
DPF3_7
DENND1C_7
C5orf51_2
C16orf96_1
TTC23L_5
DEFB134_2
DEFB136_1
C18orf63_1
DOK6_2
SERPINB5_3
KRTAP27-1_1
HBM_1
ATP10A_5
ANKUB1_3
RAB12_1
HACD2_3
CD200R1L_5
LNP1_3
VGLL3_4
PRSS50_1
TRIM71_1
METTL6_7
DIO1_15
SACM1L_6
TSN_8
PRR22_2
KRTAP3-1_2
SYT3_5
DENND1B_5
SCAF8_3
LINGO4_1
DNLZ_2
TCL1B_1
SUPT4H1_6
LTC4S_3
ANKRD39_2
CHUK_1
PTPRCAP_1
SIPA1_5
NDUFS3_6
LBH_6
GPSM3_33
NCKIPSD_8
ATF6B_9
S1PR3_2
SLC35F6_3
DDAH2_18
RPS29_3
DDX47_3
EMP2_2
CEACAM16_2
SLC23A3_6
CSNK1E_11
GALT_7
HBE1_3
ITGA1_1
NUDT19_1
TAX1BP3_2
AP1G2_8
NAXD_2
TM6SF2_1
ZNF891_1
TSPAN4_14
MAGEB1_3
LYRM4_6
SH3D21_3
C19orf38_2
C17orf67_1
FIS1_6
NPS_1
NEURL1B_3
EFCAB9_1
HAUS3_5
AS3MT_2
NOTO_1
PPME1_2
CPEB1_27
DEFB133_1
ZSWIM8_11
ARHGEF33_4
CAPN14_2
FER1L6_1
MTCP1_3
ZSWIM7_13
LRRC69_4
GSG1L2_1
ACSM4_1
GRID2IP_3
UBXN2B_5
MSMP_1
FAM166B_4
GRXCR1_1
C5orf49_2
KCNU1_5
RNF212B_5
VPS16_4
MYL5_7
ZNF407_6
NPEPL1_4
GCGR_3
TMEM242_2
TNFRSF25_12
TSTD1_5
RPTN_1
TTC34_2
CKLF_6
FANCG_3
AP4M1_12
TAS2R41_1
NPTXR_2
FAM200A_2
TAS2R40_1
XKR9_4
APOL6_1
FADS3_7
MYBPHL_1
FAM185A_5
VPS52_9
CPTP_2
ATXN1L_1
GPX5_2
MCRIP1_11
SLC26A6_13
OR6V1_1
ERCC6_6
NOL7_2
NTF4_2
SRRM5_2
WDR46_2
SCAMP4_8
PROB1_1
ZNF688_5
ACBD6_1
HLA-DPA1_19
TAPBP_22
ZBED9_1
MCTS1_2
PIRT_1
TRIM26_33
ZNF879_4
ZNF736_3
ZSCAN31_17
HGH1_3
PPP1R3E_6
NFAM1_2
RGL2_4
KIFC1_3
RBM14_5
STPG4_4
CDRT4_2
ADSL_17
TEX35_7
PSMB9_31
COX19_2
ARHGEF25_3
PLCXD2_3
NSUN6_3
YAE1D1_3
TDGF1_2
CRCP_5
PISD_10
C22orf39_6
SERPINB10_4
DECR2_11
TTC4_1
ZNF512_5
RTL9_3
DDOST_4
TMEM199_4
ETV5_7
CCDC153_2
FMN1_9
TMEM150C_4
SPATS1_4
CLRN2_1
FER1L5_1
HS3ST5_2
TERB1_5
KIAA1456_5
ATP6V1E2_2
ZNF674_3
HOXA10_3
PRKDC_4
ETV3L_1
LYN_3
LRRC24_2
AP002495.2_7
MEX3A_1
EEF1G_1
MPV17L2_1
NOX5_6
TIFAB_1
TAS2R20_1
CTSO_2
HMBS_15
ASIC5_2
SALL3_5
POLG2_3
SLC5A8_1
TAS2R38_1
GATC_3
ZNF625_3
CUX1_12
TEN1_4
PRSS58_2
CLEC5A_5
RTEL1_8
SPESP1_1
CEP95_10
TMEM179_12
THTPA_7
MRPL46_4
HOXB7_1
FRRS1L_1
XKR7_1
CCPG1_11
PECAM1_4
GAN_1
IKBKE_5
MSMB_2
GDF2_1
C1orf186_4
OTUD7B_2
GJA5_3
RBP3_1
RBM8A_5
RNF115_1
TXNIP_2
SRGAP2_9
BAHCC1_2
STRADA_41
KLF14_1
GDF10_1
ZNF224_4
LIN37_4
GABRQ_1
SLC6A14_1
CALR3_2
MAGIX_7
EGLN2_14
HEATR9_11
GAS2L2_3
C17orf50_3
RASL10B_1
MMP28_12
LIX1L_1
GTF2H5_1
NUDT3_1
KMT2B_1
GRIN2B_4
CWC25_10
LHX1_4
SOCS7_6
RCC1L_4
MLLT6_6
PPP4R3B_3
NUDT18_2
ZNF2_5
PRAG1_2
CCL18_3
HNF1B_12
XKR5_2
AATF_4
LYZL6_6
TUBGCP5_19
DUSP14_6
UHRF1_7
TADA2A_18
PIP4K2B_4
DACH1_4
PCGF2_7
SRCIN1_10
GPR179_2
GPIHBP1_1
PSMB3_4
RDM1_29
DDX52_10
MYO19_24
GGNBP2_4
C17orf78_2
ACACA_14
NR2E3_3
