ENSMUSG00000068600
ENSMUSG00000023186
ENSMUSG00000027575
ENSMUSG00000055333
ENSMUSG00000038543
ENSMUSG00000036402
ENSMUSG00000042459
ENSMUSG00000043556
ENSMUSG00000030468
ENSMUSG00000002699
ENSMUSG00000027082
ENSMUSG00000043939
ENSMUSG00000060594
ENSMUSG00000026825
ENSMUSG00000006585
ENSMUSG00000095362
ENSMUSG00000073386
ENSMUSG00000006522
ENSMUSG00000089756
ENSMUSG00000095545
ENSMUSG00000095199
ENSMUSG00000078898
ENSMUSG00000022584
ENSMUSG00000021676
ENSMUSG00000066584
ENSMUSG00000044743
ENSMUSG00000004043
ENSMUSG00000039542
ENSMUSG00000103350
ENSMUSG00000020640
ENSMUSG00000069727
ENSMUSG00000055067
ENSMUSG00000029682
ENSMUSG00000027483
ENSMUSG00000048830
ENSMUSG00000091572
ENSMUSG00000062518
ENSMUSG00000063652
ENSMUSG00000039013
ENSMUSG00000017781
ENSMUSG00000040614
ENSMUSG00000073411
ENSMUSG00000038235
ENSMUSG00000032915
ENSMUSG00000056300
ENSMUSG00000112223
ENSMUSG00000062545
ENSMUSG00000073409
ENSMUSG00000026734
ENSMUSG00000079012
ENSMUSG00000025484
ENSMUSG00000060550
ENSMUSG00000044835
ENSMUSG00000033389
ENSMUSG00000073406
ENSMUSG00000060586
ENSMUSG00000022149
ENSMUSG00000045326
ENSMUSG00000021538
ENSMUSG00000026542
ENSMUSG00000028156
ENSMUSG00000079018
ENSMUSG00000042874
ENSMUSG00000091511
ENSMUSG00000070458
ENSMUSG00000095251
ENSMUSG00000094163
ENSMUSG00000070524
ENSMUSG00000006191
ENSMUSG00000032382
ENSMUSG00000046133
ENSMUSG00000040952
ENSMUSG00000066154
ENSMUSG00000059921
ENSMUSG00000074519
ENSMUSG00000070601
ENSMUSG00000090317
ENSMUSG00000092162
ENSMUSG00000092048
ENSMUSG00000060671
ENSMUSG00000049761
ENSMUSG00000028012
ENSMUSG00000050890
ENSMUSG00000071158
ENSMUSG00000038143
ENSMUSG00000038602
ENSMUSG00000047454
ENSMUSG00000090581
ENSMUSG00000056201
ENSMUSG00000073402
ENSMUSG00000078503
ENSMUSG00000010601
ENSMUSG00000061232
ENSMUSG00000069830
ENSMUSG00000038180
ENSMUSG00000050912
ENSMUSG00000096930
ENSMUSG00000053367
ENSMUSG00000032099
ENSMUSG00000070511
ENSMUSG00000031072
ENSMUSG00000026860
ENSMUSG00000062200
ENSMUSG00000014353
ENSMUSG00000063564
ENSMUSG00000078257
ENSMUSG00000053930
ENSMUSG00000059459
ENSMUSG00000104252
ENSMUSG00000037902
ENSMUSG00000062590
ENSMUSG00000039236
ENSMUSG00000036309
ENSMUSG00000028010
ENSMUSG00000067235